capturas-osciloscopio/17-11-22/WA000007.CSV

Record Length,4096,,Source,CH1
Sample Interval,0.0000000100000,,Second,Volt
Vertical Units,CH1:V,,-0.000020480000,-0.56000
Vertical Scale,CH1:2.00,,-0.000020469998,-0.88000
Vertical Offset,CH1:0.00,,-0.000020460000,-0.72000
Horizontal Units,s,,-0.000020450000,-1.04000
Horizontal Scale,0.0000025000,,-0.000020440000,-1.04000
Model Number,WaveAce112,,-0.000020430000,-1.12000
Serial Number,LCRY2101C02399,,-0.000020420000,-0.96000
Software Version,2.07.02.16,,-0.000020410000,-1.04000
,,,-0.000020400000,-0.96000
,,,-0.000020390000,-0.72000
,,,-0.000020379998,-0.64000
,,,-0.000020370000,-0.40000
,,,-0.000020360000,-0.40000
,,,-0.000020350000,-0.32000
,,,-0.000020340000,-0.24000
,,,-0.000020330000,-0.24000
,,,-0.000020320000,-0.08000
,,,-0.000020310000,-0.08000
,,,-0.000020300000,-0.08000
,,,-0.000020289998,-0.08000
,,,-0.000020280000,0.00
,,,-0.000020270000,0.08000
,,,-0.000020260000,0.08000
,,,-0.000020250000,0.08000
,,,-0.000020240000,0.00
,,,-0.000020230000,0.00
,,,-0.000020219998,0.00
,,,-0.000020210000,-0.08000
,,,-0.000020199998,-0.08000
,,,-0.000020190000,-0.24000
,,,-0.000020180000,-0.32000
,,,-0.000020170000,-0.32000
,,,-0.000020160000,-0.40000
,,,-0.000020150000,-0.64000
,,,-0.000020140000,-0.72000
,,,-0.000020129998,-1.12000
,,,-0.000020120000,-1.20000
,,,-0.000020110000,-1.60000
,,,-0.000020100000,-1.92000
,,,-0.000020090000,-2.08000
,,,-0.000020080000,-2.24000
,,,-0.000020070000,-2.56000
,,,-0.000020060000,-2.72000
,,,-0.000020050000,-3.20000
,,,-0.000020039998,-3.20000
,,,-0.000020030000,-3.68000
,,,-0.000020020000,-3.84000
,,,-0.000020010000,-4.32000
,,,-0.000020000000,-4.32000
,,,-0.000019990000,-4.64000
,,,-0.000019980000,-4.80000
,,,-0.000019970000,-5.04000
,,,-0.000019960000,-5.12000
,,,-0.000019949998,-4.96000
,,,-0.000019940000,-5.04000
,,,-0.000019930000,-5.04000
,,,-0.000019920000,-5.04000
,,,-0.000019910000,-5.12000
,,,-0.000019900000,-5.20000
,,,-0.000019890000,-5.12000
,,,-0.000019880000,-5.20000
,,,-0.000019870000,-4.96000
,,,-0.000019859998,-4.96000
,,,-0.000019850000,-5.04000
,,,-0.000019840000,-4.96000
,,,-0.000019830000,-5.04000
,,,-0.000019820000,-4.96000
,,,-0.000019810000,-5.04000
,,,-0.000019800000,-4.96000
,,,-0.000019789998,-5.12000
,,,-0.000019780000,-4.88000
,,,-0.000019769998,-4.96000
,,,-0.000019760000,-4.96000
,,,-0.000019750000,-4.96000
,,,-0.000019740000,-4.96000
,,,-0.000019730000,-5.04000
,,,-0.000019720000,-4.96000
,,,-0.000019710000,-4.88000
,,,-0.000019699998,-4.96000
,,,-0.000019690000,-4.88000
,,,-0.000019680000,-4.96000
,,,-0.000019670000,-4.80000
,,,-0.000019660000,-4.96000
,,,-0.000019650000,-4.96000
,,,-0.000019640000,-4.96000
,,,-0.000019630000,-4.96000
,,,-0.000019620000,-4.96000
,,,-0.000019609998,-4.88000
,,,-0.000019600000,-4.88000
,,,-0.000019590000,-4.80000
,,,-0.000019580000,-4.80000
,,,-0.000019570000,-5.04000
,,,-0.000019560000,-4.80000
,,,-0.000019550000,-4.88000
,,,-0.000019540000,-4.96000
,,,-0.000019530000,-4.88000
,,,-0.000019519998,-4.88000
,,,-0.000019510000,-4.88000
,,,-0.000019500000,-4.80000
,,,-0.000019490000,-4.80000
,,,-0.000019480000,-4.72000
,,,-0.000019470000,-4.88000
,,,-0.000019460000,-4.72000
,,,-0.000019450000,-4.80000
,,,-0.000019440000,-4.64000
,,,-0.000019429998,-4.72000
,,,-0.000019420000,-4.72000
,,,-0.000019410000,-4.72000
,,,-0.000019400000,-4.80000
,,,-0.000019390000,-4.72000
,,,-0.000019380000,-4.64000
,,,-0.000019370000,-4.64000
,,,-0.000019359998,-4.64000
,,,-0.000019350000,-4.72000
,,,-0.000019339998,-4.64000
,,,-0.000019330000,-4.80000
,,,-0.000019320000,-4.56000
,,,-0.000019310000,-4.72000
,,,-0.000019300000,-4.64000
,,,-0.000019290000,-4.64000
,,,-0.000019280000,-4.64000
,,,-0.000019269998,-4.48000
,,,-0.000019260000,-4.64000
,,,-0.000019250000,-4.48000
,,,-0.000019240000,-4.64000
,,,-0.000019230000,-4.48000
,,,-0.000019220000,-4.56000
,,,-0.000019210000,-4.64000
,,,-0.000019200000,-4.56000
,,,-0.000019190000,-4.48000
,,,-0.000019179998,-4.64000
,,,-0.000019170000,-4.48000
,,,-0.000019160000,-4.56000
,,,-0.000019150000,-4.56000
,,,-0.000019140000,-4.56000
,,,-0.000019130000,-4.56000
,,,-0.000019120000,-4.64000
,,,-0.000019110000,-4.56000
,,,-0.000019100000,-4.56000
,,,-0.000019089998,-4.56000
,,,-0.000019080000,-4.64000
,,,-0.000019070000,-4.72000
,,,-0.000019060000,-4.64000
,,,-0.000019050000,-4.56000
,,,-0.000019040000,-4.56000
,,,-0.000019030000,-4.48000
,,,-0.000019020000,-4.64000
,,,-0.000019010000,-4.64000
,,,-0.000018999998,-4.64000
,,,-0.000018990000,-4.56000
,,,-0.000018980000,-4.56000
,,,-0.000018970000,-4.56000
,,,-0.000018960000,-4.56000
,,,-0.000018950000,-4.48000
,,,-0.000018940000,-4.48000
,,,-0.000018929998,-4.48000
,,,-0.000018920000,-4.56000
,,,-0.000018909998,-4.48000
,,,-0.000018900000,-4.56000
,,,-0.000018890000,-4.48000
,,,-0.000018880000,-4.48000
,,,-0.000018870000,-4.40000
,,,-0.000018860000,-4.56000
,,,-0.000018850000,-4.40000
,,,-0.000018839998,-4.40000
,,,-0.000018830000,-4.24000
,,,-0.000018820000,-4.32000
,,,-0.000018810000,-4.32000
,,,-0.000018800000,-4.24000
,,,-0.000018790000,-4.24000
,,,-0.000018780000,-4.24000
,,,-0.000018770000,-4.08000
,,,-0.000018760000,-4.08000
,,,-0.000018749998,-4.08000
,,,-0.000018740000,-3.92000
,,,-0.000018730000,-4.08000
,,,-0.000018720000,-3.92000
,,,-0.000018710000,-3.84000
,,,-0.000018700000,-3.92000
,,,-0.000018690000,-3.92000
,,,-0.000018680000,-3.84000
,,,-0.000018670000,-3.76000
,,,-0.000018659998,-3.84000
,,,-0.000018650000,-3.68000
,,,-0.000018640000,-3.84000
,,,-0.000018630000,-3.68000
,,,-0.000018620000,-3.68000
,,,-0.000018610000,-3.68000
,,,-0.000018600000,-3.60000
,,,-0.000018590000,-3.68000
,,,-0.000018580000,-3.52000
,,,-0.000018569998,-3.52000
,,,-0.000018560000,-3.60000
,,,-0.000018550000,-3.52000
,,,-0.000018540000,-3.44000
,,,-0.000018530000,-3.44000
,,,-0.000018520000,-3.52000
,,,-0.000018510000,-3.52000
,,,-0.000018499998,-3.36000
,,,-0.000018490000,-3.44000
,,,-0.000018479998,-3.28000
,,,-0.000018470000,-3.36000
,,,-0.000018460000,-3.36000
,,,-0.000018450000,-3.36000
,,,-0.000018440000,-3.28000
,,,-0.000018430000,-3.20000
,,,-0.000018420000,-3.28000
,,,-0.000018409998,-3.28000
,,,-0.000018400000,-3.20000
,,,-0.000018390000,-3.20000
,,,-0.000018380000,-3.04000
,,,-0.000018370000,-3.20000
,,,-0.000018360000,-3.20000
,,,-0.000018350000,-3.12000
,,,-0.000018340000,-3.20000
,,,-0.000018330000,-3.12000
,,,-0.000018319998,-3.04000
,,,-0.000018310000,-2.96000
,,,-0.000018300000,-3.04000
,,,-0.000018290000,-3.04000
,,,-0.000018280000,-2.96000
,,,-0.000018270000,-3.04000
,,,-0.000018260000,-2.88000
,,,-0.000018250000,-2.88000
,,,-0.000018240000,-2.80000
,,,-0.000018229998,-2.80000
,,,-0.000018220000,-2.80000
,,,-0.000018210000,-2.72000
,,,-0.000018200000,-2.72000
,,,-0.000018190000,-2.72000
,,,-0.000018180000,-2.56000
,,,-0.000018170000,-2.64000
,,,-0.000018160000,-2.56000
,,,-0.000018150000,-2.48000
,,,-0.000018139998,-2.56000
,,,-0.000018130000,-2.56000
,,,-0.000018120000,-2.32000
,,,-0.000018110000,-2.40000
,,,-0.000018100000,-2.32000
,,,-0.000018090000,-2.40000
,,,-0.000018080000,-2.32000
,,,-0.000018069998,-2.24000
,,,-0.000018060000,-2.24000
,,,-0.000018049998,-2.16000
,,,-0.000018040000,-2.16000
,,,-0.000018030000,-2.24000
,,,-0.000018020000,-2.16000
,,,-0.000018010000,-2.16000
,,,-0.000018000000,-2.00000
,,,-0.000017990000,-2.08000
,,,-0.000017979998,-2.00000
,,,-0.000017970000,-1.92000
,,,-0.000017960000,-1.92000
,,,-0.000017950000,-1.92000
,,,-0.000017940000,-1.92000
,,,-0.000017930000,-1.92000
,,,-0.000017920000,-1.84000
,,,-0.000017910000,-1.84000
,,,-0.000017900000,-1.92000
,,,-0.000017889998,-1.84000
,,,-0.000017880000,-1.68000
,,,-0.000017870000,-1.76000
,,,-0.000017860000,-1.68000
,,,-0.000017850000,-1.68000
,,,-0.000017840000,-1.68000
,,,-0.000017830000,-1.76000
,,,-0.000017820000,-1.60000
,,,-0.000017810000,-1.76000
,,,-0.000017799998,-1.68000
,,,-0.000017790000,-1.68000
,,,-0.000017780000,-1.60000
,,,-0.000017770000,-1.60000
,,,-0.000017760000,-1.68000
,,,-0.000017750000,-1.60000
,,,-0.000017740000,-1.68000
,,,-0.000017730000,-1.60000
,,,-0.000017720000,-1.60000
,,,-0.000017709998,-1.60000
,,,-0.000017700000,-1.60000
,,,-0.000017690000,-1.60000
,,,-0.000017680000,-1.60000
,,,-0.000017670000,-1.60000
,,,-0.000017660000,-1.68000
,,,-0.000017650000,-1.68000
,,,-0.000017639998,-1.68000
,,,-0.000017630000,-1.68000
,,,-0.000017619998,-1.60000
,,,-0.000017610000,-1.60000
,,,-0.000017600000,-1.60000
,,,-0.000017590000,-1.60000
,,,-0.000017580000,-1.68000
,,,-0.000017570000,-1.60000
,,,-0.000017560000,-1.60000
,,,-0.000017549998,-1.60000
,,,-0.000017540000,-1.60000
,,,-0.000017530000,-1.68000
,,,-0.000017520000,-1.68000
,,,-0.000017510000,-1.68000
,,,-0.000017500000,-1.68000
,,,-0.000017490000,-1.60000
,,,-0.000017480000,-1.60000
,,,-0.000017470000,-1.60000
,,,-0.000017459998,-1.60000
,,,-0.000017450000,-1.60000
,,,-0.000017440000,-1.52000
,,,-0.000017430000,-1.76000
,,,-0.000017420000,-1.68000
,,,-0.000017410000,-1.76000
,,,-0.000017400000,-1.76000
,,,-0.000017390000,-1.84000
,,,-0.000017380000,-1.92000
,,,-0.000017369998,-2.08000
,,,-0.000017360000,-2.08000
,,,-0.000017350000,-2.24000
,,,-0.000017340000,-2.32000
,,,-0.000017330000,-2.64000
,,,-0.000017320000,-2.64000
,,,-0.000017310000,-2.88000
,,,-0.000017300000,-2.96000
,,,-0.000017290000,-3.28000
,,,-0.000017279998,-3.28000
,,,-0.000017270000,-3.68000
,,,-0.000017260000,-3.68000
,,,-0.000017250000,-4.08000
,,,-0.000017240000,-4.24000
,,,-0.000017230000,-4.64000
,,,-0.000017220000,-4.64000
,,,-0.000017209998,-4.80000
,,,-0.000017200000,-4.80000
,,,-0.000017189998,-4.88000
,,,-0.000017180000,-4.88000
,,,-0.000017170000,-4.96000
,,,-0.000017160000,-4.96000
,,,-0.000017150000,-4.80000
,,,-0.000017140000,-4.80000
,,,-0.000017130000,-4.80000
,,,-0.000017119998,-4.72000
,,,-0.000017110000,-4.48000
,,,-0.000017100000,-4.56000
,,,-0.000017090000,-4.40000
,,,-0.000017080000,-4.40000
,,,-0.000017070000,-4.24000
,,,-0.000017060000,-4.08000
,,,-0.000017050000,-3.92000
,,,-0.000017040000,-3.92000
,,,-0.000017029998,-3.76000
,,,-0.000017020000,-3.68000
,,,-0.000017010000,-3.60000
,,,-0.000017000000,-3.60000
,,,-0.000016990000,-3.36000
,,,-0.000016980000,-3.28000
,,,-0.000016970000,-3.12000
,,,-0.000016960000,-2.96000
,,,-0.000016950000,-3.04000
,,,-0.000016939998,-2.80000
,,,-0.000016930000,-2.80000
,,,-0.000016920000,-2.64000
,,,-0.000016910000,-2.56000
,,,-0.000016900000,-2.56000
,,,-0.000016890000,-2.48000
,,,-0.000016880000,-2.32000
,,,-0.000016870000,-2.24000
,,,-0.000016860000,-2.32000
,,,-0.000016849998,-2.24000
,,,-0.000016840000,-2.24000
,,,-0.000016830000,-2.16000
,,,-0.000016820000,-2.08000
,,,-0.000016810000,-2.08000
,,,-0.000016800000,-2.08000
,,,-0.000016790000,-2.08000
,,,-0.000016780002,-2.00000
,,,-0.000016770000,-2.00000
,,,-0.000016759998,-2.00000
,,,-0.000016750000,-1.92000
,,,-0.000016740000,-1.92000
,,,-0.000016730000,-1.84000
,,,-0.000016720000,-1.84000
,,,-0.000016710000,-1.76000
,,,-0.000016700000,-1.60000
,,,-0.000016689998,-1.60000
,,,-0.000016680000,-1.60000
,,,-0.000016670000,-1.60000
,,,-0.000016660000,-1.52000
,,,-0.000016650000,-1.52000
,,,-0.000016640000,-1.36000
,,,-0.000016630000,-1.36000
,,,-0.000016620000,-1.28000
,,,-0.000016610000,-1.20000
,,,-0.000016599998,-1.20000
,,,-0.000016590000,-1.12000
,,,-0.000016580000,-1.20000
,,,-0.000016570000,-1.12000
,,,-0.000016560000,-1.20000
,,,-0.000016550000,-0.96000
,,,-0.000016540000,-1.04000
,,,-0.000016530000,-0.96000
,,,-0.000016520000,-0.96000
,,,-0.000016509998,-1.04000
,,,-0.000016500000,-0.96000
,,,-0.000016490000,-0.88000
,,,-0.000016480000,-0.80000
,,,-0.000016470000,-0.88000
,,,-0.000016460000,-0.72000
,,,-0.000016450000,-0.80000
,,,-0.000016440000,-0.80000
,,,-0.000016430000,-0.80000
,,,-0.000016419998,-0.72000
,,,-0.000016410000,-0.80000
,,,-0.000016400000,-0.72000
,,,-0.000016390000,-0.72000
,,,-0.000016380000,-0.72000
,,,-0.000016370000,-0.72000
,,,-0.000016360000,-0.64000
,,,-0.000016350002,-0.72000
,,,-0.000016340000,-0.72000
,,,-0.000016329998,-0.72000
,,,-0.000016320000,-0.64000
,,,-0.000016310000,-0.64000
,,,-0.000016300000,-0.64000
,,,-0.000016290000,-0.64000
,,,-0.000016280000,-0.72000
,,,-0.000016270000,-0.56000
,,,-0.000016259998,-0.64000
,,,-0.000016250000,-0.64000
,,,-0.000016240000,-0.64000
,,,-0.000016230000,-0.56000
,,,-0.000016220000,-0.64000
,,,-0.000016210000,-0.56000
,,,-0.000016200000,-0.64000
,,,-0.000016190000,-0.48000
,,,-0.000016180000,-0.64000
,,,-0.000016169998,-0.56000
,,,-0.000016160000,-0.64000
,,,-0.000016150000,-0.56000
,,,-0.000016140000,-0.64000
,,,-0.000016130000,-0.56000
,,,-0.000016120000,-0.56000
,,,-0.000016110000,-0.64000
,,,-0.000016100000,-0.56000
,,,-0.000016090000,-0.64000
,,,-0.000016079998,-0.56000
,,,-0.000016070000,-0.56000
,,,-0.000016060000,-0.56000
,,,-0.000016050000,-0.56000
,,,-0.000016040000,-0.56000
,,,-0.000016030000,-0.48000
,,,-0.000016020000,-0.56000
,,,-0.000016010000,-0.48000
,,,-0.000016000000,-0.56000
,,,-0.000015989998,-0.48000
,,,-0.000015980000,-0.56000
,,,-0.000015970000,-0.48000
,,,-0.000015960000,-0.64000
,,,-0.000015950000,-0.48000
,,,-0.000015940000,-0.56000
,,,-0.000015930000,-0.48000
,,,-0.000015920002,-0.56000
,,,-0.000015910000,-0.48000
,,,-0.000015899998,-0.56000
,,,-0.000015890000,-0.48000
,,,-0.000015880000,-0.56000
,,,-0.000015870000,-0.48000
,,,-0.000015860000,-0.40000
,,,-0.000015850000,-0.24000
,,,-0.000015840000,-0.08000
,,,-0.000015829998,0.08000
,,,-0.000015820000,0.24000
,,,-0.000015810000,0.64000
,,,-0.000015800000,0.80000
,,,-0.000015790000,1.52000
,,,-0.000015780000,1.68000
,,,-0.000015770000,2.08000
,,,-0.000015760000,2.16000
,,,-0.000015750000,2.24000
,,,-0.000015739998,2.16000
,,,-0.000015730000,2.16000
,,,-0.000015720000,2.16000
,,,-0.000015710000,2.00000
,,,-0.000015700000,2.00000
,,,-0.000015690000,2.32000
,,,-0.000015680000,2.32000
,,,-0.000015670000,2.32000
,,,-0.000015660000,2.24000
,,,-0.000015649998,2.32000
,,,-0.000015640000,2.32000
,,,-0.000015630000,2.32000
,,,-0.000015620000,2.16000
,,,-0.000015610000,2.16000
,,,-0.000015600000,2.24000
,,,-0.000015590000,2.32000
,,,-0.000015580000,2.16000
,,,-0.000015570000,2.24000
,,,-0.000015559998,2.24000
,,,-0.000015550000,2.32000
,,,-0.000015540000,2.40000
,,,-0.000015530000,2.64000
,,,-0.000015520000,2.56000
,,,-0.000015510000,2.72000
,,,-0.000015500000,2.80000
,,,-0.000015490002,3.04000
,,,-0.000015480000,2.88000
,,,-0.000015469998,3.20000
,,,-0.000015460000,3.20000
,,,-0.000015450000,3.28000
,,,-0.000015440000,3.52000
,,,-0.000015430000,3.60000
,,,-0.000015420000,3.76000
,,,-0.000015410000,3.76000
,,,-0.000015399998,4.00000
,,,-0.000015390000,4.08000
,,,-0.000015380000,4.24000
,,,-0.000015370000,4.32000
,,,-0.000015360000,4.24000
,,,-0.000015350000,4.48000
,,,-0.000015340000,4.56000
,,,-0.000015330000,4.64000
,,,-0.000015320000,4.64000
,,,-0.000015309998,4.80000
,,,-0.000015300000,4.80000
,,,-0.000015290000,4.96000
,,,-0.000015280000,4.96000
,,,-0.000015270000,5.20000
,,,-0.000015260000,5.04000
,,,-0.000015250000,5.04000
,,,-0.000015240000,5.20000
,,,-0.000015230000,5.36000
,,,-0.000015220000,5.20000
,,,-0.000015210000,5.44000
,,,-0.000015200000,5.44000
,,,-0.000015190000,5.36000
,,,-0.000015179999,5.44000
,,,-0.000015169999,5.36000
,,,-0.000015160000,5.44000
,,,-0.000015150000,5.60000
,,,-0.000015140000,5.52000
,,,-0.000015130000,5.60000
,,,-0.000015120000,5.60000
,,,-0.000015110000,5.60000
,,,-0.000015099999,5.60000
,,,-0.000015089999,5.60000
,,,-0.000015080000,5.60000
,,,-0.000015070000,5.52000
,,,-0.000015060000,5.60000
,,,-0.000015050000,5.60000
,,,-0.000015040000,5.68000
,,,-0.000015030000,5.68000
,,,-0.000015020000,5.60000
,,,-0.000015009999,5.76000
,,,-0.000014999999,5.76000
,,,-0.000014990000,5.68000
,,,-0.000014980000,5.76000
,,,-0.000014970000,5.76000
,,,-0.000014960000,5.84000
,,,-0.000014950000,5.76000
,,,-0.000014940000,5.84000
,,,-0.000014930000,5.76000
,,,-0.000014919999,5.76000
,,,-0.000014909999,5.76000
,,,-0.000014900000,5.76000
,,,-0.000014890000,5.60000
,,,-0.000014880000,5.84000
,,,-0.000014870000,5.68000
,,,-0.000014860000,5.68000
,,,-0.000014850000,5.76000
,,,-0.000014839999,5.76000
,,,-0.000014829999,5.68000
,,,-0.000014820000,5.84000
,,,-0.000014810000,5.60000
,,,-0.000014800000,5.92000
,,,-0.000014790000,5.68000
,,,-0.000014780000,5.68000
,,,-0.000014770000,5.76000
,,,-0.000014760000,5.68000
,,,-0.000014749999,5.76000
,,,-0.000014739999,5.60000
,,,-0.000014730000,5.68000
,,,-0.000014720000,5.52000
,,,-0.000014710000,5.76000
,,,-0.000014700000,5.60000
,,,-0.000014690000,5.76000
,,,-0.000014680000,5.60000
,,,-0.000014669999,5.60000
,,,-0.000014659999,5.68000
,,,-0.000014650000,5.76000
,,,-0.000014640000,5.52000
,,,-0.000014630000,5.76000
,,,-0.000014620000,5.60000
,,,-0.000014610000,5.60000
,,,-0.000014600000,5.68000
,,,-0.000014590000,5.60000
,,,-0.000014579999,5.68000
,,,-0.000014569999,5.36000
,,,-0.000014560000,5.60000
,,,-0.000014550000,5.60000
,,,-0.000014540000,5.52000
,,,-0.000014530000,5.44000
,,,-0.000014520000,5.52000
,,,-0.000014510000,5.36000
,,,-0.000014500000,5.68000
,,,-0.000014489999,5.44000
,,,-0.000014479999,5.52000
,,,-0.000014470000,5.36000
,,,-0.000014460000,5.52000
,,,-0.000014450000,5.44000
,,,-0.000014440000,5.28000
,,,-0.000014430000,5.36000
,,,-0.000014420000,5.28000
,,,-0.000014409999,5.28000
,,,-0.000014399999,5.28000
,,,-0.000014390000,5.44000
,,,-0.000014380000,5.28000
,,,-0.000014370000,5.28000
,,,-0.000014360000,5.20000
,,,-0.000014350000,5.20000
,,,-0.000014340000,5.28000
,,,-0.000014330000,5.28000
,,,-0.000014319999,5.20000
,,,-0.000014309999,5.12000
,,,-0.000014300000,5.20000
,,,-0.000014290000,5.12000
,,,-0.000014280000,5.12000
,,,-0.000014270000,5.04000
,,,-0.000014260000,5.12000
,,,-0.000014250000,5.04000
,,,-0.000014239999,5.04000
,,,-0.000014229999,5.04000
,,,-0.000014220000,5.04000
,,,-0.000014210000,4.96000
,,,-0.000014200000,5.04000
,,,-0.000014190000,4.96000
,,,-0.000014180000,4.88000
,,,-0.000014170000,4.88000
,,,-0.000014160000,4.88000
,,,-0.000014149999,4.96000
,,,-0.000014139999,4.80000
,,,-0.000014130000,4.72000
,,,-0.000014120000,4.64000
,,,-0.000014110000,4.72000
,,,-0.000014100000,4.64000
,,,-0.000014090000,4.64000
,,,-0.000014080000,4.56000
,,,-0.000014070000,4.72000
,,,-0.000014059999,4.56000
,,,-0.000014050000,4.56000
,,,-0.000014040000,4.56000
,,,-0.000014030000,4.40000
,,,-0.000014020000,4.48000
,,,-0.000014010000,4.40000
,,,-0.000014000000,4.40000
,,,-0.000013990000,4.40000
,,,-0.000013979999,4.48000
,,,-0.000013969999,4.40000
,,,-0.000013960000,4.40000
,,,-0.000013950000,4.32000
,,,-0.000013940000,4.24000
,,,-0.000013930000,4.16000
,,,-0.000013920000,4.16000
,,,-0.000013910000,4.16000
,,,-0.000013900000,4.16000
,,,-0.000013889999,4.16000
,,,-0.000013879999,4.16000
,,,-0.000013870000,4.00000
,,,-0.000013860000,4.00000
,,,-0.000013850000,4.00000
,,,-0.000013840000,3.84000
,,,-0.000013830000,3.76000
,,,-0.000013820000,3.76000
,,,-0.000013809999,3.76000
,,,-0.000013799999,3.76000
,,,-0.000013790000,3.76000
,,,-0.000013780000,3.68000
,,,-0.000013770000,3.60000
,,,-0.000013760000,3.60000
,,,-0.000013750000,3.60000
,,,-0.000013740000,3.60000
,,,-0.000013730000,3.60000
,,,-0.000013719999,3.52000
,,,-0.000013709999,3.44000
,,,-0.000013700000,3.52000
,,,-0.000013690000,3.36000
,,,-0.000013680000,3.44000
,,,-0.000013670000,3.36000
,,,-0.000013660000,3.52000
,,,-0.000013650000,3.36000
,,,-0.000013640000,3.28000
,,,-0.000013629999,3.36000
,,,-0.000013620000,3.28000
,,,-0.000013610000,3.20000
,,,-0.000013600000,3.20000
,,,-0.000013590000,3.28000
,,,-0.000013580000,3.20000
,,,-0.000013570000,3.12000
,,,-0.000013560000,3.20000
,,,-0.000013549999,3.12000
,,,-0.000013539999,3.12000
,,,-0.000013530000,2.96000
,,,-0.000013520000,3.04000
,,,-0.000013510000,3.04000
,,,-0.000013500000,2.96000
,,,-0.000013490000,3.04000
,,,-0.000013480000,2.88000
,,,-0.000013470000,2.96000
,,,-0.000013459999,2.88000
,,,-0.000013449999,2.80000
,,,-0.000013440000,2.96000
,,,-0.000013430000,2.88000
,,,-0.000013420000,2.88000
,,,-0.000013410000,2.72000
,,,-0.000013400000,2.88000
,,,-0.000013390000,2.80000
,,,-0.000013379999,2.72000
,,,-0.000013369999,2.72000
,,,-0.000013360000,2.64000
,,,-0.000013350000,2.72000
