capturas-osciloscopio/17-11-22/WA000013.CSV

Record Length,4096,,Source,CH1
Sample Interval,0.0000000100000,,Second,Volt
Vertical Units,CH1:V,,-0.000020480000,-0.32000
Vertical Scale,CH1:2.00,,-0.000020469998,-0.32000
Vertical Offset,CH1:-4.08000,,-0.000020460000,-0.24000
Horizontal Units,s,,-0.000020450000,-0.16000
Horizontal Scale,0.0000025000,,-0.000020440000,-0.16000
Model Number,WaveAce112,,-0.000020430000,0.08000
Serial Number,LCRY2101C02399,,-0.000020420000,0.08000
Software Version,2.07.02.16,,-0.000020410000,0.24000
,,,-0.000020400000,0.40000
,,,-0.000020390000,0.24000
,,,-0.000020379998,0.32000
,,,-0.000020370000,0.32000
,,,-0.000020360000,0.40000
,,,-0.000020350000,0.32000
,,,-0.000020340000,0.40000
,,,-0.000020330000,0.40000
,,,-0.000020320000,0.24000
,,,-0.000020310000,0.32000
,,,-0.000020300000,0.40000
,,,-0.000020289998,0.32000
,,,-0.000020280000,0.40000
,,,-0.000020270000,0.24000
,,,-0.000020260000,0.32000
,,,-0.000020250000,0.24000
,,,-0.000020240000,0.24000
,,,-0.000020230000,0.16000
,,,-0.000020219998,0.16000
,,,-0.000020210000,0.24000
,,,-0.000020199998,0.00
,,,-0.000020190000,-0.16000
,,,-0.000020180000,0.00
,,,-0.000020170000,-0.16000
,,,-0.000020160000,-0.16000
,,,-0.000020150000,-0.32000
,,,-0.000020140000,-0.24000
,,,-0.000020129998,-0.32000
,,,-0.000020120000,-0.48000
,,,-0.000020110000,-0.48000
,,,-0.000020100000,-0.48000
,,,-0.000020090000,-0.56000
,,,-0.000020080000,-0.64000
,,,-0.000020070000,-0.80000
,,,-0.000020060000,-0.80000
,,,-0.000020050000,-0.80000
,,,-0.000020039998,-0.80000
,,,-0.000020030000,-1.12000
,,,-0.000020020000,-1.04000
,,,-0.000020010000,-1.12000
,,,-0.000020000000,-1.20000
,,,-0.000019990000,-1.36000
,,,-0.000019980000,-1.36000
,,,-0.000019970000,-1.28000
,,,-0.000019960000,-1.36000
,,,-0.000019949998,-1.44000
,,,-0.000019940000,-1.36000
,,,-0.000019930000,-1.44000
,,,-0.000019920000,-1.36000
,,,-0.000019910000,-1.60000
,,,-0.000019900000,-1.36000
,,,-0.000019890000,-1.44000
,,,-0.000019880000,-1.36000
,,,-0.000019870000,-1.36000
,,,-0.000019859998,-1.20000
,,,-0.000019850000,-1.28000
,,,-0.000019840000,-1.28000
,,,-0.000019830000,-1.20000
,,,-0.000019820000,-0.96000
,,,-0.000019810000,-1.12000
,,,-0.000019800000,-0.88000
,,,-0.000019789998,-1.04000
,,,-0.000019780000,-0.88000
,,,-0.000019769998,-0.80000
,,,-0.000019760000,-0.72000
,,,-0.000019750000,-0.72000
,,,-0.000019740000,-0.48000
,,,-0.000019730000,-0.32000
,,,-0.000019720000,-0.56000
,,,-0.000019710000,-0.32000
,,,-0.000019699998,-0.24000
,,,-0.000019690000,-0.16000
,,,-0.000019680000,0.08000
,,,-0.000019670000,0.00
,,,-0.000019660000,0.16000
,,,-0.000019650000,0.24000
,,,-0.000019640000,0.16000
,,,-0.000019630000,0.24000
,,,-0.000019620000,0.40000
,,,-0.000019609998,0.40000
,,,-0.000019600000,0.40000
,,,-0.000019590000,0.32000
,,,-0.000019580000,0.48000
,,,-0.000019570000,0.56000
,,,-0.000019560000,0.56000
,,,-0.000019550000,0.40000
,,,-0.000019540000,0.56000
,,,-0.000019530000,0.48000
,,,-0.000019519998,0.48000
,,,-0.000019510000,0.56000
,,,-0.000019500000,0.56000
,,,-0.000019490000,0.56000
,,,-0.000019480000,0.56000
,,,-0.000019470000,0.40000
,,,-0.000019460000,0.56000
,,,-0.000019450000,0.56000
,,,-0.000019440000,0.48000
,,,-0.000019429998,0.40000
,,,-0.000019420000,0.48000
,,,-0.000019410000,0.40000
,,,-0.000019400000,0.48000
,,,-0.000019390000,0.40000
,,,-0.000019380000,0.32000
,,,-0.000019370000,0.32000
,,,-0.000019359998,0.40000
,,,-0.000019350000,0.32000
,,,-0.000019339998,0.40000
,,,-0.000019330000,0.32000
,,,-0.000019320000,0.24000
,,,-0.000019310000,0.08000
,,,-0.000019300000,0.24000
,,,-0.000019290000,0.16000
,,,-0.000019280000,0.16000
,,,-0.000019269998,0.08000
,,,-0.000019260000,0.08000
,,,-0.000019250000,0.00
,,,-0.000019240000,0.00
,,,-0.000019230000,-0.16000
,,,-0.000019220000,0.08000
,,,-0.000019210000,0.00
,,,-0.000019200000,-0.16000
,,,-0.000019190000,-0.16000
,,,-0.000019179998,-0.24000
,,,-0.000019170000,0.00
,,,-0.000019160000,-0.16000
,,,-0.000019150000,-0.32000
,,,-0.000019140000,-0.24000
,,,-0.000019130000,0.00
,,,-0.000019120000,-0.24000
,,,-0.000019110000,-0.24000
,,,-0.000019100000,0.08000
,,,-0.000019089998,0.00
,,,-0.000019080000,0.08000
,,,-0.000019070000,0.08000
,,,-0.000019060000,0.16000
,,,-0.000019050000,0.16000
,,,-0.000019040000,0.24000
,,,-0.000019030000,0.24000
,,,-0.000019020000,0.24000
,,,-0.000019010000,0.32000
,,,-0.000018999998,0.40000
,,,-0.000018990000,0.40000
,,,-0.000018980000,0.48000
,,,-0.000018970000,0.64000
,,,-0.000018960000,0.64000
,,,-0.000018950000,0.56000
,,,-0.000018940000,0.72000
,,,-0.000018929998,0.80000
,,,-0.000018920000,0.88000
,,,-0.000018909998,0.96000
,,,-0.000018900000,1.12000
,,,-0.000018890000,1.04000
,,,-0.000018880000,1.12000
,,,-0.000018870000,1.12000
,,,-0.000018860000,1.20000
,,,-0.000018850000,1.28000
,,,-0.000018839998,1.36000
,,,-0.000018830000,1.36000
,,,-0.000018820000,1.52000
,,,-0.000018810000,1.52000
,,,-0.000018800000,1.52000
,,,-0.000018790000,1.60000
,,,-0.000018780000,1.68000
,,,-0.000018770000,1.68000
,,,-0.000018760000,1.76000
,,,-0.000018749998,1.76000
,,,-0.000018740000,1.76000
,,,-0.000018730000,1.84000
,,,-0.000018720000,1.92000
,,,-0.000018710000,1.84000
,,,-0.000018700000,1.92000
,,,-0.000018690000,2.08000
,,,-0.000018680000,2.08000
,,,-0.000018670000,2.00000
,,,-0.000018659998,2.16000
,,,-0.000018650000,2.08000
,,,-0.000018640000,2.08000
,,,-0.000018630000,2.16000
,,,-0.000018620000,2.16000
,,,-0.000018610000,2.16000
,,,-0.000018600000,2.16000
,,,-0.000018590000,2.16000
,,,-0.000018580000,2.24000
,,,-0.000018569998,2.24000
,,,-0.000018560000,2.24000
,,,-0.000018550000,2.24000
,,,-0.000018540000,2.24000
,,,-0.000018530000,2.24000
,,,-0.000018520000,2.32000
,,,-0.000018510000,2.24000
,,,-0.000018499998,2.32000
,,,-0.000018490000,2.32000
,,,-0.000018479998,2.24000
,,,-0.000018470000,2.24000
,,,-0.000018460000,2.40000
,,,-0.000018450000,2.24000
,,,-0.000018440000,2.32000
,,,-0.000018430000,2.24000
,,,-0.000018420000,2.32000
,,,-0.000018409998,2.24000
,,,-0.000018400000,2.16000
,,,-0.000018390000,2.32000
,,,-0.000018380000,2.32000
,,,-0.000018370000,2.24000
,,,-0.000018360000,2.32000
,,,-0.000018350000,2.24000
,,,-0.000018340000,2.40000
,,,-0.000018330000,2.32000
,,,-0.000018319998,2.40000
,,,-0.000018310000,2.24000
,,,-0.000018300000,2.32000
,,,-0.000018290000,2.32000
,,,-0.000018280000,2.32000
,,,-0.000018270000,2.32000
,,,-0.000018260000,2.32000
,,,-0.000018250000,2.40000
,,,-0.000018240000,2.40000
,,,-0.000018229998,2.32000
,,,-0.000018220000,2.48000
,,,-0.000018210000,2.48000
,,,-0.000018200000,2.40000
,,,-0.000018190000,2.40000
,,,-0.000018180000,2.48000
,,,-0.000018170000,2.48000
,,,-0.000018160000,2.48000
,,,-0.000018150000,2.56000
,,,-0.000018139998,2.56000
,,,-0.000018130000,2.56000
,,,-0.000018120000,2.72000
,,,-0.000018110000,2.72000
,,,-0.000018100000,2.72000
,,,-0.000018090000,2.88000
,,,-0.000018080000,2.88000
,,,-0.000018069998,2.88000
,,,-0.000018060000,2.88000
,,,-0.000018049998,2.96000
,,,-0.000018040000,2.88000
,,,-0.000018030000,2.96000
,,,-0.000018020000,2.88000
,,,-0.000018010000,3.04000
,,,-0.000018000000,3.04000
,,,-0.000017990000,2.96000
,,,-0.000017979998,3.12000
,,,-0.000017970000,3.12000
,,,-0.000017960000,3.12000
,,,-0.000017950000,2.96000
,,,-0.000017940000,3.12000
,,,-0.000017930000,3.12000
,,,-0.000017920000,3.04000
,,,-0.000017910000,3.04000
,,,-0.000017900000,3.12000
,,,-0.000017889998,3.12000
,,,-0.000017880000,3.12000
,,,-0.000017870000,2.96000
,,,-0.000017860000,3.12000
,,,-0.000017850000,3.12000
,,,-0.000017840000,3.04000
,,,-0.000017830000,2.96000
,,,-0.000017820000,3.20000
,,,-0.000017810000,3.04000
,,,-0.000017799998,3.04000
,,,-0.000017790000,2.96000
,,,-0.000017780000,3.04000
,,,-0.000017770000,2.96000
,,,-0.000017760000,3.12000
,,,-0.000017750000,2.88000
,,,-0.000017740000,3.04000
,,,-0.000017730000,2.96000
,,,-0.000017720000,2.88000
,,,-0.000017709998,2.88000
,,,-0.000017700000,2.96000
,,,-0.000017690000,3.04000
,,,-0.000017680000,2.80000
,,,-0.000017670000,2.96000
,,,-0.000017660000,2.88000
,,,-0.000017650000,2.96000
,,,-0.000017639998,2.96000
,,,-0.000017630000,2.88000
,,,-0.000017619998,2.88000
,,,-0.000017610000,2.96000
,,,-0.000017600000,2.80000
,,,-0.000017590000,2.80000
,,,-0.000017580000,2.80000
,,,-0.000017570000,2.72000
,,,-0.000017560000,2.72000
,,,-0.000017549998,2.56000
,,,-0.000017540000,2.56000
,,,-0.000017530000,2.72000
,,,-0.000017520000,2.48000
,,,-0.000017510000,2.48000
,,,-0.000017500000,2.48000
,,,-0.000017490000,2.40000
,,,-0.000017480000,2.32000
,,,-0.000017470000,2.24000
,,,-0.000017459998,2.32000
,,,-0.000017450000,2.24000
,,,-0.000017440000,2.16000
,,,-0.000017430000,2.00000
,,,-0.000017420000,2.00000
,,,-0.000017410000,1.84000
,,,-0.000017400000,2.00000
,,,-0.000017390000,1.76000
,,,-0.000017380000,1.76000
,,,-0.000017369998,1.76000
,,,-0.000017360000,1.76000
,,,-0.000017350000,1.52000
,,,-0.000017340000,1.68000
,,,-0.000017330000,1.60000
,,,-0.000017320000,1.68000
,,,-0.000017310000,1.52000
,,,-0.000017300000,1.52000
,,,-0.000017290000,1.60000
,,,-0.000017279998,1.68000
,,,-0.000017270000,1.60000
,,,-0.000017260000,1.68000
,,,-0.000017250000,1.60000
,,,-0.000017240000,1.68000
,,,-0.000017230000,1.60000
,,,-0.000017220000,1.76000
,,,-0.000017209998,1.68000
,,,-0.000017200000,1.68000
,,,-0.000017189998,1.68000
,,,-0.000017180000,1.76000
,,,-0.000017170000,1.84000
,,,-0.000017160000,1.84000
,,,-0.000017150000,1.76000
,,,-0.000017140000,1.84000
,,,-0.000017130000,1.92000
,,,-0.000017119998,2.08000
,,,-0.000017110000,2.16000
,,,-0.000017100000,2.08000
,,,-0.000017090000,2.24000
,,,-0.000017080000,2.16000
,,,-0.000017070000,2.24000
,,,-0.000017060000,2.32000
,,,-0.000017050000,2.40000
,,,-0.000017040000,2.48000
,,,-0.000017029998,2.48000
,,,-0.000017020000,2.48000
,,,-0.000017010000,2.56000
,,,-0.000017000000,2.80000
,,,-0.000016990000,2.88000
,,,-0.000016980000,2.88000
,,,-0.000016970000,3.04000
,,,-0.000016960000,3.04000
,,,-0.000016950000,3.12000
,,,-0.000016939998,3.12000
,,,-0.000016930000,3.20000
,,,-0.000016920000,3.20000
,,,-0.000016910000,3.20000
,,,-0.000016900000,3.28000
,,,-0.000016890000,3.28000
,,,-0.000016880000,3.36000
,,,-0.000016870000,3.28000
,,,-0.000016860000,3.28000
,,,-0.000016849998,3.28000
,,,-0.000016840000,3.36000
,,,-0.000016830000,3.20000
,,,-0.000016820000,3.36000
,,,-0.000016810000,3.28000
,,,-0.000016800000,3.28000
,,,-0.000016790000,3.28000
,,,-0.000016780002,3.28000
,,,-0.000016770000,3.28000
,,,-0.000016759998,3.36000
,,,-0.000016750000,3.20000
,,,-0.000016740000,3.28000
,,,-0.000016730000,3.28000
,,,-0.000016720000,3.28000
,,,-0.000016710000,3.28000
,,,-0.000016700000,3.36000
,,,-0.000016689998,3.28000
,,,-0.000016680000,3.36000
,,,-0.000016670000,3.28000
,,,-0.000016660000,3.36000
,,,-0.000016650000,3.36000
,,,-0.000016640000,3.36000
,,,-0.000016630000,3.36000
,,,-0.000016620000,3.44000
,,,-0.000016610000,3.44000
,,,-0.000016599998,3.44000
,,,-0.000016590000,3.36000
,,,-0.000016580000,3.44000
,,,-0.000016570000,3.44000
,,,-0.000016560000,3.44000
,,,-0.000016550000,3.36000
,,,-0.000016540000,3.52000
,,,-0.000016530000,3.52000
,,,-0.000016520000,3.44000
,,,-0.000016509998,3.36000
,,,-0.000016500000,3.44000
,,,-0.000016490000,3.44000
,,,-0.000016480000,3.44000
,,,-0.000016470000,3.36000
,,,-0.000016460000,3.44000
,,,-0.000016450000,3.52000
,,,-0.000016440000,3.44000
,,,-0.000016430000,3.52000
,,,-0.000016419998,3.52000
,,,-0.000016410000,3.52000
,,,-0.000016400000,3.44000
,,,-0.000016390000,3.36000
,,,-0.000016380000,3.52000
,,,-0.000016370000,3.52000
,,,-0.000016360000,3.44000
,,,-0.000016350002,3.52000
,,,-0.000016340000,3.52000
,,,-0.000016329998,3.60000
,,,-0.000016320000,3.52000
,,,-0.000016310000,3.52000
,,,-0.000016300000,3.52000
,,,-0.000016290000,3.60000
,,,-0.000016280000,3.60000
,,,-0.000016270000,3.60000
,,,-0.000016259998,3.76000
,,,-0.000016250000,3.68000
,,,-0.000016240000,3.76000
,,,-0.000016230000,3.68000
,,,-0.000016220000,3.76000
,,,-0.000016210000,3.92000
,,,-0.000016200000,3.76000
,,,-0.000016190000,3.76000
,,,-0.000016180000,3.84000
,,,-0.000016169998,3.92000
,,,-0.000016160000,3.84000
,,,-0.000016150000,3.84000
,,,-0.000016140000,4.00000
,,,-0.000016130000,4.00000
,,,-0.000016120000,4.00000
,,,-0.000016110000,4.00000
,,,-0.000016100000,4.00000
,,,-0.000016090000,4.16000
,,,-0.000016079998,4.08000
,,,-0.000016070000,4.24000
,,,-0.000016060000,4.40000
,,,-0.000016050000,4.72000
,,,-0.000016040000,4.72000
,,,-0.000016030000,5.04000
,,,-0.000016020000,5.36000
,,,-0.000016010000,5.60000
,,,-0.000016000000,5.68000
,,,-0.000015989998,5.92000
,,,-0.000015980000,6.08000
,,,-0.000015970000,6.40000
,,,-0.000015960000,6.48000
,,,-0.000015950000,6.80000
,,,-0.000015940000,6.80000
,,,-0.000015930000,7.20000
,,,-0.000015920002,7.12000
,,,-0.000015910000,7.44000
,,,-0.000015899998,7.60000
,,,-0.000015890000,7.68000
,,,-0.000015880000,7.76000
,,,-0.000015870000,8.08000
,,,-0.000015860000,8.08000
,,,-0.000015850000,8.40000
,,,-0.000015840000,8.32000
,,,-0.000015829998,8.48000
,,,-0.000015820000,8.48000
,,,-0.000015810000,8.80000
,,,-0.000015800000,8.64000
,,,-0.000015790000,8.80000
,,,-0.000015780000,8.96000
,,,-0.000015770000,9.04000
,,,-0.000015760000,9.04000
,,,-0.000015750000,9.20000
,,,-0.000015739998,9.20000
,,,-0.000015730000,9.20000
,,,-0.000015720000,9.28000
,,,-0.000015710000,9.36000
,,,-0.000015700000,9.36000
,,,-0.000015690000,9.52000
,,,-0.000015680000,9.36000
,,,-0.000015670000,9.44000
,,,-0.000015660000,9.36000
,,,-0.000015649998,9.60000
,,,-0.000015640000,9.60000
,,,-0.000015630000,9.52000
,,,-0.000015620000,9.68000
,,,-0.000015610000,9.60000
,,,-0.000015600000,9.68000
,,,-0.000015590000,9.52000
,,,-0.000015580000,9.84000
,,,-0.000015570000,9.76000
,,,-0.000015559998,9.60000
,,,-0.000015550000,9.68000
,,,-0.000015540000,9.84000
,,,-0.000015530000,9.84000
,,,-0.000015520000,9.60000
,,,-0.000015510000,9.68000
,,,-0.000015500000,9.84000
,,,-0.000015490002,9.76000
,,,-0.000015480000,9.76000
,,,-0.000015469998,9.76000
,,,-0.000015460000,9.76000
,,,-0.000015450000,9.84000
,,,-0.000015440000,9.68000
,,,-0.000015430000,9.84000
,,,-0.000015420000,9.92000
,,,-0.000015410000,9.92000
,,,-0.000015399998,9.92000
,,,-0.000015390000,9.84000
,,,-0.000015380000,10.00000
,,,-0.000015370000,10.00000
,,,-0.000015360000,9.84000
,,,-0.000015350000,9.76000
,,,-0.000015340000,9.84000
,,,-0.000015330000,9.84000
,,,-0.000015320000,9.84000
,,,-0.000015309998,9.84000
,,,-0.000015300000,9.84000
,,,-0.000015290000,9.68000
,,,-0.000015280000,10.00000
,,,-0.000015270000,9.76000
,,,-0.000015260000,9.92000
,,,-0.000015250000,9.84000
,,,-0.000015240000,9.76000
,,,-0.000015230000,9.84000
,,,-0.000015220000,9.84000
,,,-0.000015210000,10.00000
,,,-0.000015200000,9.84000
,,,-0.000015190000,9.76000
,,,-0.000015179999,10.00000
,,,-0.000015169999,10.00000
,,,-0.000015160000,9.92000
,,,-0.000015150000,9.84000
,,,-0.000015140000,9.92000
,,,-0.000015130000,10.00000
,,,-0.000015120000,9.76000
,,,-0.000015110000,10.00000
,,,-0.000015099999,9.84000
,,,-0.000015089999,9.84000
,,,-0.000015080000,9.76000
,,,-0.000015070000,9.76000
,,,-0.000015060000,9.92000
,,,-0.000015050000,9.68000
,,,-0.000015040000,9.84000
,,,-0.000015030000,9.84000
,,,-0.000015020000,9.92000
,,,-0.000015009999,9.76000
,,,-0.000014999999,9.92000
,,,-0.000014990000,9.68000
,,,-0.000014980000,9.84000
,,,-0.000014970000,9.84000
,,,-0.000014960000,9.68000
,,,-0.000014950000,9.84000
,,,-0.000014940000,9.84000
,,,-0.000014930000,9.68000
,,,-0.000014919999,9.68000
,,,-0.000014909999,9.60000
,,,-0.000014900000,9.68000
,,,-0.000014890000,9.60000
,,,-0.000014880000,9.68000
,,,-0.000014870000,9.68000
,,,-0.000014860000,9.60000
,,,-0.000014850000,9.60000
,,,-0.000014839999,9.68000
,,,-0.000014829999,9.44000
,,,-0.000014820000,9.60000
,,,-0.000014810000,9.52000
,,,-0.000014800000,9.60000
,,,-0.000014790000,9.52000
,,,-0.000014780000,9.36000
,,,-0.000014770000,9.44000
,,,-0.000014760000,9.52000
,,,-0.000014749999,9.44000
,,,-0.000014739999,9.36000
,,,-0.000014730000,9.52000
,,,-0.000014720000,9.36000
,,,-0.000014710000,9.36000
,,,-0.000014700000,9.36000
,,,-0.000014690000,9.28000
,,,-0.000014680000,9.20000
,,,-0.000014669999,9.28000
,,,-0.000014659999,9.20000
,,,-0.000014650000,9.20000
,,,-0.000014640000,9.20000
,,,-0.000014630000,9.20000
,,,-0.000014620000,9.12000
,,,-0.000014610000,9.20000
,,,-0.000014600000,8.96000
,,,-0.000014590000,9.04000
,,,-0.000014579999,9.12000
,,,-0.000014569999,9.04000
,,,-0.000014560000,9.04000
,,,-0.000014550000,8.96000
,,,-0.000014540000,9.12000
,,,-0.000014530000,9.04000
,,,-0.000014520000,8.88000
,,,-0.000014510000,8.88000
,,,-0.000014500000,8.88000
,,,-0.000014489999,8.80000
,,,-0.000014479999,8.88000
,,,-0.000014470000,8.80000
,,,-0.000014460000,8.72000
,,,-0.000014450000,8.80000
,,,-0.000014440000,8.64000
,,,-0.000014430000,8.56000
,,,-0.000014420000,8.72000
,,,-0.000014409999,8.56000
,,,-0.000014399999,8.64000
,,,-0.000014390000,8.40000
,,,-0.000014380000,8.64000
,,,-0.000014370000,8.56000
,,,-0.000014360000,8.48000
,,,-0.000014350000,8.48000
,,,-0.000014340000,8.40000
,,,-0.000014330000,8.40000
,,,-0.000014319999,8.32000
,,,-0.000014309999,8.40000
,,,-0.000014300000,8.32000
,,,-0.000014290000,8.40000
,,,-0.000014280000,8.32000
,,,-0.000014270000,8.24000
,,,-0.000014260000,8.24000
,,,-0.000014250000,8.16000
,,,-0.000014239999,8.24000
,,,-0.000014229999,8.16000
,,,-0.000014220000,8.08000
,,,-0.000014210000,8.16000
,,,-0.000014200000,7.84000
,,,-0.000014190000,7.92000
,,,-0.000014180000,7.84000
,,,-0.000014170000,7.84000
,,,-0.000014160000,7.84000
,,,-0.000014149999,7.76000
,,,-0.000014139999,7.76000
,,,-0.000014130000,7.76000
,,,-0.000014120000,7.68000
,,,-0.000014110000,7.60000
,,,-0.000014100000,7.84000
,,,-0.000014090000,7.52000
,,,-0.000014080000,7.60000
,,,-0.000014070000,7.44000
,,,-0.000014059999,7.52000
,,,-0.000014050000,7.44000
,,,-0.000014040000,7.52000
,,,-0.000014030000,7.36000
,,,-0.000014020000,7.36000
,,,-0.000014010000,7.36000
,,,-0.000014000000,7.28000
,,,-0.000013990000,7.20000
,,,-0.000013979999,7.20000
,,,-0.000013969999,7.28000
,,,-0.000013960000,7.28000
,,,-0.000013950000,7.12000
,,,-0.000013940000,7.20000
,,,-0.000013930000,7.20000
,,,-0.000013920000,7.12000
,,,-0.000013910000,7.12000
,,,-0.000013900000,7.12000
,,,-0.000013889999,6.96000
,,,-0.000013879999,7.04000
,,,-0.000013870000,6.88000
,,,-0.000013860000,6.96000
,,,-0.000013850000,7.04000
,,,-0.000013840000,6.96000
,,,-0.000013830000,7.04000
,,,-0.000013820000,6.96000
,,,-0.000013809999,6.88000
,,,-0.000013799999,6.96000
,,,-0.000013790000,6.88000
,,,-0.000013780000,6.96000
,,,-0.000013770000,6.96000
,,,-0.000013760000,6.72000
,,,-0.000013750000,6.80000
,,,-0.000013740000,6.96000
,,,-0.000013730000,6.80000
,,,-0.000013719999,6.72000
,,,-0.000013709999,6.72000
,,,-0.000013700000,6.72000
,,,-0.000013690000,6.88000
,,,-0.000013680000,6.72000
,,,-0.000013670000,6.72000
,,,-0.000013660000,6.72000
,,,-0.000013650000,6.80000
,,,-0.000013640000,6.72000
,,,-0.000013629999,6.72000
,,,-0.000013620000,6.64000
,,,-0.000013610000,6.72000
,,,-0.000013600000,6.64000
,,,-0.000013590000,6.64000
,,,-0.000013580000,6.64000
,,,-0.000013570000,6.56000
,,,-0.000013560000,6.64000
,,,-0.000013549999,6.56000
,,,-0.000013539999,6.72000
,,,-0.000013530000,6.56000
,,,-0.000013520000,6.64000
,,,-0.000013510000,6.56000
,,,-0.000013500000,6.64000
,,,-0.000013490000,6.56000
,,,-0.000013480000,6.48000
,,,-0.000013470000,6.56000
,,,-0.000013459999,6.56000
,,,-0.000013449999,6.48000
,,,-0.000013440000,6.48000
,,,-0.000013430000,6.56000
,,,-0.000013420000,6.48000
,,,-0.000013410000,6.56000
,,,-0.000013400000,6.48000
,,,-0.000013390000,6.40000
,,,-0.000013379999,6.56000
,,,-0.000013369999,6.48000
,,,-0.000013360000,6.48000
,,,-0.000013350000,6.40000
,,,-0.000013340000,6.48000
,,,-0.000013330000,6.40000
,,,-0.000013320000,6.40000
,,,-0.000013310000,6.32000
,,,-0.000013300000,6.32000
,,,-0.000013289999,6.40000
,,,-0.000013279999,6.40000
,,,-0.000013270000,6.32000
,,,-0.000013260000,6.40000
,,,-0.000013250000,6.40000
,,,-0.000013240000,6.32000
,,,-0.000013230000,6.24000
,,,-0.000013220000,6.32000
,,,-0.000013210000,6.40000
,,,-0.000013199999,6.24000
