capturas-osciloscopio/17-11-22/WA000011.CSV

Record Length,4096,,Source,CH1
Sample Interval,0.0000000100000,,Second,Volt
Vertical Units,CH1:V,,-0.000015880000,1.88000
Vertical Scale,CH1:1.00,,-0.000015870000,1.88000
Vertical Offset,CH1:-0.48000,,-0.000015860000,1.80000
Horizontal Units,s,,-0.000015850000,1.88000
Horizontal Scale,0.0000025000,,-0.000015840000,1.96000
Model Number,WaveAce112,,-0.000015829998,1.96000
Serial Number,LCRY2101C02399,,-0.000015820000,1.92000
Software Version,2.07.02.16,,-0.000015810000,1.92000
,,,-0.000015800000,1.96000
,,,-0.000015790000,1.96000
,,,-0.000015780000,2.00000
,,,-0.000015770000,2.08000
,,,-0.000015760000,2.04000
,,,-0.000015750000,2.00000
,,,-0.000015739998,1.96000
,,,-0.000015730000,1.96000
,,,-0.000015720000,2.04000
,,,-0.000015710000,2.00000
,,,-0.000015700000,2.00000
,,,-0.000015690000,1.96000
,,,-0.000015680000,1.80000
,,,-0.000015670000,1.68000
,,,-0.000015660000,1.60000
,,,-0.000015649998,1.40000
,,,-0.000015640000,1.32000
,,,-0.000015630000,1.04000
,,,-0.000015620000,0.92000
,,,-0.000015610000,0.64000
,,,-0.000015600000,0.48000
,,,-0.000015590000,0.24000
,,,-0.000015580000,0.12000
,,,-0.000015570000,-0.04000
,,,-0.000015559998,-0.12000
,,,-0.000015550000,-0.32000
,,,-0.000015540000,-0.28000
,,,-0.000015530000,-0.40000
,,,-0.000015520000,-0.48000
,,,-0.000015510000,-0.60000
,,,-0.000015500000,-0.60000
,,,-0.000015490002,-0.68000
,,,-0.000015480000,-0.68000
,,,-0.000015469998,-0.84000
,,,-0.000015460000,-0.68000
,,,-0.000015450000,-0.84000
,,,-0.000015440000,-0.76000
,,,-0.000015430000,-0.76000
,,,-0.000015420000,-0.76000
,,,-0.000015410000,-0.84000
,,,-0.000015399998,-0.80000
,,,-0.000015390000,-0.84000
,,,-0.000015380000,-0.80000
,,,-0.000015370000,-0.84000
,,,-0.000015360000,-0.76000
,,,-0.000015350000,-0.80000
,,,-0.000015340000,-0.76000
,,,-0.000015330000,-0.72000
,,,-0.000015320000,-0.80000
,,,-0.000015309998,-0.76000
,,,-0.000015300000,-0.76000
,,,-0.000015290000,-0.80000
,,,-0.000015280000,-0.76000
,,,-0.000015270000,-0.80000
,,,-0.000015260000,-0.80000
,,,-0.000015250000,-0.76000
,,,-0.000015240000,-0.80000
,,,-0.000015230000,-0.76000
,,,-0.000015220000,-0.76000
,,,-0.000015210000,-0.72000
,,,-0.000015200000,-0.76000
,,,-0.000015190000,-0.76000
,,,-0.000015179999,-0.76000
,,,-0.000015169999,-0.72000
,,,-0.000015160000,-0.76000
,,,-0.000015150000,-0.72000
,,,-0.000015140000,-0.76000
,,,-0.000015130000,-0.84000
,,,-0.000015120000,-0.80000
,,,-0.000015110000,-0.92000
,,,-0.000015099999,-0.84000
,,,-0.000015089999,-0.88000
,,,-0.000015080000,-0.96000
,,,-0.000015070000,-1.08000
,,,-0.000015060000,-1.08000
,,,-0.000015050000,-1.16000
,,,-0.000015040000,-1.12000
,,,-0.000015030000,-1.20000
,,,-0.000015020000,-1.20000
,,,-0.000015009999,-1.24000
,,,-0.000014999999,-1.24000
,,,-0.000014990000,-1.24000
,,,-0.000014980000,-1.24000
,,,-0.000014970000,-1.32000
,,,-0.000014960000,-1.24000
,,,-0.000014950000,-1.28000
,,,-0.000014940000,-1.24000
,,,-0.000014930000,-1.20000
,,,-0.000014919999,-1.12000
,,,-0.000014909999,-1.12000
,,,-0.000014900000,-1.08000
,,,-0.000014890000,-1.04000
,,,-0.000014880000,-0.96000
,,,-0.000014870000,-0.96000
,,,-0.000014860000,-0.92000
,,,-0.000014850000,-0.88000
,,,-0.000014839999,-0.80000
,,,-0.000014829999,-0.76000
,,,-0.000014820000,-0.68000
,,,-0.000014810000,-0.68000
,,,-0.000014800000,-0.64000
,,,-0.000014790000,-0.60000
,,,-0.000014780000,-0.60000
,,,-0.000014770000,-0.40000
,,,-0.000014760000,-0.44000
,,,-0.000014749999,-0.36000
,,,-0.000014739999,-0.32000
,,,-0.000014730000,-0.24000
,,,-0.000014720000,-0.24000
,,,-0.000014710000,-0.20000
,,,-0.000014700000,-0.12000
,,,-0.000014690000,-0.08000
,,,-0.000014680000,0.00
,,,-0.000014669999,0.00
,,,-0.000014659999,-0.04000
,,,-0.000014650000,0.04000
,,,-0.000014640000,0.00
,,,-0.000014630000,0.00
,,,-0.000014620000,0.00
,,,-0.000014610000,-0.04000
,,,-0.000014600000,0.00
,,,-0.000014590000,-0.08000
,,,-0.000014579999,-0.12000
,,,-0.000014569999,-0.12000
,,,-0.000014560000,-0.16000
,,,-0.000014550000,-0.12000
,,,-0.000014540000,-0.16000
,,,-0.000014530000,-0.20000
,,,-0.000014520000,-0.20000
,,,-0.000014510000,-0.24000
,,,-0.000014500000,-0.28000
,,,-0.000014489999,-0.28000
,,,-0.000014479999,-0.32000
,,,-0.000014470000,-0.28000
,,,-0.000014460000,-0.32000
,,,-0.000014450000,-0.28000
,,,-0.000014440000,-0.32000
,,,-0.000014430000,-0.32000
,,,-0.000014420000,-0.32000
,,,-0.000014409999,-0.36000
,,,-0.000014399999,-0.32000
,,,-0.000014390000,-0.28000
,,,-0.000014380000,-0.32000
,,,-0.000014370000,-0.28000
,,,-0.000014360000,-0.32000
,,,-0.000014350000,-0.36000
,,,-0.000014340000,-0.28000
,,,-0.000014330000,-0.32000
,,,-0.000014319999,-0.28000
,,,-0.000014309999,-0.28000
,,,-0.000014300000,-0.36000
,,,-0.000014290000,-0.32000
,,,-0.000014280000,-0.32000
,,,-0.000014270000,-0.40000
,,,-0.000014260000,-0.44000
,,,-0.000014250000,-0.44000
,,,-0.000014239999,-0.40000
,,,-0.000014229999,-0.40000
,,,-0.000014220000,-0.44000
,,,-0.000014210000,-0.40000
,,,-0.000014200000,-0.44000
,,,-0.000014190000,-0.44000
,,,-0.000014180000,-0.44000
,,,-0.000014170000,-0.40000
,,,-0.000014160000,-0.36000
,,,-0.000014149999,-0.36000
,,,-0.000014139999,-0.32000
,,,-0.000014130000,-0.24000
,,,-0.000014120000,-0.20000
,,,-0.000014110000,-0.20000
,,,-0.000014100000,-0.16000
,,,-0.000014090000,-0.12000
,,,-0.000014080000,-0.08000
,,,-0.000014070000,-0.04000
,,,-0.000014059999,-0.04000
,,,-0.000014050000,0.04000
,,,-0.000014040000,0.04000
,,,-0.000014030000,0.08000
,,,-0.000014020000,0.08000
,,,-0.000014010000,0.12000
,,,-0.000014000000,0.12000
,,,-0.000013990000,0.16000
,,,-0.000013979999,0.20000
,,,-0.000013969999,0.24000
,,,-0.000013960000,0.24000
,,,-0.000013950000,0.28000
,,,-0.000013940000,0.28000
,,,-0.000013930000,0.32000
,,,-0.000013920000,0.36000
,,,-0.000013910000,0.32000
,,,-0.000013900000,0.32000
,,,-0.000013889999,0.36000
,,,-0.000013879999,0.40000
,,,-0.000013870000,0.40000
,,,-0.000013860000,0.44000
,,,-0.000013850000,0.44000
,,,-0.000013840000,0.44000
,,,-0.000013830000,0.44000
,,,-0.000013820000,0.44000
,,,-0.000013809999,0.44000
,,,-0.000013799999,0.44000
,,,-0.000013790000,0.44000
,,,-0.000013780000,0.44000
,,,-0.000013770000,0.44000
,,,-0.000013760000,0.40000
,,,-0.000013750000,0.40000
,,,-0.000013740000,0.40000
,,,-0.000013730000,0.40000
,,,-0.000013719999,0.40000
,,,-0.000013709999,0.36000
,,,-0.000013700000,0.36000
,,,-0.000013690000,0.36000
,,,-0.000013680000,0.32000
,,,-0.000013670000,0.36000
,,,-0.000013660000,0.28000
,,,-0.000013650000,0.24000
,,,-0.000013640000,0.28000
,,,-0.000013629999,0.24000
,,,-0.000013620000,0.32000
,,,-0.000013610000,0.28000
,,,-0.000013600000,0.20000
,,,-0.000013590000,0.24000
,,,-0.000013580000,0.20000
,,,-0.000013570000,0.16000
,,,-0.000013560000,0.20000
,,,-0.000013549999,0.20000
,,,-0.000013539999,0.20000
,,,-0.000013530000,0.20000
,,,-0.000013520000,0.20000
,,,-0.000013510000,0.20000
,,,-0.000013500000,0.20000
,,,-0.000013490000,0.24000
,,,-0.000013480000,0.28000
,,,-0.000013470000,0.28000
,,,-0.000013459999,0.28000
,,,-0.000013449999,0.32000
,,,-0.000013440000,0.28000
,,,-0.000013430000,0.32000
,,,-0.000013420000,0.32000
,,,-0.000013410000,0.36000
,,,-0.000013400000,0.36000
,,,-0.000013390000,0.40000
,,,-0.000013379999,0.36000
,,,-0.000013369999,0.48000
,,,-0.000013360000,0.48000
,,,-0.000013350000,0.44000
,,,-0.000013340000,0.48000
,,,-0.000013330000,0.48000
,,,-0.000013320000,0.48000
,,,-0.000013310000,0.52000
,,,-0.000013300000,0.52000
,,,-0.000013289999,0.52000
,,,-0.000013279999,0.52000
,,,-0.000013270000,0.56000
,,,-0.000013260000,0.60000
,,,-0.000013250000,0.60000
,,,-0.000013240000,0.52000
,,,-0.000013230000,0.56000
,,,-0.000013220000,0.64000
,,,-0.000013210000,0.64000
,,,-0.000013199999,0.56000
,,,-0.000013190000,0.60000
,,,-0.000013180000,0.60000
,,,-0.000013170000,0.60000
,,,-0.000013160000,0.64000
,,,-0.000013150000,0.64000
,,,-0.000013140000,0.64000
,,,-0.000013130000,0.64000
,,,-0.000013119999,0.64000
,,,-0.000013109999,0.64000
,,,-0.000013100000,0.64000
,,,-0.000013090000,0.68000
,,,-0.000013080000,0.68000
,,,-0.000013070000,0.68000
,,,-0.000013060000,0.68000
,,,-0.000013050000,0.64000
,,,-0.000013040000,0.68000
,,,-0.000013029999,0.72000
,,,-0.000013020000,0.64000
,,,-0.000013010000,0.68000
,,,-0.000013000000,0.68000
,,,-0.000012990000,0.72000
,,,-0.000012980000,0.64000
,,,-0.000012970000,0.68000
,,,-0.000012960000,0.72000
,,,-0.000012949999,0.68000
,,,-0.000012939999,0.68000
,,,-0.000012930000,0.60000
,,,-0.000012920000,0.64000
,,,-0.000012910000,0.60000
,,,-0.000012900000,0.56000
,,,-0.000012890000,0.56000
,,,-0.000012880000,0.44000
,,,-0.000012870000,0.36000
,,,-0.000012859999,0.36000
,,,-0.000012849999,0.28000
,,,-0.000012840000,0.16000
,,,-0.000012830000,0.08000
,,,-0.000012820000,0.00
,,,-0.000012810000,-0.12000
,,,-0.000012800000,-0.16000
,,,-0.000012790000,-0.40000
,,,-0.000012780000,-0.40000
,,,-0.000012769999,-0.52000
,,,-0.000012760000,-0.64000
,,,-0.000012750000,-0.72000
,,,-0.000012740000,-0.76000
,,,-0.000012730000,-0.92000
,,,-0.000012720000,-0.92000
,,,-0.000012710000,-1.00000
,,,-0.000012700000,-1.12000
,,,-0.000012689999,-1.16000
,,,-0.000012679999,-1.16000
,,,-0.000012670000,-1.20000
,,,-0.000012660000,-1.16000
,,,-0.000012650000,-1.24000
,,,-0.000012640000,-1.16000
,,,-0.000012630000,-1.16000
,,,-0.000012620000,-1.00000
,,,-0.000012610000,-1.00000
,,,-0.000012599999,-0.96000
,,,-0.000012590000,-0.92000
,,,-0.000012580000,-0.84000
,,,-0.000012570000,-0.80000
,,,-0.000012560000,-0.76000
,,,-0.000012550000,-0.68000
,,,-0.000012540000,-0.64000
,,,-0.000012530000,-0.56000
,,,-0.000012519999,-0.48000
,,,-0.000012509999,-0.40000
,,,-0.000012500000,-0.32000
,,,-0.000012490000,-0.24000
,,,-0.000012480000,-0.20000
,,,-0.000012470000,-0.16000
,,,-0.000012460000,-0.04000
,,,-0.000012450000,0.04000
,,,-0.000012440000,0.08000
,,,-0.000012429999,0.20000
,,,-0.000012419999,0.20000
,,,-0.000012410000,0.36000
,,,-0.000012400000,0.36000
,,,-0.000012390000,0.48000
,,,-0.000012380000,0.48000
,,,-0.000012370000,0.60000
,,,-0.000012360000,0.64000
,,,-0.000012350000,0.80000
,,,-0.000012339999,0.80000
,,,-0.000012330000,0.88000
,,,-0.000012320000,0.92000
,,,-0.000012310000,0.96000
,,,-0.000012300000,1.00000
,,,-0.000012290000,1.08000
,,,-0.000012280000,1.12000
,,,-0.000012270000,1.16000
,,,-0.000012259999,1.16000
,,,-0.000012249999,1.20000
,,,-0.000012240000,1.16000
,,,-0.000012230000,1.16000
,,,-0.000012220000,1.12000
,,,-0.000012210000,1.12000
,,,-0.000012200000,1.08000
,,,-0.000012190000,1.08000
,,,-0.000012180000,1.08000
,,,-0.000012169999,1.00000
,,,-0.000012160000,1.00000
,,,-0.000012150000,1.00000
,,,-0.000012140000,0.96000
,,,-0.000012130000,1.00000
,,,-0.000012120000,0.96000
,,,-0.000012110000,0.96000
,,,-0.000012100000,0.92000
,,,-0.000012089999,0.92000
,,,-0.000012079999,0.92000
,,,-0.000012070000,0.92000
,,,-0.000012060000,0.96000
,,,-0.000012050000,0.92000
,,,-0.000012040000,0.84000
,,,-0.000012030000,0.96000
,,,-0.000012020000,0.92000
,,,-0.000012010000,1.00000
,,,-0.000011999999,0.96000
,,,-0.000011990000,0.96000
,,,-0.000011980000,0.92000
,,,-0.000011970000,0.96000
,,,-0.000011960000,0.96000
,,,-0.000011950000,1.00000
,,,-0.000011940000,1.00000
,,,-0.000011930000,1.00000
,,,-0.000011920000,1.04000
,,,-0.000011909999,1.04000
,,,-0.000011900000,1.04000
,,,-0.000011890000,1.04000
,,,-0.000011880000,1.08000
,,,-0.000011870000,1.08000
,,,-0.000011860000,1.12000
,,,-0.000011850000,1.16000
,,,-0.000011840000,1.12000
,,,-0.000011829999,1.08000
,,,-0.000011819999,1.12000
,,,-0.000011810000,1.12000
,,,-0.000011800000,1.16000
,,,-0.000011790000,1.16000
,,,-0.000011780000,1.16000
,,,-0.000011770000,1.20000
,,,-0.000011760000,1.16000
,,,-0.000011750000,1.24000
,,,-0.000011739999,1.24000
,,,-0.000011730000,1.20000
,,,-0.000011720000,1.28000
,,,-0.000011710000,1.32000
,,,-0.000011700000,1.28000
,,,-0.000011690000,1.32000
,,,-0.000011680000,1.28000
,,,-0.000011670000,1.28000
,,,-0.000011660000,1.28000
,,,-0.000011649999,1.32000
,,,-0.000011640000,1.32000
,,,-0.000011630000,1.32000
,,,-0.000011620000,1.36000
,,,-0.000011610000,1.32000
,,,-0.000011600000,1.32000
,,,-0.000011590000,1.32000
,,,-0.000011580000,1.32000
,,,-0.000011569999,1.36000
,,,-0.000011560000,1.32000
,,,-0.000011550000,1.36000
,,,-0.000011540000,1.32000
,,,-0.000011530000,1.36000
,,,-0.000011520000,1.28000
,,,-0.000011510000,1.36000
,,,-0.000011500000,1.32000
,,,-0.000011490000,1.28000
,,,-0.000011479999,1.32000
,,,-0.000011470000,1.32000
,,,-0.000011460000,1.36000
,,,-0.000011450000,1.28000
,,,-0.000011440000,1.36000
,,,-0.000011430000,1.36000
,,,-0.000011420000,1.32000
,,,-0.000011410000,1.32000
,,,-0.000011399999,1.28000
,,,-0.000011389999,1.32000
,,,-0.000011380000,1.32000
,,,-0.000011370000,1.24000
,,,-0.000011360000,1.28000
,,,-0.000011350000,1.20000
,,,-0.000011340000,1.16000
,,,-0.000011330000,1.00000
,,,-0.000011320000,0.84000
,,,-0.000011309999,0.60000
,,,-0.000011300000,0.64000
,,,-0.000011290000,0.28000
,,,-0.000011280000,0.16000
,,,-0.000011270000,-0.08000
,,,-0.000011260000,-0.16000
,,,-0.000011250000,-0.40000
,,,-0.000011240000,-0.48000
,,,-0.000011230000,-0.64000
,,,-0.000011219999,-0.76000
,,,-0.000011210000,-0.84000
,,,-0.000011200000,-0.88000
,,,-0.000011190000,-1.04000
,,,-0.000011180000,-1.08000
,,,-0.000011170000,-1.16000
,,,-0.000011160000,-1.20000
,,,-0.000011150000,-1.32000
,,,-0.000011139999,-1.28000
,,,-0.000011130000,-1.36000
,,,-0.000011120000,-1.40000
,,,-0.000011110000,-1.40000
,,,-0.000011100000,-1.32000
,,,-0.000011090000,-1.32000
,,,-0.000011080000,-1.28000
,,,-0.000011070000,-1.24000
,,,-0.000011060000,-1.24000
,,,-0.000011049999,-1.20000
,,,-0.000011040000,-1.12000
,,,-0.000011030000,-1.00000
,,,-0.000011020000,-1.00000
,,,-0.000011010000,-0.88000
,,,-0.000011000000,-0.84000
,,,-0.000010990000,-0.72000
,,,-0.000010980000,-0.64000
,,,-0.000010969999,-0.52000
,,,-0.000010959999,-0.52000
,,,-0.000010950000,-0.40000
,,,-0.000010940000,-0.44000
,,,-0.000010930000,-0.28000
,,,-0.000010920000,-0.24000
,,,-0.000010910000,-0.16000
,,,-0.000010900000,-0.16000
,,,-0.000010890000,-0.08000
,,,-0.000010879999,0.00
,,,-0.000010870000,0.00
,,,-0.000010860000,0.00
,,,-0.000010850000,0.04000
,,,-0.000010840000,0.04000
,,,-0.000010830000,0.04000
,,,-0.000010820000,0.04000
,,,-0.000010810000,0.04000
,,,-0.000010800000,0.08000
,,,-0.000010789999,0.08000
,,,-0.000010780000,0.04000
,,,-0.000010770000,0.08000
,,,-0.000010760000,0.04000
,,,-0.000010750000,0.04000
,,,-0.000010740000,0.08000
,,,-0.000010730000,0.12000
,,,-0.000010720000,0.08000
,,,-0.000010709999,0.12000
,,,-0.000010700000,0.12000
,,,-0.000010690000,0.12000
,,,-0.000010680000,0.16000
,,,-0.000010670000,0.20000
,,,-0.000010660000,0.20000
,,,-0.000010650000,0.24000
,,,-0.000010640000,0.20000
,,,-0.000010630000,0.28000
,,,-0.000010619999,0.32000
,,,-0.000010610000,0.36000
,,,-0.000010600000,0.32000
,,,-0.000010590000,0.36000
,,,-0.000010580000,0.36000
,,,-0.000010570000,0.40000
,,,-0.000010560000,0.36000
,,,-0.000010550000,0.40000
,,,-0.000010539999,0.44000
,,,-0.000010530000,0.48000
,,,-0.000010520000,0.48000
,,,-0.000010510000,0.44000
,,,-0.000010500000,0.48000
,,,-0.000010490000,0.52000
,,,-0.000010480000,0.48000
,,,-0.000010470000,0.52000
,,,-0.000010460000,0.52000
,,,-0.000010449999,0.52000
,,,-0.000010439999,0.52000
,,,-0.000010429999,0.52000
,,,-0.000010419999,0.52000
,,,-0.000010410000,0.52000
,,,-0.000010400000,0.48000
,,,-0.000010390000,0.56000
,,,-0.000010380000,0.56000
,,,-0.000010370000,0.56000
,,,-0.000010359999,0.52000
,,,-0.000010349999,0.48000
,,,-0.000010339999,0.52000
,,,-0.000010329999,0.52000
,,,-0.000010320000,0.48000
,,,-0.000010310000,0.44000
,,,-0.000010300000,0.48000
,,,-0.000010290000,0.48000
,,,-0.000010279999,0.40000
,,,-0.000010269999,0.40000
,,,-0.000010259999,0.44000
,,,-0.000010249999,0.36000
,,,-0.000010240000,0.32000
,,,-0.000010230000,0.36000
,,,-0.000010220000,0.32000
,,,-0.000010210000,0.28000
,,,-0.000010200000,0.32000
,,,-0.000010189999,0.24000
,,,-0.000010179999,0.32000
,,,-0.000010169999,0.24000
,,,-0.000010159999,0.28000
,,,-0.000010150000,0.24000
,,,-0.000010140000,0.16000
,,,-0.000010130000,0.16000
,,,-0.000010120000,0.16000
,,,-0.000010109999,0.12000
,,,-0.000010099999,0.12000
,,,-0.000010089999,0.08000
,,,-0.000010079999,0.16000
,,,-0.000010070000,0.12000
,,,-0.000010060000,0.12000
,,,-0.000010050000,0.08000
,,,-0.000010040000,0.08000
,,,-0.000010030000,0.08000
,,,-0.000010019999,0.04000
,,,-0.000010009999,0.00
,,,-0.000009999999,0.04000
,,,-0.000009989999,0.00
,,,-0.000009980000,0.00
,,,-0.000009970000,0.00
,,,-0.000009960000,0.00
,,,-0.000009950000,-0.04000
,,,-0.000009940000,0.00
,,,-0.000009929999,-0.04000
,,,-0.000009919999,-0.04000
,,,-0.000009909999,-0.08000
,,,-0.000009900000,-0.04000
,,,-0.000009890000,-0.04000
,,,-0.000009880000,-0.04000
,,,-0.000009870000,-0.08000
,,,-0.000009860000,-0.12000
,,,-0.000009849999,-0.08000
,,,-0.000009839999,-0.12000
,,,-0.000009829999,-0.16000
,,,-0.000009819999,-0.16000
,,,-0.000009810000,-0.16000
,,,-0.000009800000,-0.20000
,,,-0.000009790000,-0.20000
,,,-0.000009780000,-0.20000
,,,-0.000009770000,-0.12000
,,,-0.000009759999,-0.20000
,,,-0.000009749999,-0.20000
,,,-0.000009739999,-0.24000
,,,-0.000009729999,-0.24000
,,,-0.000009720000,-0.28000
,,,-0.000009710000,-0.24000
,,,-0.000009700000,-0.24000
,,,-0.000009690000,-0.28000
,,,-0.000009679999,-0.32000
,,,-0.000009669999,-0.32000
,,,-0.000009659999,-0.28000
,,,-0.000009649999,-0.32000
,,,-0.000009640000,-0.28000
,,,-0.000009630000,-0.32000
,,,-0.000009620000,-0.36000
,,,-0.000009610000,-0.36000
,,,-0.000009600000,-0.36000
,,,-0.000009589999,-0.40000
,,,-0.000009579999,-0.40000
,,,-0.000009569999,-0.36000
,,,-0.000009559999,-0.36000
,,,-0.000009550000,-0.40000
,,,-0.000009540000,-0.40000
,,,-0.000009530000,-0.40000
,,,-0.000009520000,-0.40000
,,,-0.000009510000,-0.40000
,,,-0.000009499999,-0.44000
,,,-0.000009489999,-0.44000
,,,-0.000009479999,-0.44000
,,,-0.000009470000,-0.44000
,,,-0.000009460000,-0.44000
,,,-0.000009450000,-0.44000
,,,-0.000009440000,-0.48000
,,,-0.000009430000,-0.44000
,,,-0.000009419999,-0.48000
,,,-0.000009409999,-0.48000
,,,-0.000009399999,-0.52000
,,,-0.000009389999,-0.52000
,,,-0.000009380000,-0.48000
,,,-0.000009370000,-0.52000
,,,-0.000009360000,-0.52000
,,,-0.000009350000,-0.52000
,,,-0.000009340000,-0.48000
,,,-0.000009329999,-0.56000
,,,-0.000009319999,-0.48000
,,,-0.000009309999,-0.48000
,,,-0.000009299999,-0.56000
,,,-0.000009290000,-0.60000
,,,-0.000009280000,-0.56000
,,,-0.000009270000,-0.60000
,,,-0.000009260000,-0.56000
,,,-0.000009249999,-0.52000
,,,-0.000009239999,-0.56000
,,,-0.000009229999,-0.64000
,,,-0.000009219999,-0.60000
,,,-0.000009210000,-0.60000
,,,-0.000009200000,-0.52000
,,,-0.000009190000,-0.60000
,,,-0.000009180000,-0.56000
,,,-0.000009170000,-0.60000
,,,-0.000009159999,-0.60000
,,,-0.000009149999,-0.64000
,,,-0.000009139999,-0.60000
,,,-0.000009129999,-0.60000
,,,-0.000009120000,-0.60000
,,,-0.000009110000,-0.64000
,,,-0.000009100000,-0.60000
,,,-0.000009090000,-0.68000
,,,-0.000009080000,-0.64000
,,,-0.000009069999,-0.64000
,,,-0.000009059999,-0.64000
,,,-0.000009049999,-0.72000
,,,-0.000009040000,-0.68000
,,,-0.000009030000,-0.72000
,,,-0.000009020000,-0.76000
,,,-0.000009010000,-0.76000
,,,-0.000009000000,-0.68000
,,,-0.000008989999,-0.76000
,,,-0.000008979999,-0.80000
,,,-0.000008969999,-0.80000
,,,-0.000008959999,-0.84000
,,,-0.000008950000,-0.88000
,,,-0.000008940000,-0.84000
,,,-0.000008930000,-0.88000
,,,-0.000008920000,-0.88000
,,,-0.000008910000,-0.92000
,,,-0.000008899999,-0.96000
,,,-0.000008889999,-0.96000
,,,-0.000008879999,-0.96000
,,,-0.000008870000,-1.00000
,,,-0.000008860000,-0.96000
,,,-0.000008850000,-0.96000
,,,-0.000008840000,-1.00000
,,,-0.000008830000,-1.04000
,,,-0.000008819999,-1.00000
,,,-0.000008809999,-1.04000
,,,-0.000008799999,-1.00000
,,,-0.000008789999,-1.04000
,,,-0.000008780000,-1.08000
,,,-0.000008770000,-1.04000
,,,-0.000008760000,-1.08000
,,,-0.000008750000,-1.16000
,,,-0.000008740000,-1.12000
,,,-0.000008729999,-1.16000
,,,-0.000008719999,-1.08000
,,,-0.000008709999,-1.16000
,,,-0.000008699999,-1.12000
