capturas-osciloscopio/17-11-22/WA000052.CSV

Record Length,9216,,Source,CH1
Sample Interval,0.0000000040000,,Second,Volt
Vertical Units,CH1:V,,-0.00001843200,35.60000
Vertical Scale,CH1:10.00,,-0.00001842800,35.60000
Vertical Offset,CH1:-4.00000,,-0.00001842400,35.60000
Horizontal Units,s,,-0.00001842000,35.60000
Horizontal Scale,0.0000025000,,-0.00001841600,35.20000
Model Number,WaveAce212,,-0.00001841200,34.80000
Serial Number,LCRY2101C02669,,-0.00001840800,34.80000
Software Version,2.06.02.19,,-0.00001840400,34.40000
,,,-0.00001840000,34.40000
,,,-0.00001839600,34.40000
,,,-0.00001839200,34.00000
,,,-0.00001838800,34.00000
,,,-0.00001838400,34.00000
,,,-0.00001838000,33.60000
,,,-0.00001837600,33.60000
,,,-0.00001837200,33.60000
,,,-0.00001836800,33.20000
,,,-0.00001836400,33.20000
,,,-0.00001836000,32.80000
,,,-0.00001835600,32.80000
,,,-0.00001835200,32.80000
,,,-0.00001834800,32.40000
,,,-0.00001834400,32.40000
,,,-0.00001834000,32.40000
,,,-0.00001833600,32.40000
,,,-0.00001833200,32.40000
,,,-0.00001832800,32.00000
,,,-0.00001832400,32.00000
,,,-0.00001832000,32.00000
,,,-0.00001831600,31.60000
,,,-0.00001831200,31.60000
,,,-0.00001830800,31.20000
,,,-0.00001830400,31.60000
,,,-0.00001830000,31.20000
,,,-0.00001829600,31.20000
,,,-0.00001829200,30.80000
,,,-0.00001828800,30.80000
,,,-0.00001828400,30.80000
,,,-0.00001828000,30.80000
,,,-0.00001827600,30.80000
,,,-0.00001827200,30.80000
,,,-0.00001826800,30.80000
,,,-0.00001826400,30.40000
,,,-0.00001826000,30.40000
,,,-0.00001825600,30.40000
,,,-0.00001825200,30.40000
,,,-0.00001824800,30.40000
,,,-0.00001824400,30.00000
,,,-0.00001824000,30.40000
,,,-0.00001823600,30.00000
,,,-0.00001823200,30.00000
,,,-0.00001822800,30.00000
,,,-0.00001822400,30.00000
,,,-0.00001822000,30.00000
,,,-0.00001821600,30.00000
,,,-0.00001821200,30.00000
,,,-0.00001820800,30.00000
,,,-0.00001820400,30.00000
,,,-0.00001820000,30.00000
,,,-0.00001819600,30.00000
,,,-0.00001819200,30.00000
,,,-0.00001818800,30.00000
,,,-0.00001818400,30.00000
,,,-0.00001818000,30.00000
,,,-0.00001817600,30.00000
,,,-0.00001817200,30.00000
,,,-0.00001816800,30.00000
,,,-0.00001816400,30.00000
,,,-0.00001816000,30.00000
,,,-0.00001815600,30.00000
,,,-0.00001815200,30.40000
,,,-0.00001814800,30.00000
,,,-0.00001814400,30.00000
,,,-0.00001814000,30.00000
,,,-0.00001813600,30.40000
,,,-0.00001813200,30.40000
,,,-0.00001812800,30.40000
,,,-0.00001812400,30.40000
,,,-0.00001812000,30.80000
,,,-0.00001811600,30.40000
,,,-0.00001811200,30.80000
,,,-0.00001810800,30.80000
,,,-0.00001810400,30.80000
,,,-0.00001810000,31.20000
,,,-0.00001809600,31.20000
,,,-0.00001809200,31.20000
,,,-0.00001808800,31.20000
,,,-0.00001808400,31.20000
,,,-0.00001808000,31.60000
,,,-0.00001807600,32.00000
,,,-0.00001807200,31.60000
,,,-0.00001806800,32.00000
,,,-0.00001806400,32.00000
,,,-0.00001806000,32.40000
,,,-0.00001805600,32.00000
,,,-0.00001805200,32.40000
,,,-0.00001804800,32.40000
,,,-0.00001804400,32.80000
,,,-0.00001804000,32.80000
,,,-0.00001803600,32.80000
,,,-0.00001803200,33.20000
,,,-0.00001802800,33.20000
,,,-0.00001802400,33.20000
,,,-0.00001802000,33.60000
,,,-0.00001801600,34.00000
,,,-0.00001801200,34.00000
,,,-0.00001800800,34.00000
,,,-0.00001800400,34.40000
,,,-0.00001800000,34.40000
,,,-0.00001799600,34.40000
,,,-0.00001799200,34.80000
,,,-0.00001798800,34.80000
,,,-0.00001798400,35.20000
,,,-0.00001798000,34.80000
,,,-0.00001797600,35.20000
,,,-0.00001797200,35.60000
,,,-0.00001796800,35.60000
,,,-0.00001796400,36.00000
,,,-0.00001796000,35.60000
,,,-0.00001795600,36.00000
,,,-0.00001795200,36.40000
,,,-0.00001794800,36.40000
,,,-0.00001794400,36.40000
,,,-0.00001794000,36.40000
,,,-0.00001793600,36.40000
,,,-0.00001793200,36.80000
,,,-0.00001792800,36.80000
,,,-0.00001792400,36.80000
,,,-0.00001792000,37.20000
,,,-0.00001791600,37.60000
,,,-0.00001791200,37.20000
,,,-0.00001790800,37.60000
,,,-0.00001790400,37.60000
,,,-0.00001790000,37.60000
,,,-0.00001789600,37.60000
,,,-0.00001789200,37.60000
,,,-0.00001788800,38.00000
,,,-0.00001788400,37.60000
,,,-0.00001788000,37.60000
,,,-0.00001787600,38.00000
,,,-0.00001787200,38.00000
,,,-0.00001786800,38.00000
,,,-0.00001786400,38.00000
,,,-0.00001786000,38.40000
,,,-0.00001785600,38.00000
,,,-0.00001785200,38.00000
,,,-0.00001784800,38.40000
,,,-0.00001784400,38.40000
,,,-0.00001784000,38.40000
,,,-0.00001783600,38.40000
,,,-0.00001783200,38.80000
,,,-0.00001782800,38.80000
,,,-0.00001782400,38.40000
,,,-0.00001782000,38.80000
,,,-0.00001781600,38.40000
,,,-0.00001781200,38.40000
,,,-0.00001780800,38.80000
,,,-0.00001780400,38.40000
,,,-0.00001780000,38.40000
,,,-0.00001779600,38.40000
,,,-0.00001779200,38.40000
,,,-0.00001778800,38.40000
,,,-0.00001778400,38.40000
,,,-0.00001778000,38.40000
,,,-0.00001777600,38.40000
,,,-0.00001777200,38.80000
,,,-0.00001776800,38.40000
,,,-0.00001776400,38.40000
,,,-0.00001776000,38.40000
,,,-0.00001775600,38.00000
,,,-0.00001775200,38.00000
,,,-0.00001774800,38.00000
,,,-0.00001774400,38.00000
,,,-0.00001774000,38.00000
,,,-0.00001773600,38.00000
,,,-0.00001773200,38.00000
,,,-0.00001772800,37.60000
,,,-0.00001772400,37.60000
,,,-0.00001772000,37.60000
,,,-0.00001771600,37.60000
,,,-0.00001771200,37.60000
,,,-0.00001770800,37.60000
,,,-0.00001770400,37.20000
,,,-0.00001770000,37.60000
,,,-0.00001769600,37.20000
,,,-0.00001769200,37.20000
,,,-0.00001768800,36.80000
,,,-0.00001768400,37.20000
,,,-0.00001768000,36.80000
,,,-0.00001767600,36.40000
,,,-0.00001767200,36.40000
,,,-0.00001766800,36.80000
,,,-0.00001766400,36.40000
,,,-0.00001766000,36.00000
,,,-0.00001765600,36.00000
,,,-0.00001765200,36.00000
,,,-0.00001764800,36.00000
,,,-0.00001764400,35.60000
,,,-0.00001764000,35.60000
,,,-0.00001763600,35.60000
,,,-0.00001763200,35.20000
,,,-0.00001762800,34.80000
,,,-0.00001762400,35.20000
,,,-0.00001762000,34.80000
,,,-0.00001761600,34.80000
,,,-0.00001761200,34.40000
,,,-0.00001760800,34.40000
,,,-0.00001760400,34.40000
,,,-0.00001760000,34.00000
,,,-0.00001759600,33.60000
,,,-0.00001759200,34.00000
,,,-0.00001758800,34.00000
,,,-0.00001758400,34.00000
,,,-0.00001758000,33.60000
,,,-0.00001757600,33.60000
,,,-0.00001757200,33.20000
,,,-0.00001756800,33.20000
,,,-0.00001756400,32.80000
,,,-0.00001756000,32.80000
,,,-0.00001755600,32.80000
,,,-0.00001755200,32.80000
,,,-0.00001754800,32.40000
,,,-0.00001754400,32.40000
,,,-0.00001754000,32.40000
,,,-0.00001753600,32.00000
,,,-0.00001753200,31.60000
,,,-0.00001752800,32.00000
,,,-0.00001752400,31.60000
,,,-0.00001752000,31.60000
,,,-0.00001751600,31.60000
,,,-0.00001751200,31.20000
,,,-0.00001750800,31.20000
,,,-0.00001750400,31.20000
,,,-0.00001750000,30.80000
,,,-0.00001749600,30.80000
,,,-0.00001749200,30.80000
,,,-0.00001748800,30.80000
,,,-0.00001748400,30.80000
,,,-0.00001748000,30.40000
,,,-0.00001747600,30.40000
,,,-0.00001747200,30.40000
,,,-0.00001746800,30.40000
,,,-0.00001746400,30.40000
,,,-0.00001746000,30.40000
,,,-0.00001745600,30.00000
,,,-0.00001745200,30.00000
,,,-0.00001744800,30.00000
,,,-0.00001744400,30.00000
,,,-0.00001744000,30.00000
,,,-0.00001743600,30.00000
,,,-0.00001743200,30.00000
,,,-0.00001742800,30.00000
,,,-0.00001742400,30.00000
,,,-0.00001742000,30.00000
,,,-0.00001741600,30.00000
,,,-0.00001741200,30.00000
,,,-0.00001740800,30.00000
,,,-0.00001740400,30.00000
,,,-0.00001740000,30.00000
,,,-0.00001739600,30.00000
,,,-0.00001739200,29.60000
,,,-0.00001738800,30.00000
,,,-0.00001738400,30.00000
,,,-0.00001738000,30.00000
,,,-0.00001737600,30.00000
,,,-0.00001737200,30.00000
,,,-0.00001736800,30.00000
,,,-0.00001736400,30.00000
,,,-0.00001736000,30.00000
,,,-0.00001735600,30.00000
,,,-0.00001735200,30.00000
,,,-0.00001734800,30.00000
,,,-0.00001734400,30.00000
,,,-0.00001734000,30.00000
,,,-0.00001733600,30.00000
,,,-0.00001733200,30.00000
,,,-0.00001732800,30.40000
,,,-0.00001732400,30.40000
,,,-0.00001732000,30.40000
,,,-0.00001731600,30.40000
,,,-0.00001731200,30.40000
,,,-0.00001730800,30.40000
,,,-0.00001730400,30.40000
,,,-0.00001730000,30.80000
,,,-0.00001729600,30.80000
,,,-0.00001729200,30.80000
,,,-0.00001728800,30.80000
,,,-0.00001728400,30.80000
,,,-0.00001728000,31.20000
,,,-0.00001727600,31.60000
,,,-0.00001727200,31.60000
,,,-0.00001726800,31.60000
,,,-0.00001726400,31.60000
,,,-0.00001726000,31.60000
,,,-0.00001725600,31.60000
,,,-0.00001725200,32.00000
,,,-0.00001724800,32.00000
,,,-0.00001724400,32.40000
,,,-0.00001724000,32.40000
,,,-0.00001723600,32.40000
,,,-0.00001723200,32.40000
,,,-0.00001722800,32.40000
,,,-0.00001722400,32.80000
,,,-0.00001722000,32.80000
,,,-0.00001721600,32.80000
,,,-0.00001721200,33.20000
,,,-0.00001720800,33.20000
,,,-0.00001720400,33.20000
,,,-0.00001720000,33.60000
,,,-0.00001719600,33.60000
,,,-0.00001719200,33.60000
,,,-0.00001718800,33.60000
,,,-0.00001718400,33.60000
,,,-0.00001718000,33.60000
,,,-0.00001717600,34.00000
,,,-0.00001717200,34.40000
,,,-0.00001716800,34.80000
,,,-0.00001716400,34.40000
,,,-0.00001716000,34.40000
,,,-0.00001715600,34.80000
,,,-0.00001715200,34.80000
,,,-0.00001714800,34.80000
,,,-0.00001714400,34.80000
,,,-0.00001714000,35.20000
,,,-0.00001713600,35.20000
,,,-0.00001713200,35.60000
,,,-0.00001712800,35.60000
,,,-0.00001712400,35.60000
,,,-0.00001712000,35.60000
,,,-0.00001711600,35.60000
,,,-0.00001711200,35.60000
,,,-0.00001710800,36.00000
,,,-0.00001710400,36.00000
,,,-0.00001710000,36.40000
,,,-0.00001709600,36.00000
,,,-0.00001709200,36.00000
,,,-0.00001708800,36.40000
,,,-0.00001708400,36.40000
,,,-0.00001708000,36.40000
,,,-0.00001707600,36.40000
,,,-0.00001707200,36.40000
,,,-0.00001706800,36.80000
,,,-0.00001706400,36.40000
,,,-0.00001706000,36.40000
,,,-0.00001705600,36.80000
,,,-0.00001705200,36.80000
,,,-0.00001704800,36.80000
,,,-0.00001704400,36.80000
,,,-0.00001704000,36.80000
,,,-0.00001703600,36.80000
,,,-0.00001703200,37.20000
,,,-0.00001702800,37.20000
,,,-0.00001702400,37.20000
,,,-0.00001702000,37.20000
,,,-0.00001701600,37.20000
,,,-0.00001701200,36.80000
,,,-0.00001700800,37.20000
,,,-0.00001700400,37.20000
,,,-0.00001700000,37.20000
,,,-0.00001699600,37.20000
,,,-0.00001699200,37.20000
,,,-0.00001698800,37.20000
,,,-0.00001698400,37.20000
,,,-0.00001698000,37.20000
,,,-0.00001697600,37.20000
,,,-0.00001697200,37.20000
,,,-0.00001696800,36.80000
,,,-0.00001696400,36.80000
,,,-0.00001696000,37.20000
,,,-0.00001695600,36.80000
,,,-0.00001695200,36.80000
,,,-0.00001694800,36.80000
,,,-0.00001694400,36.80000
,,,-0.00001694000,36.80000
,,,-0.00001693600,36.40000
,,,-0.00001693200,36.40000
,,,-0.00001692800,36.40000
,,,-0.00001692400,36.80000
,,,-0.00001692000,36.40000
,,,-0.00001691600,36.40000
,,,-0.00001691200,36.40000
,,,-0.00001690800,36.00000
,,,-0.00001690400,36.00000
,,,-0.00001690000,36.00000
,,,-0.00001689600,36.00000
,,,-0.00001689200,36.00000
,,,-0.00001688800,36.00000
,,,-0.00001688400,36.00000
,,,-0.00001688000,35.60000
,,,-0.00001687600,35.60000
,,,-0.00001687200,35.60000
,,,-0.00001686800,35.60000
,,,-0.00001686400,34.80000
,,,-0.00001686000,35.20000
,,,-0.00001685600,35.20000
,,,-0.00001685200,35.20000
,,,-0.00001684800,35.20000
,,,-0.00001684400,34.80000
,,,-0.00001684000,34.80000
,,,-0.00001683600,34.40000
,,,-0.00001683200,34.40000
,,,-0.00001682800,34.80000
,,,-0.00001682400,34.00000
,,,-0.00001682000,34.00000
,,,-0.00001681600,34.40000
,,,-0.00001681200,34.00000
,,,-0.00001680800,34.00000
,,,-0.00001680400,34.00000
,,,-0.00001680000,34.00000
,,,-0.00001679600,33.20000
,,,-0.00001679200,33.60000
,,,-0.00001678800,33.20000
,,,-0.00001678400,33.20000
,,,-0.00001678000,33.20000
,,,-0.00001677600,32.80000
,,,-0.00001677200,32.40000
,,,-0.00001676800,32.80000
,,,-0.00001676400,32.80000
,,,-0.00001676000,32.80000
,,,-0.00001675600,32.80000
,,,-0.00001675200,32.40000
,,,-0.00001674800,32.80000
,,,-0.00001674400,32.40000
,,,-0.00001674000,32.00000
,,,-0.00001673600,32.00000
,,,-0.00001673200,32.00000
,,,-0.00001672800,31.60000
,,,-0.00001672400,32.00000
,,,-0.00001672000,31.60000
,,,-0.00001671600,31.60000
,,,-0.00001671200,31.60000
,,,-0.00001670800,31.20000
,,,-0.00001670400,31.20000
,,,-0.00001670000,31.20000
,,,-0.00001669600,31.20000
,,,-0.00001669200,31.20000
,,,-0.00001668800,31.20000
,,,-0.00001668400,30.80000
,,,-0.00001668000,30.80000
,,,-0.00001667600,30.80000
,,,-0.00001667200,30.80000
,,,-0.00001666800,30.80000
,,,-0.00001666400,30.80000
,,,-0.00001666000,30.40000
,,,-0.00001665600,30.80000
,,,-0.00001665200,30.40000
,,,-0.00001664800,30.40000
,,,-0.00001664400,30.40000
,,,-0.00001664000,30.40000
,,,-0.00001663600,30.80000
,,,-0.00001663200,30.40000
,,,-0.00001662800,30.00000
,,,-0.00001662400,30.40000
,,,-0.00001662000,30.00000
,,,-0.00001661600,30.40000
,,,-0.00001661200,30.00000
,,,-0.00001660800,30.00000
,,,-0.00001660400,30.00000
,,,-0.00001660000,30.40000
,,,-0.00001659600,30.00000
,,,-0.00001659200,30.40000
,,,-0.00001658800,30.00000
,,,-0.00001658400,30.00000
,,,-0.00001658000,30.00000
,,,-0.00001657600,30.40000
,,,-0.00001657200,30.40000
,,,-0.00001656800,30.00000
,,,-0.00001656400,30.40000
,,,-0.00001656000,30.40000
,,,-0.00001655600,30.40000
,,,-0.00001655200,30.40000
,,,-0.00001654800,30.00000
,,,-0.00001654400,30.00000
,,,-0.00001654000,30.40000
,,,-0.00001653600,30.40000
,,,-0.00001653200,30.80000
,,,-0.00001652800,30.40000
,,,-0.00001652400,30.40000
,,,-0.00001652000,30.40000
,,,-0.00001651600,30.40000
,,,-0.00001651200,30.40000
,,,-0.00001650800,30.80000
,,,-0.00001650400,30.80000
,,,-0.00001650000,30.80000
,,,-0.00001649600,30.40000
,,,-0.00001649200,31.20000
,,,-0.00001648800,30.80000
,,,-0.00001648400,31.20000
,,,-0.00001648000,31.20000
,,,-0.00001647600,30.80000
,,,-0.00001647200,31.20000
,,,-0.00001646800,31.20000
,,,-0.00001646400,31.20000
,,,-0.00001646000,31.60000
,,,-0.00001645600,31.20000
,,,-0.00001645200,31.60000
,,,-0.00001644800,31.60000
,,,-0.00001644400,32.00000
,,,-0.00001644000,31.60000
,,,-0.00001643600,31.60000
,,,-0.00001643200,32.00000
,,,-0.00001642800,32.00000
,,,-0.00001642400,32.00000
,,,-0.00001642000,32.00000
,,,-0.00001641600,32.40000
,,,-0.00001641200,32.00000
,,,-0.00001640800,32.40000
,,,-0.00001640400,32.40000
,,,-0.00001640000,32.40000
,,,-0.00001639600,32.80000
,,,-0.00001639200,32.80000
,,,-0.00001638800,32.40000
,,,-0.00001638400,32.40000
,,,-0.00001638000,32.80000
,,,-0.00001637600,32.80000
,,,-0.00001637200,32.80000
,,,-0.00001636800,32.80000
,,,-0.00001636400,33.20000
,,,-0.00001636000,32.80000
,,,-0.00001635600,33.20000
,,,-0.00001635200,33.20000
,,,-0.00001634800,33.60000
,,,-0.00001634400,33.20000
,,,-0.00001634000,33.60000
,,,-0.00001633600,34.00000
,,,-0.00001633200,33.60000
,,,-0.00001632800,34.00000
,,,-0.00001632400,34.00000
,,,-0.00001632000,33.60000
,,,-0.00001631600,34.00000
,,,-0.00001631200,34.00000
,,,-0.00001630800,34.00000
,,,-0.00001630400,34.40000
,,,-0.00001630000,34.40000
,,,-0.00001629600,34.40000
,,,-0.00001629200,34.40000
,,,-0.00001628800,34.40000
,,,-0.00001628400,34.40000
,,,-0.00001628000,34.40000
,,,-0.00001627600,34.80000
,,,-0.00001627200,34.80000
,,,-0.00001626800,34.40000
,,,-0.00001626400,34.40000
,,,-0.00001626000,34.80000
,,,-0.00001625600,35.20000
,,,-0.00001625200,34.80000
,,,-0.00001624800,34.80000
,,,-0.00001624400,34.80000
,,,-0.00001624000,35.20000
,,,-0.00001623600,35.20000
,,,-0.00001623200,34.80000
,,,-0.00001622800,35.20000
,,,-0.00001622400,35.20000
,,,-0.00001622000,35.20000
,,,-0.00001621600,34.80000
,,,-0.00001621200,34.80000
,,,-0.00001620800,35.20000
,,,-0.00001620400,35.20000
,,,-0.00001620000,35.20000
,,,-0.00001619600,34.80000
,,,-0.00001619200,35.60000
,,,-0.00001618800,35.20000
,,,-0.00001618400,35.20000
,,,-0.00001618000,35.20000
,,,-0.00001617600,35.20000
,,,-0.00001617200,35.20000
,,,-0.00001616800,35.20000
,,,-0.00001616400,35.20000
,,,-0.00001616000,35.20000
,,,-0.00001615600,35.20000
,,,-0.00001615200,35.20000
,,,-0.00001614800,35.20000
,,,-0.00001614400,35.20000
,,,-0.00001614000,35.20000
,,,-0.00001613600,34.80000
,,,-0.00001613200,35.20000
,,,-0.00001612800,34.80000
,,,-0.00001612400,34.80000
,,,-0.00001612000,34.80000
,,,-0.00001611600,35.20000
,,,-0.00001611200,34.80000
,,,-0.00001610800,34.40000
,,,-0.00001610400,34.40000
,,,-0.00001610000,34.80000
,,,-0.00001609600,34.80000
,,,-0.00001609200,34.40000
,,,-0.00001608800,34.40000
,,,-0.00001608400,34.40000
,,,-0.00001608000,34.40000
,,,-0.00001607600,34.40000
,,,-0.00001607200,34.40000
,,,-0.00001606800,34.40000
,,,-0.00001606400,34.40000
,,,-0.00001606000,34.00000
,,,-0.00001605600,34.40000
,,,-0.00001605200,34.00000
,,,-0.00001604800,34.00000
,,,-0.00001604400,33.60000
,,,-0.00001604000,33.60000
,,,-0.00001603600,34.00000
,,,-0.00001603200,33.20000
,,,-0.00001602800,33.60000
,,,-0.00001602400,33.60000
,,,-0.00001602000,33.20000
,,,-0.00001601600,33.20000
,,,-0.00001601200,33.20000
,,,-0.00001600800,33.20000
,,,-0.00001600400,32.80000
,,,-0.00001600000,32.40000
,,,-0.00001599600,32.00000
,,,-0.00001599200,31.20000
,,,-0.00001598800,30.80000
,,,-0.00001598400,30.00000
,,,-0.00001598000,30.00000
,,,-0.00001597600,29.60000
,,,-0.00001597200,28.80000
,,,-0.00001596800,28.40000
,,,-0.00001596400,27.60000
,,,-0.00001596000,27.20000
,,,-0.00001595600,26.40000
,,,-0.00001595200,25.20000
,,,-0.00001594800,24.00000
,,,-0.00001594400,22.40000
,,,-0.00001594000,21.60000
,,,-0.00001593600,20.00000
,,,-0.00001593200,17.60000
,,,-0.00001592800,14.80000
,,,-0.00001592400,12.00000
,,,-0.00001592000,7.60000
,,,-0.00001591600,2.80000
,,,-0.00001591200,-4.00000
,,,-0.00001590800,-13.20000
,,,-0.00001590400,-23.60000
,,,-0.00001590000,-30.80000
,,,-0.00001589600,-30.80000
,,,-0.00001589200,-24.80000
,,,-0.00001588800,-18.40000
,,,-0.00001588400,-13.20000
,,,-0.00001588000,-9.20000
,,,-0.00001587600,-7.20000
,,,-0.00001587200,-6.40000
,,,-0.00001586800,-6.40000
,,,-0.00001586400,-6.80000
,,,-0.00001586000,-6.80000
,,,-0.00001585600,-6.40000
,,,-0.00001585200,-5.60000
,,,-0.00001584800,-4.00000
,,,-0.00001584400,-3.60000
,,,-0.00001584000,-2.80000
,,,-0.00001583600,-2.80000
,,,-0.00001583200,-3.20000
,,,-0.00001582800,-3.60000
,,,-0.00001582400,-3.60000
,,,-0.00001582000,-3.20000
,,,-0.00001581600,-2.40000
,,,-0.00001581200,-2.00000
,,,-0.00001580800,-1.20000
,,,-0.00001580400,-1.60000
,,,-0.00001580000,-2.00000
,,,-0.00001579600,-2.40000
,,,-0.00001579200,-2.80000
,,,-0.00001578800,-2.40000
,,,-0.00001578400,-2.00000
,,,-0.00001578000,-1.60000
,,,-0.00001577600,-1.20000
,,,-0.00001577200,-1.20000
,,,-0.00001576800,-1.60000
,,,-0.00001576400,-2.00000
,,,-0.00001576000,-2.40000
,,,-0.00001575600,-2.40000
,,,-0.00001575200,-1.60000
,,,-0.00001574800,-1.60000
,,,-0.00001574400,-1.60000
,,,-0.00001574000,-1.60000
,,,-0.00001573600,-2.00000
,,,-0.00001573200,-2.00000
,,,-0.00001572800,-2.00000
,,,-0.00001572400,-2.40000
,,,-0.00001572000,-2.00000
,,,-0.00001571600,-2.40000
,,,-0.00001571200,-2.00000
,,,-0.00001570800,-2.00000
,,,-0.00001570400,-2.40000
,,,-0.00001570000,-2.40000
,,,-0.00001569600,-2.80000
,,,-0.00001569200,-2.80000
,,,-0.00001568800,-2.80000
,,,-0.00001568400,-2.80000
,,,-0.00001568000,-2.80000
,,,-0.00001567600,-2.40000
,,,-0.00001567200,-2.80000
,,,-0.00001566800,-3.20000
,,,-0.00001566400,-3.20000
,,,-0.00001566000,-3.20000
,,,-0.00001565600,-3.20000
,,,-0.00001565200,-3.20000
,,,-0.00001564800,-3.20000
,,,-0.00001564400,-3.20000
,,,-0.00001564000,-3.20000
,,,-0.00001563600,-3.60000
,,,-0.00001563200,-3.60000
,,,-0.00001562800,-3.20000
,,,-0.00001562400,-3.60000
,,,-0.00001562000,-3.60000
,,,-0.00001561600,-3.60000
,,,-0.00001561200,-3.60000
,,,-0.00001560800,-3.60000
,,,-0.00001560400,-3.60000
,,,-0.00001560000,-3.60000
,,,-0.00001559600,-4.00000
,,,-0.00001559200,-3.60000
,,,-0.00001558800,-4.00000
,,,-0.00001558400,-4.40000
,,,-0.00001558000,-4.00000
,,,-0.00001557600,-4.40000
,,,-0.00001557200,-4.40000
,,,-0.00001556800,-4.40000
,,,-0.00001556400,-4.00000
,,,-0.00001556000,-4.40000
,,,-0.00001555600,-4.00000
,,,-0.00001555200,-4.40000
,,,-0.00001554800,-4.80000
,,,-0.00001554400,-4.40000
,,,-0.00001554000,-4.80000
,,,-0.00001553600,-4.40000
,,,-0.00001553200,-4.40000
,,,-0.00001552800,-4.80000
,,,-0.00001552400,-4.80000
,,,-0.00001552000,-4.40000
,,,-0.00001551600,-4.40000
