capturas-osciloscopio/17-11-22/WA000025.CSV

Record Length,4096,,Source,CH1
Sample Interval,0.0000000050000,,Second,Volt
Vertical Units,CH1:V,,-0.000013440000,0.42000
Vertical Scale,CH1:0.10,,-0.000013435000,0.41200
Vertical Offset,CH1:-0.06000,,-0.000013430000,0.41600
Horizontal Units,s,,-0.000013425000,0.42400
Horizontal Scale,0.0000010000,,-0.000013420000,0.42000
Model Number,WaveAce112,,-0.000013414999,0.42400
Serial Number,LCRY2101C02399,,-0.000013410000,0.42000
Software Version,2.07.02.16,,-0.000013405000,0.42000
,,,-0.000013400000,0.42000
,,,-0.000013395000,0.42400
,,,-0.000013390000,0.42000
,,,-0.000013385000,0.42400
,,,-0.000013379999,0.42800
,,,-0.000013375000,0.42400
,,,-0.000013369999,0.42000
,,,-0.000013365000,0.42800
,,,-0.000013360000,0.42400
,,,-0.000013355000,0.42000
,,,-0.000013350000,0.42400
,,,-0.000013345000,0.41200
,,,-0.000013340000,0.41200
,,,-0.000013334999,0.42400
,,,-0.000013330000,0.42000
,,,-0.000013324999,0.42000
,,,-0.000013320000,0.41200
,,,-0.000013315000,0.40800
,,,-0.000013310000,0.41200
,,,-0.000013305000,0.40400
,,,-0.000013300000,0.40000
,,,-0.000013295000,0.40400
,,,-0.000013289999,0.40000
,,,-0.000013285000,0.40800
,,,-0.000013279999,0.40800
,,,-0.000013275000,0.40400
,,,-0.000013270000,0.40400
,,,-0.000013265000,0.39200
,,,-0.000013260000,0.39600
,,,-0.000013255000,0.40400
,,,-0.000013250000,0.40400
,,,-0.000013244999,0.39600
,,,-0.000013240000,0.38800
,,,-0.000013234999,0.38800
,,,-0.000013230000,0.39600
,,,-0.000013225000,0.39600
,,,-0.000013220000,0.40000
,,,-0.000013215000,0.39200
,,,-0.000013210000,0.38800
,,,-0.000013205000,0.38800
,,,-0.000013199999,0.38800
,,,-0.000013195000,0.38800
,,,-0.000013190000,0.38800
,,,-0.000013185000,0.38000
,,,-0.000013180000,0.38400
,,,-0.000013175000,0.38400
,,,-0.000013170000,0.38400
,,,-0.000013164999,0.38000
,,,-0.000013160000,0.38000
,,,-0.000013154999,0.37200
,,,-0.000013150000,0.37600
,,,-0.000013145000,0.37600
,,,-0.000013140000,0.38400
,,,-0.000013135000,0.37600
,,,-0.000013130000,0.36800
,,,-0.000013125000,0.37200
,,,-0.000013119999,0.36400
,,,-0.000013115000,0.36400
,,,-0.000013109999,0.36400
,,,-0.000013105000,0.36400
,,,-0.000013100000,0.35200
,,,-0.000013095000,0.34800
,,,-0.000013090000,0.34800
,,,-0.000013085000,0.34400
,,,-0.000013080000,0.33200
,,,-0.000013074999,0.33200
,,,-0.000013070000,0.32800
,,,-0.000013064999,0.32400
,,,-0.000013060000,0.32800
,,,-0.000013055000,0.32800
,,,-0.000013050000,0.33600
,,,-0.000013045000,0.32800
,,,-0.000013040000,0.31600
,,,-0.000013035000,0.31600
,,,-0.000013029999,0.31600
,,,-0.000013025000,0.31200
,,,-0.000013020000,0.31600
,,,-0.000013015000,0.30800
,,,-0.000013010000,0.30400
,,,-0.000013005000,0.30400
,,,-0.000013000000,0.30000
,,,-0.000012995000,0.29200
,,,-0.000012990000,0.28800
,,,-0.000012984999,0.28400
,,,-0.000012980000,0.28400
,,,-0.000012975000,0.28800
,,,-0.000012970000,0.27600
,,,-0.000012965000,0.28000
,,,-0.000012960000,0.27600
,,,-0.000012955000,0.27200
,,,-0.000012949999,0.26800
,,,-0.000012945000,0.26400
,,,-0.000012939999,0.26800
,,,-0.000012935000,0.26000
,,,-0.000012930000,0.25200
,,,-0.000012925000,0.25600
,,,-0.000012920000,0.25600
,,,-0.000012915000,0.25600
,,,-0.000012910000,0.25600
,,,-0.000012904999,0.25600
,,,-0.000012900000,0.25600
,,,-0.000012894999,0.26000
,,,-0.000012890000,0.25600
,,,-0.000012885000,0.25600
,,,-0.000012880000,0.25600
,,,-0.000012875000,0.25600
,,,-0.000012870000,0.26400
,,,-0.000012865000,0.26000
,,,-0.000012859999,0.26400
,,,-0.000012855000,0.26400
,,,-0.000012849999,0.26400
,,,-0.000012845000,0.26800
,,,-0.000012840000,0.26800
,,,-0.000012835000,0.26800
,,,-0.000012830000,0.26800
,,,-0.000012825000,0.27200
,,,-0.000012820000,0.26800
,,,-0.000012814999,0.26800
,,,-0.000012810000,0.27200
,,,-0.000012805000,0.26800
,,,-0.000012800000,0.26800
,,,-0.000012795000,0.26000
,,,-0.000012790000,0.26800
,,,-0.000012785000,0.26400
,,,-0.000012780000,0.25600
,,,-0.000012775000,0.26400
,,,-0.000012769999,0.26400
,,,-0.000012765000,0.25600
,,,-0.000012760000,0.25200
,,,-0.000012755000,0.25200
,,,-0.000012750000,0.25200
,,,-0.000012745000,0.24400
,,,-0.000012740000,0.24400
,,,-0.000012734999,0.24800
,,,-0.000012730000,0.24000
,,,-0.000012724999,0.24000
,,,-0.000012720000,0.24000
,,,-0.000012715000,0.23200
,,,-0.000012710000,0.23200
,,,-0.000012705000,0.23600
,,,-0.000012700000,0.23200
,,,-0.000012695000,0.23200
,,,-0.000012689999,0.22400
,,,-0.000012685000,0.22800
,,,-0.000012679999,0.22400
,,,-0.000012675000,0.22400
,,,-0.000012670000,0.22000
,,,-0.000012665000,0.22400
,,,-0.000012660000,0.22000
,,,-0.000012655000,0.22400
,,,-0.000012650000,0.22000
,,,-0.000012644999,0.22000
,,,-0.000012640000,0.22000
,,,-0.000012634999,0.22000
,,,-0.000012630000,0.22400
,,,-0.000012625000,0.22000
,,,-0.000012620000,0.22000
,,,-0.000012615000,0.22400
,,,-0.000012610000,0.21600
,,,-0.000012605000,0.22000
,,,-0.000012599999,0.22000
,,,-0.000012595000,0.21600
,,,-0.000012590000,0.22000
,,,-0.000012585000,0.21600
,,,-0.000012580000,0.21600
,,,-0.000012575000,0.22000
,,,-0.000012570000,0.21200
,,,-0.000012565000,0.20800
,,,-0.000012560000,0.20800
,,,-0.000012554999,0.20400
,,,-0.000012550000,0.20400
,,,-0.000012545000,0.20800
,,,-0.000012540000,0.20400
,,,-0.000012535000,0.20400
,,,-0.000012530000,0.19600
,,,-0.000012525000,0.19600
,,,-0.000012519999,0.19200
,,,-0.000012515000,0.19200
,,,-0.000012509999,0.19200
,,,-0.000012505000,0.19200
,,,-0.000012500000,0.19200
,,,-0.000012495000,0.19600
,,,-0.000012490000,0.18800
,,,-0.000012485000,0.18800
,,,-0.000012480000,0.18400
,,,-0.000012474999,0.18400
,,,-0.000012470000,0.18800
,,,-0.000012464999,0.18000
,,,-0.000012460000,0.18400
,,,-0.000012455000,0.18400
,,,-0.000012450000,0.18000
,,,-0.000012445000,0.18000
,,,-0.000012440000,0.18000
,,,-0.000012435000,0.17600
,,,-0.000012429999,0.18000
,,,-0.000012425000,0.17600
,,,-0.000012419999,0.17600
,,,-0.000012415000,0.17200
,,,-0.000012410000,0.17200
,,,-0.000012405000,0.17600
,,,-0.000012400000,0.17200
,,,-0.000012395000,0.16800
,,,-0.000012390000,0.17200
,,,-0.000012384999,0.16400
,,,-0.000012380000,0.16800
,,,-0.000012375000,0.16800
,,,-0.000012370000,0.16000
,,,-0.000012365000,0.16400
,,,-0.000012360000,0.16000
,,,-0.000012355000,0.15600
,,,-0.000012350000,0.15600
,,,-0.000012345000,0.16000
,,,-0.000012339999,0.14800
,,,-0.000012335000,0.14800
,,,-0.000012330000,0.15600
,,,-0.000012325000,0.14800
,,,-0.000012320000,0.14800
,,,-0.000012315000,0.14000
,,,-0.000012310000,0.14000
,,,-0.000012304999,0.14000
,,,-0.000012300000,0.14000
,,,-0.000012294999,0.14000
,,,-0.000012290000,0.13600
,,,-0.000012285000,0.14000
,,,-0.000012280000,0.13600
,,,-0.000012275000,0.12800
,,,-0.000012270000,0.13600
,,,-0.000012265000,0.13200
,,,-0.000012259999,0.13200
,,,-0.000012255000,0.12800
,,,-0.000012249999,0.13200
,,,-0.000012245000,0.12800
,,,-0.000012240000,0.12400
,,,-0.000012235000,0.12400
,,,-0.000012230000,0.12400
,,,-0.000012225000,0.12400
,,,-0.000012220000,0.12400
,,,-0.000012214999,0.12400
,,,-0.000012210000,0.12000
,,,-0.000012204999,0.12000
,,,-0.000012200000,0.11600
,,,-0.000012195000,0.11600
,,,-0.000012190000,0.11600
,,,-0.000012185000,0.11600
,,,-0.000012180000,0.11200
,,,-0.000012175000,0.10800
,,,-0.000012169999,0.10800
,,,-0.000012165000,0.10800
,,,-0.000012160000,0.10400
,,,-0.000012155000,0.10400
,,,-0.000012150000,0.10800
,,,-0.000012145000,0.10400
,,,-0.000012140000,0.10000
,,,-0.000012135000,0.10400
,,,-0.000012130000,0.10000
,,,-0.000012124999,0.09600
,,,-0.000012120000,0.09200
,,,-0.000012115000,0.09600
,,,-0.000012110000,0.09200
,,,-0.000012105000,0.09200
,,,-0.000012100000,0.08800
,,,-0.000012095000,0.09600
,,,-0.000012089999,0.08800
,,,-0.000012085000,0.09200
,,,-0.000012079999,0.08800
,,,-0.000012075000,0.08800
,,,-0.000012070000,0.08800
,,,-0.000012065000,0.08400
,,,-0.000012060000,0.08400
,,,-0.000012055000,0.08400
,,,-0.000012050000,0.08400
,,,-0.000012044999,0.08000
,,,-0.000012040000,0.08000
,,,-0.000012034999,0.07600
,,,-0.000012030000,0.07600
,,,-0.000012025000,0.08000
,,,-0.000012020000,0.07200
,,,-0.000012015000,0.07600
,,,-0.000012010000,0.07200
,,,-0.000012005000,0.06800
,,,-0.000011999999,0.07200
,,,-0.000011995000,0.06400
,,,-0.000011990000,0.06800
,,,-0.000011985000,0.06400
,,,-0.000011980000,0.06000
,,,-0.000011975000,0.06400
,,,-0.000011970000,0.06000
,,,-0.000011965000,0.06000
,,,-0.000011960000,0.06000
,,,-0.000011954999,0.06000
,,,-0.000011950000,0.06000
,,,-0.000011945000,0.06000
,,,-0.000011940000,0.05600
,,,-0.000011935000,0.05600
,,,-0.000011930000,0.05600
,,,-0.000011925000,0.05600
,,,-0.000011920000,0.05600
,,,-0.000011915000,0.05200
,,,-0.000011909999,0.05200
,,,-0.000011905000,0.05600
,,,-0.000011900000,0.04800
,,,-0.000011895000,0.05600
,,,-0.000011890000,0.05200
,,,-0.000011885000,0.04800
,,,-0.000011880000,0.05200
,,,-0.000011875000,0.04800
,,,-0.000011870000,0.04400
,,,-0.000011864999,0.04000
,,,-0.000011860000,0.04400
,,,-0.000011855000,0.04800
,,,-0.000011850000,0.04000
,,,-0.000011845000,0.04000
,,,-0.000011840000,0.04000
,,,-0.000011835000,0.03600
,,,-0.000011829999,0.04000
,,,-0.000011825000,0.03600
,,,-0.000011819999,0.03200
,,,-0.000011815000,0.03600
,,,-0.000011810000,0.03200
,,,-0.000011805000,0.03600
,,,-0.000011800000,0.03200
,,,-0.000011795000,0.03200
,,,-0.000011790000,0.03200
,,,-0.000011784999,0.02400
,,,-0.000011780000,0.02400
,,,-0.000011775000,0.02800
,,,-0.000011770000,0.02000
,,,-0.000011765000,0.02400
,,,-0.000011760000,0.02800
,,,-0.000011755000,0.01600
,,,-0.000011750000,0.02400
,,,-0.000011745000,0.01600
,,,-0.000011739999,0.02000
,,,-0.000011735000,0.01600
,,,-0.000011730000,0.01200
,,,-0.000011725000,0.01600
,,,-0.000011720000,0.01600
,,,-0.000011715000,0.01200
,,,-0.000011710000,0.01200
,,,-0.000011705000,0.00800
,,,-0.000011700000,0.01200
,,,-0.000011694999,0.01200
,,,-0.000011690000,0.00800
,,,-0.000011685000,0.00800
,,,-0.000011680000,0.00800
,,,-0.000011675000,0.00
,,,-0.000011670000,0.00800
,,,-0.000011665000,0.00
,,,-0.000011660000,-0.00400
,,,-0.000011655000,0.00400
,,,-0.000011649999,-0.00400
,,,-0.000011645000,0.00
,,,-0.000011640000,-0.00400
,,,-0.000011635000,-0.00800
,,,-0.000011630000,-0.00400
,,,-0.000011625000,-0.00800
,,,-0.000011620000,-0.00800
,,,-0.000011614999,-0.00800
,,,-0.000011610000,-0.01600
,,,-0.000011604999,-0.01600
,,,-0.000011600000,-0.01200
,,,-0.000011595000,-0.01600
,,,-0.000011590000,-0.01600
,,,-0.000011585000,-0.01600
,,,-0.000011580000,-0.01600
,,,-0.000011575000,-0.01600
,,,-0.000011569999,-0.01600
,,,-0.000011565000,-0.02000
,,,-0.000011560000,-0.02000
,,,-0.000011555000,-0.02400
,,,-0.000011550000,-0.02400
,,,-0.000011545000,-0.02800
,,,-0.000011540000,-0.02400
,,,-0.000011535000,-0.02800
,,,-0.000011530000,-0.03200
,,,-0.000011524999,-0.02800
,,,-0.000011520000,-0.03200
,,,-0.000011515000,-0.03200
,,,-0.000011510000,-0.03600
,,,-0.000011505000,-0.03600
,,,-0.000011500000,-0.03200
,,,-0.000011495000,-0.03600
,,,-0.000011490000,-0.04000
,,,-0.000011485000,-0.04000
,,,-0.000011479999,-0.04000
,,,-0.000011475000,-0.05200
,,,-0.000011470000,-0.04000
,,,-0.000011465000,-0.04800
,,,-0.000011460000,-0.04800
,,,-0.000011455000,-0.04800
,,,-0.000011450000,-0.05200
,,,-0.000011445000,-0.05600
,,,-0.000011440000,-0.05200
,,,-0.000011434999,-0.06000
,,,-0.000011430000,-0.05200
,,,-0.000011425000,-0.06000
,,,-0.000011420000,-0.06400
,,,-0.000011415000,-0.06000
,,,-0.000011410000,-0.06000
,,,-0.000011405000,-0.06400
,,,-0.000011399999,-0.06400
,,,-0.000011395000,-0.06800
,,,-0.000011389999,-0.06800
,,,-0.000011385000,-0.06400
,,,-0.000011380000,-0.06800
,,,-0.000011375000,-0.06800
,,,-0.000011370000,-0.07200
,,,-0.000011365000,-0.07200
,,,-0.000011360000,-0.07200
,,,-0.000011354999,-0.07600
,,,-0.000011350000,-0.07600
,,,-0.000011345000,-0.08000
,,,-0.000011340000,-0.07200
,,,-0.000011335000,-0.07600
,,,-0.000011330000,-0.08000
,,,-0.000011325000,-0.08400
,,,-0.000011320000,-0.08000
,,,-0.000011315000,-0.08800
,,,-0.000011309999,-0.08000
,,,-0.000011305000,-0.08400
,,,-0.000011300000,-0.08400
,,,-0.000011295000,-0.08400
,,,-0.000011290000,-0.09200
,,,-0.000011285000,-0.09200
,,,-0.000011280000,-0.08800
,,,-0.000011275000,-0.09600
,,,-0.000011270000,-0.09200
,,,-0.000011264999,-0.09600
,,,-0.000011260000,-0.09600
,,,-0.000011255000,-0.09600
,,,-0.000011250000,-0.10000
,,,-0.000011245000,-0.09600
,,,-0.000011240000,-0.10000
,,,-0.000011235000,-0.10400
,,,-0.000011230000,-0.10000
,,,-0.000011225000,-0.10000
,,,-0.000011219999,-0.10400
,,,-0.000011215000,-0.10800
,,,-0.000011210000,-0.10800
,,,-0.000011205000,-0.10800
,,,-0.000011200000,-0.10800
,,,-0.000011195000,-0.11200
,,,-0.000011190000,-0.10800
,,,-0.000011184999,-0.11600
,,,-0.000011180000,-0.11200
,,,-0.000011174999,-0.11600
,,,-0.000011170000,-0.11600
,,,-0.000011165000,-0.11600
,,,-0.000011160000,-0.11200
,,,-0.000011155000,-0.12400
,,,-0.000011150000,-0.11600
,,,-0.000011145000,-0.12000
,,,-0.000011139999,-0.12000
,,,-0.000011135000,-0.12000
,,,-0.000011130000,-0.12000
,,,-0.000011125000,-0.12800
,,,-0.000011120000,-0.12400
,,,-0.000011115000,-0.12800
,,,-0.000011110000,-0.12000
,,,-0.000011105000,-0.12800
,,,-0.000011100000,-0.13200
,,,-0.000011094999,-0.13200
,,,-0.000011090000,-0.13200
,,,-0.000011085000,-0.13600
,,,-0.000011080000,-0.13600
,,,-0.000011075000,-0.14000
,,,-0.000011070000,-0.13200
,,,-0.000011065000,-0.14000
,,,-0.000011060000,-0.13600
,,,-0.000011055000,-0.14000
,,,-0.000011049999,-0.14000
,,,-0.000011045000,-0.14400
,,,-0.000011040000,-0.14000
,,,-0.000011035000,-0.14800
,,,-0.000011030000,-0.14400
,,,-0.000011025000,-0.14400
,,,-0.000011020000,-0.14800
,,,-0.000011015000,-0.14800
,,,-0.000011010000,-0.14800
,,,-0.000011004999,-0.15200
,,,-0.000011000000,-0.15200
,,,-0.000010995000,-0.15200
,,,-0.000010990000,-0.15200
,,,-0.000010985000,-0.15200
,,,-0.000010980000,-0.15200
,,,-0.000010975000,-0.15600
,,,-0.000010969999,-0.15600
,,,-0.000010965000,-0.16000
,,,-0.000010959999,-0.15600
,,,-0.000010955000,-0.16400
,,,-0.000010950000,-0.16000
,,,-0.000010945000,-0.16000
,,,-0.000010940000,-0.16400
,,,-0.000010935000,-0.16000
,,,-0.000010930000,-0.16400
,,,-0.000010924999,-0.16400
,,,-0.000010920000,-0.16800
,,,-0.000010915000,-0.17200
,,,-0.000010910000,-0.16400
,,,-0.000010905000,-0.17600
,,,-0.000010900000,-0.17600
,,,-0.000010895000,-0.17200
,,,-0.000010890000,-0.17200
,,,-0.000010885000,-0.17600
,,,-0.000010879999,-0.17600
,,,-0.000010875000,-0.18000
,,,-0.000010870000,-0.18000
,,,-0.000010865000,-0.18400
,,,-0.000010860000,-0.18000
,,,-0.000010855000,-0.18000
,,,-0.000010850000,-0.18400
,,,-0.000010845000,-0.18800
,,,-0.000010840000,-0.18400
,,,-0.000010834999,-0.18800
,,,-0.000010830000,-0.18800
,,,-0.000010825000,-0.18800
,,,-0.000010820000,-0.18800
,,,-0.000010815000,-0.19200
,,,-0.000010810000,-0.19600
,,,-0.000010805000,-0.19200
,,,-0.000010800000,-0.19600
,,,-0.000010795000,-0.19600
,,,-0.000010789999,-0.19600
,,,-0.000010785000,-0.19600
,,,-0.000010780000,-0.20000
,,,-0.000010775000,-0.20400
,,,-0.000010770000,-0.20000
,,,-0.000010765000,-0.20400
,,,-0.000010760000,-0.20000
,,,-0.000010754999,-0.20800
,,,-0.000010750000,-0.20400
,,,-0.000010745000,-0.20800
,,,-0.000010740000,-0.20400
,,,-0.000010735000,-0.20800
,,,-0.000010730000,-0.20800
,,,-0.000010725000,-0.20800
,,,-0.000010720000,-0.21200
,,,-0.000010715000,-0.22000
,,,-0.000010709999,-0.20800
,,,-0.000010705000,-0.21600
,,,-0.000010700000,-0.21600
,,,-0.000010695000,-0.21600
,,,-0.000010690000,-0.21600
,,,-0.000010685000,-0.21600
,,,-0.000010680000,-0.22000
,,,-0.000010675000,-0.22400
,,,-0.000010670000,-0.22000
,,,-0.000010664999,-0.22400
,,,-0.000010660000,-0.22800
,,,-0.000010655000,-0.22400
,,,-0.000010650000,-0.22800
,,,-0.000010645000,-0.22800
,,,-0.000010640000,-0.22800
,,,-0.000010635000,-0.23600
,,,-0.000010630000,-0.22800
,,,-0.000010625000,-0.23600
,,,-0.000010619999,-0.23200
,,,-0.000010615000,-0.23600
,,,-0.000010610000,-0.23600
,,,-0.000010605000,-0.23600
,,,-0.000010600000,-0.24400
,,,-0.000010595000,-0.24000
,,,-0.000010590000,-0.23600
,,,-0.000010585000,-0.24400
,,,-0.000010580000,-0.24000
,,,-0.000010574999,-0.24400
,,,-0.000010570000,-0.24400
,,,-0.000010565000,-0.24400
,,,-0.000010560000,-0.24400
,,,-0.000010555000,-0.26000
,,,-0.000010550000,-0.24400
,,,-0.000010545000,-0.25600
,,,-0.000010539999,-0.25600
,,,-0.000010535000,-0.25600
,,,-0.000010530000,-0.26000
,,,-0.000010525000,-0.26000
,,,-0.000010520000,-0.25600
,,,-0.000010515000,-0.26400
,,,-0.000010510000,-0.26400
,,,-0.000010505000,-0.26000
,,,-0.000010500000,-0.26400
,,,-0.000010494999,-0.26400
,,,-0.000010490000,-0.26800
,,,-0.000010484999,-0.26000
,,,-0.000010480000,-0.27200
,,,-0.000010474999,-0.27200
,,,-0.000010470000,-0.26800
,,,-0.000010464999,-0.27600
,,,-0.000010460000,-0.27600
,,,-0.000010455000,-0.27200
,,,-0.000010449999,-0.27600
,,,-0.000010445000,-0.28000
,,,-0.000010439999,-0.27600
,,,-0.000010435000,-0.28000
,,,-0.000010429999,-0.27600
,,,-0.000010425000,-0.28000
,,,-0.000010419999,-0.28000
,,,-0.000010415000,-0.28000
,,,-0.000010410000,-0.28400
,,,-0.000010404999,-0.28400
,,,-0.000010400000,-0.28400
,,,-0.000010394999,-0.28800
,,,-0.000010390000,-0.28400
,,,-0.000010384999,-0.29200
,,,-0.000010380000,-0.28400
,,,-0.000010374999,-0.28800
,,,-0.000010370000,-0.29200
,,,-0.000010365000,-0.29200
,,,-0.000010359999,-0.29600
,,,-0.000010355000,-0.29600
,,,-0.000010349999,-0.29600
,,,-0.000010345000,-0.29600
,,,-0.000010339999,-0.29600
,,,-0.000010335000,-0.29200
,,,-0.000010329999,-0.29600
,,,-0.000010324999,-0.29600
,,,-0.000010320000,-0.29600
,,,-0.000010314999,-0.30000
,,,-0.000010310000,-0.30000
,,,-0.000010304999,-0.30000
,,,-0.000010300000,-0.30000
,,,-0.000010294999,-0.29600
,,,-0.000010290000,-0.30400
,,,-0.000010285000,-0.30400
,,,-0.000010279999,-0.30400
,,,-0.000010275000,-0.30400
,,,-0.000010269999,-0.30000
,,,-0.000010265000,-0.30400
,,,-0.000010259999,-0.30800
,,,-0.000010255000,-0.30000
,,,-0.000010249999,-0.30400
,,,-0.000010245000,-0.30800
,,,-0.000010240000,-0.30800
,,,-0.000010234999,-0.31200
,,,-0.000010230000,-0.30400
,,,-0.000010224999,-0.30400
,,,-0.000010220000,-0.30400
,,,-0.000010214999,-0.31200
,,,-0.000010210000,-0.30800
,,,-0.000010204999,-0.30800
,,,-0.000010200000,-0.30800
,,,-0.000010195000,-0.31200
,,,-0.000010189999,-0.31200
,,,-0.000010185000,-0.31200
,,,-0.000010179999,-0.31200
,,,-0.000010175000,-0.30800
,,,-0.000010169999,-0.31200
,,,-0.000010165000,-0.31200
,,,-0.000010159999,-0.31200
,,,-0.000010155000,-0.31200
,,,-0.000010150000,-0.31200
,,,-0.000010144999,-0.30800
,,,-0.000010140000,-0.30800
,,,-0.000010134999,-0.30800
,,,-0.000010130000,-0.30800
,,,-0.000010124999,-0.30800
,,,-0.000010120000,-0.30400
,,,-0.000010115000,-0.31200
,,,-0.000010109999,-0.30400
,,,-0.000010105000,-0.30800
,,,-0.000010099999,-0.30400
,,,-0.000010095000,-0.30400
,,,-0.000010089999,-0.30400
,,,-0.000010085000,-0.30400
,,,-0.000010079999,-0.30000
,,,-0.000010075000,-0.30400
,,,-0.000010070000,-0.30000
,,,-0.000010064999,-0.30000
,,,-0.000010060000,-0.30000
,,,-0.000010054999,-0.29600
,,,-0.000010050000,-0.30000
,,,-0.000010044999,-0.29600
,,,-0.000010040000,-0.29200
,,,-0.000010034999,-0.30000
,,,-0.000010030000,-0.29200
,,,-0.000010025000,-0.29600
,,,-0.000010019999,-0.29600
,,,-0.000010015000,-0.29200
,,,-0.000010009999,-0.29200
,,,-0.000010005000,-0.28800
,,,-0.000009999999,-0.28800
,,,-0.000009995000,-0.29200
,,,-0.000009989999,-0.28400
,,,-0.000009985000,-0.28400
,,,-0.000009980000,-0.28400
,,,-0.000009974999,-0.28400
,,,-0.000009970000,-0.28400
,,,-0.000009964999,-0.28400
,,,-0.000009960000,-0.28000
,,,-0.000009954999,-0.28400
,,,-0.000009950000,-0.27600
,,,-0.000009944999,-0.28000
,,,-0.000009940000,-0.27600
,,,-0.000009935000,-0.27600
,,,-0.000009929999,-0.27600
,,,-0.000009925000,-0.27600
,,,-0.000009919999,-0.27200
,,,-0.000009915000,-0.27600
,,,-0.000009909999,-0.27200
,,,-0.000009905000,-0.27200
,,,-0.000009900000,-0.27200
,,,-0.000009894999,-0.27200
,,,-0.000009890000,-0.27200
,,,-0.000009884999,-0.26800
,,,-0.000009880000,-0.26800
,,,-0.000009874999,-0.27200
,,,-0.000009870000,-0.26400
,,,-0.000009864999,-0.26400
,,,-0.000009860000,-0.26800
