capturas-osciloscopio/17-11-22/WA000043.CSV

Record Length,4096,,Source,CH1
Sample Interval,0.0000000020000,,Second,Volt
Vertical Units,CH1:V,,-0.000008195999,-8.00000
Vertical Scale,CH1:20.00,,-0.000008193999,-8.00000
Vertical Offset,CH1:-10.40000,,-0.000008191999,-9.60000
Horizontal Units,s,,-0.000008189999,-11.20000
Horizontal Scale,0.0000002500,,-0.000008187999,-12.80000
Model Number,WaveAce112,,-0.000008185999,-13.60000
Serial Number,LCRY2101C02399,,-0.000008183999,-16.00000
Software Version,2.07.02.16,,-0.000008182000,-16.00000
,,,-0.000008180000,-18.40000
,,,-0.000008178000,-19.20000
,,,-0.000008176000,-21.60000
,,,-0.000008174000,-24.00000
,,,-0.000008172000,-24.80000
,,,-0.000008170000,-26.40000
,,,-0.000008168000,-29.60000
,,,-0.000008166000,-33.60000
,,,-0.000008164000,-36.00000
,,,-0.000008162000,-36.80000
,,,-0.000008160000,-38.40000
,,,-0.000008158000,-40.80000
,,,-0.000008156000,-43.20000
,,,-0.000008154000,-44.80000
,,,-0.000008152000,-47.20000
,,,-0.000008150000,-50.40001
,,,-0.000008147999,-50.40001
,,,-0.000008145999,-52.80000
,,,-0.000008143999,-56.80000
,,,-0.000008141999,-60.00000
,,,-0.000008139999,-62.40000
,,,-0.000008137999,-64.00000
,,,-0.000008135999,-67.20001
,,,-0.000008133999,-68.00000
,,,-0.000008131999,-69.60000
,,,-0.000008129999,-70.40000
,,,-0.000008127999,-71.20001
,,,-0.000008125999,-74.40000
,,,-0.000008123999,-76.00000
,,,-0.000008121999,-77.60000
,,,-0.000008119999,-79.20001
,,,-0.000008117999,-80.80001
,,,-0.000008115999,-81.60000
,,,-0.000008113999,-83.20001
,,,-0.000008111999,-84.80002
,,,-0.000008109999,-85.60000
,,,-0.000008107999,-87.20002
,,,-0.000008105999,-87.20002
,,,-0.000008103999,-87.20002
,,,-0.000008101999,-88.00000
,,,-0.000008099999,-88.80002
,,,-0.000008097999,-89.60000
,,,-0.000008096000,-89.60000
,,,-0.000008094000,-89.60000
,,,-0.000008092000,-89.60000
,,,-0.000008090000,-89.60000
,,,-0.000008088000,-90.40000
,,,-0.000008086000,-91.20002
,,,-0.000008084000,-89.60000
,,,-0.000008082000,-89.60000
,,,-0.000008080000,-88.00000
,,,-0.000008078000,-85.60000
,,,-0.000008076000,-84.00000
,,,-0.000008074000,-83.20001
,,,-0.000008072000,-82.40000
,,,-0.000008070000,-81.60000
,,,-0.000008068000,-81.60000
,,,-0.000008066000,-79.20001
,,,-0.000008064000,-79.20001
,,,-0.000008061999,-77.60000
,,,-0.000008059999,-75.20001
,,,-0.000008057999,-71.20001
,,,-0.000008055999,-69.60000
,,,-0.000008053999,-68.80001
,,,-0.000008051999,-66.40000
,,,-0.000008049999,-64.00000
,,,-0.000008047999,-61.60000
,,,-0.000008045999,-60.00000
,,,-0.000008043999,-56.80000
,,,-0.000008041999,-52.80000
,,,-0.000008039999,-51.20000
,,,-0.000008037999,-49.60001
,,,-0.000008035999,-47.20000
,,,-0.000008033999,-44.00000
,,,-0.000008031999,-43.20000
,,,-0.000008029999,-39.20000
,,,-0.000008027999,-36.80000
,,,-0.000008025999,-36.00000
,,,-0.000008023999,-32.00000
,,,-0.000008021999,-28.80000
,,,-0.000008019999,-26.40000
,,,-0.000008017999,-23.20000
,,,-0.000008015999,-21.60000
,,,-0.000008013999,-18.40000
,,,-0.000008012000,-16.00000
,,,-0.000008010000,-14.40000
,,,-0.000008008000,-12.80000
,,,-0.000008006000,-10.40000
,,,-0.000008004000,-8.00000
,,,-0.000008002000,-4.80000
,,,-0.000008000000,-3.20000
,,,-0.000007998000,-1.60000
,,,-0.000007996000,0.00
,,,-0.000007994000,0.80000
,,,-0.000007992000,0.80000
,,,-0.000007990000,-0.80000
,,,-0.000007988000,0.00
,,,-0.000007986000,-0.80000
,,,-0.000007984000,-0.80000
,,,-0.000007982000,0.00
,,,-0.000007980000,0.00
,,,-0.000007978000,-0.80000
,,,-0.000007975999,0.00
,,,-0.000007973999,0.00
,,,-0.000007971999,0.00
,,,-0.000007969999,-0.80000
,,,-0.000007967999,0.00
,,,-0.000007965999,-1.60000
,,,-0.000007963999,-1.60000
,,,-0.000007961999,0.00
,,,-0.000007959999,0.00
,,,-0.000007957999,-0.80000
,,,-0.000007955999,-0.80000
,,,-0.000007953999,0.00
,,,-0.000007951999,-0.80000
,,,-0.000007949999,-0.80000
,,,-0.000007947999,-0.80000
,,,-0.000007945999,-0.80000
,,,-0.000007943999,-1.60000
,,,-0.000007941999,-0.80000
,,,-0.000007939999,0.00
,,,-0.000007937999,0.00
,,,-0.000007935999,-1.60000
,,,-0.000007933999,-1.60000
,,,-0.000007931999,-0.80000
,,,-0.000007929999,0.00
,,,-0.000007927999,-0.80000
,,,-0.000007926000,-1.60000
,,,-0.000007924000,-0.80000
,,,-0.000007922000,-0.80000
,,,-0.000007920000,-1.60000
,,,-0.000007918000,-1.60000
,,,-0.000007916000,-0.80000
,,,-0.000007914000,0.00
,,,-0.000007912000,-0.80000
,,,-0.000007910000,-1.60000
,,,-0.000007908000,-0.80000
,,,-0.000007906000,0.00
,,,-0.000007904000,-1.60000
,,,-0.000007902000,-0.80000
,,,-0.000007900000,0.00
,,,-0.000007898000,-1.60000
,,,-0.000007896000,-0.80000
,,,-0.000007894000,-0.80000
,,,-0.000007892000,-0.80000
,,,-0.000007889999,-0.80000
,,,-0.000007887999,-0.80000
,,,-0.000007885999,-1.60000
,,,-0.000007883999,-2.40000
,,,-0.000007881999,-0.80000
,,,-0.000007879999,-3.20000
,,,-0.000007877999,-4.80000
,,,-0.000007875999,-5.60000
,,,-0.000007873999,-4.80000
,,,-0.000007871999,-7.20000
,,,-0.000007869999,-8.80000
,,,-0.000007867999,-9.60000
,,,-0.000007865999,-9.60000
,,,-0.000007863999,-11.20000
,,,-0.000007861999,-12.80000
,,,-0.000007859999,-13.60000
,,,-0.000007857999,-13.60000
,,,-0.000007855999,-16.00000
,,,-0.000007853999,-18.40000
,,,-0.000007851999,-19.20000
,,,-0.000007849999,-20.00000
,,,-0.000007847999,-23.20000
,,,-0.000007845999,-24.00000
,,,-0.000007843999,-24.80000
,,,-0.000007841999,-26.40000
,,,-0.000007840000,-28.00000
,,,-0.000007838000,-28.80000
,,,-0.000007836000,-29.60000
,,,-0.000007834000,-30.40000
,,,-0.000007832000,-32.00000
,,,-0.000007830000,-35.20000
,,,-0.000007828000,-36.00000
,,,-0.000007826000,-37.60000
,,,-0.000007824000,-38.40000
,,,-0.000007822000,-40.00000
,,,-0.000007820000,-40.80000
,,,-0.000007818000,-42.40001
,,,-0.000007816000,-43.20000
,,,-0.000007814000,-44.00000
,,,-0.000007812000,-44.80000
,,,-0.000007810000,-45.60001
,,,-0.000007808000,-47.20000
,,,-0.000007806000,-47.20000
,,,-0.000007804000,-48.80000
,,,-0.000007801999,-48.80000
,,,-0.000007799999,-48.00000
,,,-0.000007797999,-48.80000
,,,-0.000007795999,-50.40001
,,,-0.000007793999,-50.40001
,,,-0.000007791999,-51.20000
,,,-0.000007789999,-51.20000
,,,-0.000007787999,-52.00000
,,,-0.000007785999,-51.20000
,,,-0.000007783999,-51.20000
,,,-0.000007781999,-52.00000
,,,-0.000007779999,-51.20000
,,,-0.000007777999,-49.60001
,,,-0.000007775999,-51.20000
,,,-0.000007773999,-52.00000
,,,-0.000007771999,-51.20000
,,,-0.000007769999,-49.60001
,,,-0.000007767999,-48.80000
,,,-0.000007765999,-49.60001
,,,-0.000007763999,-48.80000
,,,-0.000007761999,-47.20000
,,,-0.000007759999,-48.00000
,,,-0.000007757999,-46.40001
,,,-0.000007755999,-44.80000
,,,-0.000007754000,-43.20000
,,,-0.000007752000,-43.20000
,,,-0.000007750000,-42.40001
,,,-0.000007748000,-42.40001
,,,-0.000007746000,-40.00000
,,,-0.000007744000,-40.00000
,,,-0.000007742000,-38.40000
,,,-0.000007740000,-37.60000
,,,-0.000007738000,-36.00000
,,,-0.000007736000,-36.00000
,,,-0.000007734000,-33.60000
,,,-0.000007732000,-32.00000
,,,-0.000007730000,-29.60000
,,,-0.000007728000,-30.40000
,,,-0.000007726000,-28.80000
,,,-0.000007724000,-27.20000
,,,-0.000007722000,-24.80000
,,,-0.000007720000,-25.60000
,,,-0.000007718000,-24.00000
,,,-0.000007715999,-23.20000
,,,-0.000007713999,-20.80000
,,,-0.000007711999,-20.00000
,,,-0.000007709999,-19.20000
,,,-0.000007707999,-17.60000
,,,-0.000007705999,-17.60000
,,,-0.000007703999,-16.80000
,,,-0.000007701999,-16.00000
,,,-0.000007699999,-13.60000
,,,-0.000007697999,-12.80000
,,,-0.000007695999,-12.80000
,,,-0.000007693999,-12.00000
,,,-0.000007691999,-11.20000
,,,-0.000007689999,-11.20000
,,,-0.000007687999,-8.80000
,,,-0.000007685999,-9.60000
,,,-0.000007683999,-9.60000
,,,-0.000007681999,-7.20000
,,,-0.000007679999,-8.00000
,,,-0.000007677999,-8.00000
,,,-0.000007675999,-6.40000
,,,-0.000007673999,-4.80000
,,,-0.000007671999,-7.20000
,,,-0.000007669999,-5.60000
,,,-0.000007668000,-5.60000
,,,-0.000007666000,-4.80000
,,,-0.000007664000,-5.60000
,,,-0.000007662000,-5.60000
,,,-0.000007660000,-5.60000
,,,-0.000007658000,-4.80000
,,,-0.000007656000,-5.60000
,,,-0.000007654000,-7.20000
,,,-0.000007652000,-5.60000
,,,-0.000007650000,-5.60000
,,,-0.000007648000,-8.00000
,,,-0.000007646000,-7.20000
,,,-0.000007644000,-7.20000
,,,-0.000007642000,-8.00000
,,,-0.000007640000,-8.80000
,,,-0.000007638000,-10.40000
,,,-0.000007636000,-10.40000
,,,-0.000007634000,-9.60000
,,,-0.000007632000,-10.40000
,,,-0.000007629999,-11.20000
,,,-0.000007627999,-12.00000
,,,-0.000007625999,-12.00000
,,,-0.000007624000,-15.20000
,,,-0.000007622000,-16.00000
,,,-0.000007620000,-16.00000
,,,-0.000007618000,-16.00000
,,,-0.000007616000,-17.60000
,,,-0.000007614000,-20.00000
,,,-0.000007612000,-19.20000
,,,-0.000007610000,-19.20000
,,,-0.000007607999,-22.40000
,,,-0.000007605999,-23.20000
,,,-0.000007603999,-22.40000
,,,-0.000007601999,-23.20000
,,,-0.000007599999,-24.80000
,,,-0.000007597999,-26.40000
,,,-0.000007595999,-28.00000
,,,-0.000007593999,-26.40000
,,,-0.000007591999,-29.60000
,,,-0.000007589999,-32.00000
,,,-0.000007587999,-30.40000
,,,-0.000007585999,-30.40000
,,,-0.000007583999,-33.60000
,,,-0.000007582000,-34.40000
,,,-0.000007580000,-34.40000
,,,-0.000007578000,-36.00000
,,,-0.000007576000,-37.60000
,,,-0.000007574000,-38.40000
,,,-0.000007572000,-38.40000
,,,-0.000007570000,-39.20000
,,,-0.000007568000,-40.80000
,,,-0.000007565999,-40.80000
,,,-0.000007563999,-40.00000
,,,-0.000007561999,-40.80000
,,,-0.000007559999,-42.40001
,,,-0.000007557999,-43.20000
,,,-0.000007555999,-43.20000
,,,-0.000007553999,-42.40001
,,,-0.000007551999,-44.80000
,,,-0.000007549999,-44.00000
,,,-0.000007547999,-44.00000
,,,-0.000007545999,-44.80000
,,,-0.000007543999,-44.00000
,,,-0.000007541999,-44.00000
,,,-0.000007540000,-44.80000
,,,-0.000007538000,-44.00000
,,,-0.000007536000,-45.60001
,,,-0.000007534000,-45.60001
,,,-0.000007532000,-44.80000
,,,-0.000007530000,-44.80000
,,,-0.000007528000,-44.80000
,,,-0.000007526000,-46.40001
,,,-0.000007524000,-44.00000
,,,-0.000007521999,-43.20000
,,,-0.000007519999,-44.00000
,,,-0.000007517999,-42.40001
,,,-0.000007515999,-42.40001
,,,-0.000007513999,-40.80000
,,,-0.000007511999,-41.60000
,,,-0.000007509999,-40.00000
,,,-0.000007507999,-40.00000
,,,-0.000007505999,-40.00000
,,,-0.000007503999,-40.00000
,,,-0.000007501999,-39.20000
,,,-0.000007499999,-39.20000
,,,-0.000007497999,-37.60000
,,,-0.000007496000,-36.80000
,,,-0.000007494000,-35.20000
,,,-0.000007492000,-36.00000
,,,-0.000007490000,-36.00000
,,,-0.000007488000,-34.40000
,,,-0.000007486000,-32.80000
,,,-0.000007484000,-32.00000
,,,-0.000007482000,-28.80000
,,,-0.000007479999,-29.60000
,,,-0.000007477999,-28.80000
,,,-0.000007475999,-27.20000
,,,-0.000007473999,-27.20000
,,,-0.000007471999,-27.20000
,,,-0.000007469999,-26.40000
,,,-0.000007467999,-25.60000
,,,-0.000007465999,-23.20000
,,,-0.000007463999,-23.20000
,,,-0.000007461999,-22.40000
,,,-0.000007459999,-22.40000
,,,-0.000007457999,-20.80000
,,,-0.000007455999,-20.80000
,,,-0.000007454000,-20.00000
,,,-0.000007452000,-19.20000
,,,-0.000007450000,-18.40000
,,,-0.000007448000,-18.40000
,,,-0.000007446000,-17.60000
,,,-0.000007444000,-17.60000
,,,-0.000007442000,-15.20000
,,,-0.000007440000,-16.00000
,,,-0.000007438000,-15.20000
,,,-0.000007435999,-16.00000
,,,-0.000007433999,-14.40000
,,,-0.000007431999,-15.20000
,,,-0.000007429999,-15.20000
,,,-0.000007427999,-14.40000
,,,-0.000007425999,-13.60000
,,,-0.000007423999,-13.60000
,,,-0.000007421999,-13.60000
,,,-0.000007419999,-13.60000
,,,-0.000007417999,-12.00000
,,,-0.000007415999,-12.80000
,,,-0.000007413999,-13.60000
,,,-0.000007411999,-13.60000
,,,-0.000007410000,-12.80000
,,,-0.000007408000,-13.60000
,,,-0.000007406000,-14.40000
,,,-0.000007404000,-13.60000
,,,-0.000007402000,-12.80000
,,,-0.000007400000,-14.40000
,,,-0.000007398000,-15.20000
,,,-0.000007396000,-13.60000
,,,-0.000007393999,-13.60000
,,,-0.000007391999,-16.80000
,,,-0.000007389999,-15.20000
,,,-0.000007387999,-16.00000
,,,-0.000007385999,-16.00000
,,,-0.000007383999,-18.40000
,,,-0.000007381999,-17.60000
,,,-0.000007379999,-16.80000
,,,-0.000007377999,-17.60000
,,,-0.000007375999,-18.40000
,,,-0.000007373999,-18.40000
,,,-0.000007371999,-20.00000
,,,-0.000007369999,-19.20000
,,,-0.000007368000,-21.60000
,,,-0.000007366000,-23.20000
,,,-0.000007364000,-22.40000
,,,-0.000007362000,-22.40000
,,,-0.000007360000,-24.00000
,,,-0.000007358000,-24.00000
,,,-0.000007356000,-24.80000
,,,-0.000007354000,-24.80000
,,,-0.000007352000,-26.40000
,,,-0.000007349999,-26.40000
,,,-0.000007347999,-26.40000
,,,-0.000007345999,-27.20000
,,,-0.000007343999,-28.00000
,,,-0.000007341999,-28.80000
,,,-0.000007339999,-29.60000
,,,-0.000007337999,-29.60000
,,,-0.000007335999,-29.60000
,,,-0.000007333999,-32.00000
,,,-0.000007331999,-32.80000
,,,-0.000007329999,-32.80000
,,,-0.000007327999,-32.00000
,,,-0.000007325999,-33.60000
,,,-0.000007324000,-34.40000
,,,-0.000007322000,-32.80000
,,,-0.000007320000,-33.60000
,,,-0.000007318000,-34.40000
,,,-0.000007316000,-34.40000
,,,-0.000007314000,-34.40000
,,,-0.000007312000,-36.00000
,,,-0.000007310000,-36.00000
,,,-0.000007307999,-36.00000
,,,-0.000007305999,-36.00000
,,,-0.000007303999,-36.80000
,,,-0.000007301999,-36.80000
,,,-0.000007299999,-36.00000
,,,-0.000007297999,-35.20000
,,,-0.000007295999,-34.40000
,,,-0.000007293999,-35.20000
,,,-0.000007291999,-36.80000
,,,-0.000007289999,-36.80000
,,,-0.000007287999,-36.80000
,,,-0.000007285999,-36.00000
,,,-0.000007283999,-36.00000
,,,-0.000007282000,-34.40000
,,,-0.000007280000,-34.40000
,,,-0.000007278000,-34.40000
,,,-0.000007276000,-34.40000
,,,-0.000007274000,-34.40000
,,,-0.000007272000,-34.40000
,,,-0.000007270000,-34.40000
,,,-0.000007268000,-33.60000
,,,-0.000007266000,-32.00000
,,,-0.000007263999,-32.00000
,,,-0.000007261999,-32.00000
,,,-0.000007259999,-30.40000
,,,-0.000007257999,-28.80000
,,,-0.000007255999,-29.60000
,,,-0.000007253999,-29.60000
,,,-0.000007251999,-28.80000
,,,-0.000007249999,-26.40000
,,,-0.000007247999,-27.20000
,,,-0.000007245999,-27.20000
,,,-0.000007243999,-26.40000
,,,-0.000007241999,-26.40000
,,,-0.000007239999,-25.60000
,,,-0.000007238000,-24.80000
,,,-0.000007236000,-24.80000
,,,-0.000007234000,-22.40000
,,,-0.000007232000,-24.00000
,,,-0.000007230000,-22.40000
,,,-0.000007228000,-20.80000
,,,-0.000007226000,-20.80000
,,,-0.000007224000,-21.60000
,,,-0.000007222000,-20.00000
,,,-0.000007219999,-20.00000
,,,-0.000007217999,-18.40000
,,,-0.000007215999,-19.20000
,,,-0.000007213999,-19.20000
,,,-0.000007211999,-17.60000
,,,-0.000007209999,-16.80000
,,,-0.000007207999,-16.80000
,,,-0.000007205999,-17.60000
,,,-0.000007203999,-16.80000
,,,-0.000007201999,-15.20000
,,,-0.000007199999,-16.80000
,,,-0.000007197999,-16.00000
,,,-0.000007196000,-16.00000
,,,-0.000007194000,-14.40000
,,,-0.000007192000,-14.40000
,,,-0.000007190000,-15.20000
,,,-0.000007188000,-13.60000
,,,-0.000007186000,-13.60000
,,,-0.000007184000,-14.40000
,,,-0.000007182000,-14.40000
,,,-0.000007180000,-14.40000
,,,-0.000007177999,-13.60000
,,,-0.000007175999,-14.40000
,,,-0.000007173999,-14.40000
,,,-0.000007171999,-13.60000
,,,-0.000007169999,-13.60000
,,,-0.000007167999,-14.40000
,,,-0.000007165999,-14.40000
,,,-0.000007163999,-13.60000
,,,-0.000007161999,-13.60000
,,,-0.000007159999,-14.40000
,,,-0.000007157999,-15.20000
,,,-0.000007155999,-16.00000
,,,-0.000007153999,-15.20000
,,,-0.000007152000,-15.20000
,,,-0.000007150000,-16.00000
,,,-0.000007148000,-16.00000
,,,-0.000007146000,-16.00000
,,,-0.000007144000,-16.80000
,,,-0.000007142000,-17.60000
,,,-0.000007140000,-17.60000
,,,-0.000007138000,-16.80000
,,,-0.000007136000,-18.40000
,,,-0.000007133999,-18.40000
,,,-0.000007131999,-20.00000
,,,-0.000007129999,-18.40000
,,,-0.000007127999,-20.00000
,,,-0.000007125999,-20.80000
,,,-0.000007123999,-20.80000
,,,-0.000007121999,-20.00000
,,,-0.000007119999,-20.80000
,,,-0.000007117999,-20.80000
,,,-0.000007115999,-22.40000
,,,-0.000007113999,-22.40000
,,,-0.000007111999,-24.00000
,,,-0.000007110000,-24.00000
,,,-0.000007108000,-24.00000
,,,-0.000007106000,-24.00000
,,,-0.000007104000,-24.80000
,,,-0.000007102000,-25.60000
,,,-0.000007100000,-24.80000
,,,-0.000007098000,-26.40000
,,,-0.000007096000,-26.40000
,,,-0.000007094000,-28.00000
,,,-0.000007091999,-28.80000
,,,-0.000007089999,-27.20000
,,,-0.000007087999,-27.20000
,,,-0.000007085999,-28.80000
,,,-0.000007083999,-29.60000
,,,-0.000007081999,-28.80000
,,,-0.000007079999,-29.60000
,,,-0.000007077999,-30.40000
,,,-0.000007075999,-30.40000
,,,-0.000007073999,-28.80000
,,,-0.000007071999,-30.40000
,,,-0.000007069999,-32.00000
,,,-0.000007067999,-32.00000
,,,-0.000007066000,-32.80000
,,,-0.000007064000,-32.80000
,,,-0.000007062000,-30.40000
,,,-0.000007060000,-29.60000
,,,-0.000007058000,-30.40000
,,,-0.000007056000,-30.40000
,,,-0.000007054000,-32.00000
,,,-0.000007052000,-32.00000
,,,-0.000007050000,-32.00000
,,,-0.000007047999,-30.40000
,,,-0.000007045999,-30.40000
,,,-0.000007043999,-32.00000
,,,-0.000007041999,-32.00000
,,,-0.000007039999,-32.00000
,,,-0.000007037999,-32.00000
,,,-0.000007035999,-30.40000
,,,-0.000007033999,-29.60000
,,,-0.000007031999,-32.00000
,,,-0.000007029999,-30.40000
,,,-0.000007027999,-28.80000
,,,-0.000007025999,-28.80000
,,,-0.000007024000,-29.60000
,,,-0.000007022000,-29.60000
,,,-0.000007020000,-28.80000
,,,-0.000007018000,-27.20000
,,,-0.000007016000,-28.00000
,,,-0.000007014000,-28.00000
,,,-0.000007012000,-26.40000
,,,-0.000007010000,-25.60000
,,,-0.000007008000,-25.60000
,,,-0.000007005999,-26.40000
,,,-0.000007003999,-26.40000
,,,-0.000007001999,-24.00000
,,,-0.000006999999,-24.80000
,,,-0.000006997999,-25.60000
,,,-0.000006995999,-24.80000
,,,-0.000006993999,-24.00000
,,,-0.000006991999,-24.80000
,,,-0.000006989999,-23.20000
,,,-0.000006987999,-23.20000
,,,-0.000006985999,-21.60000
,,,-0.000006983999,-21.60000
,,,-0.000006982000,-21.60000
,,,-0.000006980000,-22.40000
,,,-0.000006978000,-22.40000
,,,-0.000006976000,-20.80000
,,,-0.000006974000,-21.60000
,,,-0.000006972000,-22.40000
,,,-0.000006970000,-20.00000
,,,-0.000006968000,-19.20000
,,,-0.000006966000,-20.80000
,,,-0.000006964000,-19.20000
,,,-0.000006961999,-17.60000
,,,-0.000006959999,-20.80000
,,,-0.000006957999,-20.00000
,,,-0.000006955999,-20.00000
,,,-0.000006953999,-18.40000
,,,-0.000006951999,-18.40000
,,,-0.000006949999,-18.40000
,,,-0.000006947999,-18.40000
,,,-0.000006945999,-19.20000
,,,-0.000006943999,-17.60000
,,,-0.000006941999,-18.40000
,,,-0.000006939999,-19.20000
,,,-0.000006938000,-16.80000
,,,-0.000006936000,-17.60000
,,,-0.000006934000,-20.00000
,,,-0.000006932000,-18.40000
,,,-0.000006930000,-17.60000
,,,-0.000006928000,-18.40000
,,,-0.000006926000,-20.00000
,,,-0.000006924000,-18.40000
,,,-0.000006922000,-18.40000
,,,-0.000006919999,-19.20000
,,,-0.000006917999,-20.00000
,,,-0.000006915999,-19.20000
,,,-0.000006913999,-18.40000
,,,-0.000006911999,-20.00000
,,,-0.000006909999,-20.00000
,,,-0.000006907999,-19.20000
,,,-0.000006905999,-19.20000
,,,-0.000006903999,-20.80000
,,,-0.000006901999,-21.60000
,,,-0.000006899999,-20.80000
,,,-0.000006897999,-21.60000
,,,-0.000006896000,-22.40000
,,,-0.000006894000,-21.60000
,,,-0.000006892000,-22.40000
,,,-0.000006890000,-22.40000
,,,-0.000006888000,-23.20000
,,,-0.000006886000,-24.00000
,,,-0.000006884000,-23.20000
,,,-0.000006882000,-23.20000
,,,-0.000006880000,-25.60000
,,,-0.000006878000,-25.60000
,,,-0.000006875999,-24.80000
,,,-0.000006873999,-24.80000
,,,-0.000006871999,-27.20000
,,,-0.000006869999,-26.40000
,,,-0.000006867999,-25.60000
,,,-0.000006865999,-27.20000
,,,-0.000006863999,-28.00000
,,,-0.000006861999,-28.00000
,,,-0.000006859999,-27.20000
,,,-0.000006857999,-27.20000
,,,-0.000006855999,-28.00000
,,,-0.000006853999,-28.80000
,,,-0.000006852000,-28.80000
,,,-0.000006850000,-28.00000
,,,-0.000006848000,-30.40000
,,,-0.000006846000,-30.40000
,,,-0.000006844000,-29.60000
,,,-0.000006842000,-32.00000
,,,-0.000006840000,-30.40000
,,,-0.000006838000,-32.00000
,,,-0.000006836000,-30.40000
,,,-0.000006834000,-30.40000
,,,-0.000006831999,-32.00000
,,,-0.000006829999,-32.80000
,,,-0.000006827999,-32.00000
,,,-0.000006825999,-30.40000
