capturas-osciloscopio/17-11-22/WA000062.CSV

Record Length,9216,,Source,CH1
Sample Interval,0.0000000040000,,Second,Volt
Vertical Units,CH1:V,,-0.00001843200,-2.40000
Vertical Scale,CH1:20.00,,-0.00001842800,-2.40000
Vertical Offset,CH1:-56.80000,,-0.00001842400,-2.40000
Horizontal Units,s,,-0.00001842000,-3.20000
Horizontal Scale,0.0000025000,,-0.00001841600,-3.20000
Model Number,WaveAce212,,-0.00001841200,-2.40000
Serial Number,LCRY2101C02669,,-0.00001840800,-2.40000
Software Version,2.06.02.19,,-0.00001840400,-2.40000
,,,-0.00001840000,-2.40000
,,,-0.00001839600,-2.40000
,,,-0.00001839200,-2.40000
,,,-0.00001838800,-3.20000
,,,-0.00001838400,-2.40000
,,,-0.00001838000,-2.40000
,,,-0.00001837600,-2.40000
,,,-0.00001837200,-3.20000
,,,-0.00001836800,-2.40000
,,,-0.00001836400,-2.40000
,,,-0.00001836000,-2.40000
,,,-0.00001835600,-2.40000
,,,-0.00001835200,-2.40000
,,,-0.00001834800,-2.40000
,,,-0.00001834400,-3.20000
,,,-0.00001834000,-3.20000
,,,-0.00001833600,-3.20000
,,,-0.00001833200,-3.20000
,,,-0.00001832800,-3.20000
,,,-0.00001832400,-2.40000
,,,-0.00001832000,-2.40000
,,,-0.00001831600,-2.40000
,,,-0.00001831200,-3.20000
,,,-0.00001830800,-3.20000
,,,-0.00001830400,-3.20000
,,,-0.00001830000,-2.40000
,,,-0.00001829600,-2.40000
,,,-0.00001829200,-3.20000
,,,-0.00001828800,-3.20000
,,,-0.00001828400,-2.40000
,,,-0.00001828000,-2.40000
,,,-0.00001827600,-2.40000
,,,-0.00001827200,-3.20000
,,,-0.00001826800,-2.40000
,,,-0.00001826400,-2.40000
,,,-0.00001826000,-2.40000
,,,-0.00001825600,-3.20000
,,,-0.00001825200,-2.40000
,,,-0.00001824800,-2.40000
,,,-0.00001824400,-2.40000
,,,-0.00001824000,-3.20000
,,,-0.00001823600,-3.20000
,,,-0.00001823200,-2.40000
,,,-0.00001822800,-3.20000
,,,-0.00001822400,-2.40000
,,,-0.00001822000,-3.20000
,,,-0.00001821600,-2.40000
,,,-0.00001821200,-2.40000
,,,-0.00001820800,-3.20000
,,,-0.00001820400,-2.40000
,,,-0.00001820000,-2.40000
,,,-0.00001819600,-3.20000
,,,-0.00001819200,-3.20000
,,,-0.00001818800,-3.20000
,,,-0.00001818400,-3.20000
,,,-0.00001818000,-3.20000
,,,-0.00001817600,-3.20000
,,,-0.00001817200,-3.20000
,,,-0.00001816800,-2.40000
,,,-0.00001816400,-3.20000
,,,-0.00001816000,-2.40000
,,,-0.00001815600,-3.20000
,,,-0.00001815200,-3.20000
,,,-0.00001814800,-3.20000
,,,-0.00001814400,-3.20000
,,,-0.00001814000,-3.20000
,,,-0.00001813600,-2.40000
,,,-0.00001813200,-3.20000
,,,-0.00001812800,-2.40000
,,,-0.00001812400,-2.40000
,,,-0.00001812000,-2.40000
,,,-0.00001811600,-2.40000
,,,-0.00001811200,-3.20000
,,,-0.00001810800,-2.40000
,,,-0.00001810400,-2.40000
,,,-0.00001810000,-3.20000
,,,-0.00001809600,-3.20000
,,,-0.00001809200,-2.40000
,,,-0.00001808800,-2.40000
,,,-0.00001808400,-2.40000
,,,-0.00001808000,-3.20000
,,,-0.00001807600,-2.40000
,,,-0.00001807200,-3.20000
,,,-0.00001806800,-2.40000
,,,-0.00001806400,-2.40000
,,,-0.00001806000,-2.40000
,,,-0.00001805600,-3.20000
,,,-0.00001805200,-2.40000
,,,-0.00001804800,-3.20000
,,,-0.00001804400,-3.20000
,,,-0.00001804000,-3.20000
,,,-0.00001803600,-2.40000
,,,-0.00001803200,-3.20000
,,,-0.00001802800,-2.40000
,,,-0.00001802400,-2.40000
,,,-0.00001802000,-2.40000
,,,-0.00001801600,-3.20000
,,,-0.00001801200,-2.40000
,,,-0.00001800800,-2.40000
,,,-0.00001800400,-3.20000
,,,-0.00001800000,-2.40000
,,,-0.00001799600,-2.40000
,,,-0.00001799200,-2.40000
,,,-0.00001798800,-3.20000
,,,-0.00001798400,-2.40000
,,,-0.00001798000,-2.40000
,,,-0.00001797600,-2.40000
,,,-0.00001797200,-2.40000
,,,-0.00001796800,-3.20000
,,,-0.00001796400,-3.20000
,,,-0.00001796000,-2.40000
,,,-0.00001795600,-2.40000
,,,-0.00001795200,-2.40000
,,,-0.00001794800,-3.20000
,,,-0.00001794400,-3.20000
,,,-0.00001794000,-3.20000
,,,-0.00001793600,-3.20000
,,,-0.00001793200,-3.20000
,,,-0.00001792800,-3.20000
,,,-0.00001792400,-2.40000
,,,-0.00001792000,-2.40000
,,,-0.00001791600,-2.40000
,,,-0.00001791200,-2.40000
,,,-0.00001790800,-3.20000
,,,-0.00001790400,-3.20000
,,,-0.00001790000,-3.20000
,,,-0.00001789600,-2.40000
,,,-0.00001789200,-3.20000
,,,-0.00001788800,-2.40000
,,,-0.00001788400,-2.40000
,,,-0.00001788000,-3.20000
,,,-0.00001787600,-2.40000
,,,-0.00001787200,-3.20000
,,,-0.00001786800,-3.20000
,,,-0.00001786400,-3.20000
,,,-0.00001786000,-3.20000
,,,-0.00001785600,-3.20000
,,,-0.00001785200,-3.20000
,,,-0.00001784800,-3.20000
,,,-0.00001784400,-2.40000
,,,-0.00001784000,-2.40000
,,,-0.00001783600,-3.20000
,,,-0.00001783200,-2.40000
,,,-0.00001782800,-2.40000
,,,-0.00001782400,-2.40000
,,,-0.00001782000,-2.40000
,,,-0.00001781600,-2.40000
,,,-0.00001781200,-2.40000
,,,-0.00001780800,-2.40000
,,,-0.00001780400,-3.20000
,,,-0.00001780000,-2.40000
,,,-0.00001779600,-2.40000
,,,-0.00001779200,-2.40000
,,,-0.00001778800,-2.40000
,,,-0.00001778400,-2.40000
,,,-0.00001778000,-2.40000
,,,-0.00001777600,-3.20000
,,,-0.00001777200,-2.40000
,,,-0.00001776800,-3.20000
,,,-0.00001776400,-3.20000
,,,-0.00001776000,-2.40000
,,,-0.00001775600,-2.40000
,,,-0.00001775200,-3.20000
,,,-0.00001774800,-2.40000
,,,-0.00001774400,-3.20000
,,,-0.00001774000,-3.20000
,,,-0.00001773600,-3.20000
,,,-0.00001773200,-2.40000
,,,-0.00001772800,-3.20000
,,,-0.00001772400,-3.20000
,,,-0.00001772000,-2.40000
,,,-0.00001771600,-3.20000
,,,-0.00001771200,-3.20000
,,,-0.00001770800,-2.40000
,,,-0.00001770400,-2.40000
,,,-0.00001770000,-2.40000
,,,-0.00001769600,-3.20000
,,,-0.00001769200,-2.40000
,,,-0.00001768800,-2.40000
,,,-0.00001768400,-3.20000
,,,-0.00001768000,-3.20000
,,,-0.00001767600,-3.20000
,,,-0.00001767200,-3.20000
,,,-0.00001766800,-2.40000
,,,-0.00001766400,-2.40000
,,,-0.00001766000,-3.20000
,,,-0.00001765600,-2.40000
,,,-0.00001765200,-2.40000
,,,-0.00001764800,-3.20000
,,,-0.00001764400,-3.20000
,,,-0.00001764000,-2.40000
,,,-0.00001763600,-2.40000
,,,-0.00001763200,-3.20000
,,,-0.00001762800,-3.20000
,,,-0.00001762400,-3.20000
,,,-0.00001762000,-3.20000
,,,-0.00001761600,-3.20000
,,,-0.00001761200,-3.20000
,,,-0.00001760800,-3.20000
,,,-0.00001760400,-3.20000
,,,-0.00001760000,-3.20000
,,,-0.00001759600,-2.40000
,,,-0.00001759200,-3.20000
,,,-0.00001758800,-3.20000
,,,-0.00001758400,-3.20000
,,,-0.00001758000,-2.40000
,,,-0.00001757600,-3.20000
,,,-0.00001757200,-2.40000
,,,-0.00001756800,-3.20000
,,,-0.00001756400,-2.40000
,,,-0.00001756000,-2.40000
,,,-0.00001755600,-2.40000
,,,-0.00001755200,-2.40000
,,,-0.00001754800,-2.40000
,,,-0.00001754400,-3.20000
,,,-0.00001754000,-3.20000
,,,-0.00001753600,-3.20000
,,,-0.00001753200,-3.20000
,,,-0.00001752800,-2.40000
,,,-0.00001752400,-3.20000
,,,-0.00001752000,-3.20000
,,,-0.00001751600,-2.40000
,,,-0.00001751200,-3.20000
,,,-0.00001750800,-2.40000
,,,-0.00001750400,-2.40000
,,,-0.00001750000,-3.20000
,,,-0.00001749600,-2.40000
,,,-0.00001749200,-3.20000
,,,-0.00001748800,-2.40000
,,,-0.00001748400,-2.40000
,,,-0.00001748000,-3.20000
,,,-0.00001747600,-2.40000
,,,-0.00001747200,-2.40000
,,,-0.00001746800,-3.20000
,,,-0.00001746400,-2.40000
,,,-0.00001746000,-2.40000
,,,-0.00001745600,-3.20000
,,,-0.00001745200,-2.40000
,,,-0.00001744800,-2.40000
,,,-0.00001744400,-3.20000
,,,-0.00001744000,-2.40000
,,,-0.00001743600,-2.40000
,,,-0.00001743200,-3.20000
,,,-0.00001742800,-2.40000
,,,-0.00001742400,-2.40000
,,,-0.00001742000,-2.40000
,,,-0.00001741600,-3.20000
,,,-0.00001741200,-3.20000
,,,-0.00001740800,-2.40000
,,,-0.00001740400,-3.20000
,,,-0.00001740000,-2.40000
,,,-0.00001739600,-2.40000
,,,-0.00001739200,-2.40000
,,,-0.00001738800,-3.20000
,,,-0.00001738400,-2.40000
,,,-0.00001738000,-3.20000
,,,-0.00001737600,-3.20000
,,,-0.00001737200,-2.40000
,,,-0.00001736800,-3.20000
,,,-0.00001736400,-3.20000
,,,-0.00001736000,-3.20000
,,,-0.00001735600,-3.20000
,,,-0.00001735200,-3.20000
,,,-0.00001734800,-3.20000
,,,-0.00001734400,-3.20000
,,,-0.00001734000,-3.20000
,,,-0.00001733600,-2.40000
,,,-0.00001733200,-2.40000
,,,-0.00001732800,-3.20000
,,,-0.00001732400,-3.20000
,,,-0.00001732000,-2.40000
,,,-0.00001731600,-2.40000
,,,-0.00001731200,-3.20000
,,,-0.00001730800,-2.40000
,,,-0.00001730400,-3.20000
,,,-0.00001730000,-2.40000
,,,-0.00001729600,-3.20000
,,,-0.00001729200,-2.40000
,,,-0.00001728800,-3.20000
,,,-0.00001728400,-2.40000
,,,-0.00001728000,-2.40000
,,,-0.00001727600,-2.40000
,,,-0.00001727200,-2.40000
,,,-0.00001726800,-2.40000
,,,-0.00001726400,-2.40000
,,,-0.00001726000,-2.40000
,,,-0.00001725600,-2.40000
,,,-0.00001725200,-3.20000
,,,-0.00001724800,-2.40000
,,,-0.00001724400,-3.20000
,,,-0.00001724000,-3.20000
,,,-0.00001723600,-2.40000
,,,-0.00001723200,-3.20000
,,,-0.00001722800,-3.20000
,,,-0.00001722400,-2.40000
,,,-0.00001722000,-3.20000
,,,-0.00001721600,-3.20000
,,,-0.00001721200,-2.40000
,,,-0.00001720800,-3.20000
,,,-0.00001720400,-2.40000
,,,-0.00001720000,-2.40000
,,,-0.00001719600,-3.20000
,,,-0.00001719200,-2.40000
,,,-0.00001718800,-2.40000
,,,-0.00001718400,-2.40000
,,,-0.00001718000,-3.20000
,,,-0.00001717600,-2.40000
,,,-0.00001717200,-2.40000
,,,-0.00001716800,-3.20000
,,,-0.00001716400,-3.20000
,,,-0.00001716000,-2.40000
,,,-0.00001715600,-2.40000
,,,-0.00001715200,-2.40000
,,,-0.00001714800,-3.20000
,,,-0.00001714400,-3.20000
,,,-0.00001714000,-3.20000
,,,-0.00001713600,-3.20000
,,,-0.00001713200,-2.40000
,,,-0.00001712800,-2.40000
,,,-0.00001712400,-2.40000
,,,-0.00001712000,-3.20000
,,,-0.00001711600,-3.20000
,,,-0.00001711200,-2.40000
,,,-0.00001710800,-2.40000
,,,-0.00001710400,-2.40000
,,,-0.00001710000,-3.20000
,,,-0.00001709600,-2.40000
,,,-0.00001709200,-2.40000
,,,-0.00001708800,-2.40000
,,,-0.00001708400,-3.20000
,,,-0.00001708000,-2.40000
,,,-0.00001707600,-2.40000
,,,-0.00001707200,-2.40000
,,,-0.00001706800,-2.40000
,,,-0.00001706400,-2.40000
,,,-0.00001706000,-2.40000
,,,-0.00001705600,-2.40000
,,,-0.00001705200,-3.20000
,,,-0.00001704800,-2.40000
,,,-0.00001704400,-3.20000
,,,-0.00001704000,-3.20000
,,,-0.00001703600,-3.20000
,,,-0.00001703200,-3.20000
,,,-0.00001702800,-3.20000
,,,-0.00001702400,-3.20000
,,,-0.00001702000,-3.20000
,,,-0.00001701600,-2.40000
,,,-0.00001701200,-3.20000
,,,-0.00001700800,-3.20000
,,,-0.00001700400,-2.40000
,,,-0.00001700000,-2.40000
,,,-0.00001699600,-3.20000
,,,-0.00001699200,-2.40000
,,,-0.00001698800,-3.20000
,,,-0.00001698400,-2.40000
,,,-0.00001698000,-2.40000
,,,-0.00001697600,-2.40000
,,,-0.00001697200,-3.20000
,,,-0.00001696800,-2.40000
,,,-0.00001696400,-2.40000
,,,-0.00001696000,-2.40000
,,,-0.00001695600,-3.20000
,,,-0.00001695200,-2.40000
,,,-0.00001694800,-2.40000
,,,-0.00001694400,-3.20000
,,,-0.00001694000,-2.40000
,,,-0.00001693600,-2.40000
,,,-0.00001693200,-2.40000
,,,-0.00001692800,-3.20000
,,,-0.00001692400,-2.40000
,,,-0.00001692000,-2.40000
,,,-0.00001691600,-3.20000
,,,-0.00001691200,-2.40000
,,,-0.00001690800,-2.40000
,,,-0.00001690400,-3.20000
,,,-0.00001690000,-2.40000
,,,-0.00001689600,-2.40000
,,,-0.00001689200,-2.40000
,,,-0.00001688800,-2.40000
,,,-0.00001688400,-2.40000
,,,-0.00001688000,-2.40000
,,,-0.00001687600,-2.40000
,,,-0.00001687200,-2.40000
,,,-0.00001686800,-2.40000
,,,-0.00001686400,-2.40000
,,,-0.00001686000,-2.40000
,,,-0.00001685600,-2.40000
,,,-0.00001685200,-2.40000
,,,-0.00001684800,-2.40000
,,,-0.00001684400,-2.40000
,,,-0.00001684000,-2.40000
,,,-0.00001683600,-3.20000
,,,-0.00001683200,-3.20000
,,,-0.00001682800,-2.40000
,,,-0.00001682400,-3.20000
,,,-0.00001682000,-3.20000
,,,-0.00001681600,-3.20000
,,,-0.00001681200,-3.20000
,,,-0.00001680800,-2.40000
,,,-0.00001680400,-2.40000
,,,-0.00001680000,-3.20000
,,,-0.00001679600,-3.20000
,,,-0.00001679200,-2.40000
,,,-0.00001678800,-2.40000
,,,-0.00001678400,-2.40000
,,,-0.00001678000,-2.40000
,,,-0.00001677600,-2.40000
,,,-0.00001677200,-2.40000
,,,-0.00001676800,-2.40000
,,,-0.00001676400,-3.20000
,,,-0.00001676000,-3.20000
,,,-0.00001675600,-2.40000
,,,-0.00001675200,-2.40000
,,,-0.00001674800,-2.40000
,,,-0.00001674400,-2.40000
,,,-0.00001674000,-2.40000
,,,-0.00001673600,-3.20000
,,,-0.00001673200,-2.40000
,,,-0.00001672800,-2.40000
,,,-0.00001672400,-2.40000
,,,-0.00001672000,-2.40000
,,,-0.00001671600,-2.40000
,,,-0.00001671200,-2.40000
,,,-0.00001670800,-2.40000
,,,-0.00001670400,-2.40000
,,,-0.00001670000,-2.40000
,,,-0.00001669600,-2.40000
,,,-0.00001669200,-2.40000
,,,-0.00001668800,-2.40000
,,,-0.00001668400,-2.40000
,,,-0.00001668000,-2.40000
,,,-0.00001667600,-3.20000
,,,-0.00001667200,-2.40000
,,,-0.00001666800,-2.40000
,,,-0.00001666400,-2.40000
,,,-0.00001666000,-2.40000
,,,-0.00001665600,-3.20000
,,,-0.00001665200,-2.40000
,,,-0.00001664800,-3.20000
,,,-0.00001664400,-2.40000
,,,-0.00001664000,-3.20000
,,,-0.00001663600,-2.40000
,,,-0.00001663200,-3.20000
,,,-0.00001662800,-2.40000
,,,-0.00001662400,-2.40000
,,,-0.00001662000,-2.40000
,,,-0.00001661600,-2.40000
,,,-0.00001661200,-2.40000
,,,-0.00001660800,-2.40000
,,,-0.00001660400,-2.40000
,,,-0.00001660000,-2.40000
,,,-0.00001659600,-2.40000
,,,-0.00001659200,-2.40000
,,,-0.00001658800,-2.40000
,,,-0.00001658400,-2.40000
,,,-0.00001658000,-2.40000
,,,-0.00001657600,-2.40000
,,,-0.00001657200,-2.40000
,,,-0.00001656800,-2.40000
,,,-0.00001656400,-2.40000
,,,-0.00001656000,-2.40000
,,,-0.00001655600,-2.40000
,,,-0.00001655200,-2.40000
,,,-0.00001654800,-2.40000
,,,-0.00001654400,-2.40000
,,,-0.00001654000,-2.40000
,,,-0.00001653600,-2.40000
,,,-0.00001653200,-2.40000
,,,-0.00001652800,-2.40000
,,,-0.00001652400,-2.40000
,,,-0.00001652000,-2.40000
,,,-0.00001651600,-2.40000
,,,-0.00001651200,-2.40000
,,,-0.00001650800,-2.40000
,,,-0.00001650400,-2.40000
,,,-0.00001650000,-2.40000
,,,-0.00001649600,-2.40000
,,,-0.00001649200,-2.40000
,,,-0.00001648800,-2.40000
,,,-0.00001648400,-2.40000
,,,-0.00001648000,-2.40000
,,,-0.00001647600,-2.40000
,,,-0.00001647200,-2.40000
,,,-0.00001646800,-2.40000
,,,-0.00001646400,-2.40000
,,,-0.00001646000,-2.40000
,,,-0.00001645600,-2.40000
,,,-0.00001645200,-2.40000
,,,-0.00001644800,-2.40000
,,,-0.00001644400,-2.40000
,,,-0.00001644000,-2.40000
,,,-0.00001643600,-2.40000
,,,-0.00001643200,-2.40000
,,,-0.00001642800,-2.40000
,,,-0.00001642400,-2.40000
,,,-0.00001642000,-2.40000
,,,-0.00001641600,-2.40000
,,,-0.00001641200,-2.40000
,,,-0.00001640800,-2.40000
,,,-0.00001640400,-2.40000
,,,-0.00001640000,-2.40000
,,,-0.00001639600,-2.40000
,,,-0.00001639200,-2.40000
,,,-0.00001638800,-1.60000
,,,-0.00001638400,-2.40000
,,,-0.00001638000,-2.40000
,,,-0.00001637600,-1.60000
,,,-0.00001637200,-2.40000
,,,-0.00001636800,-2.40000
,,,-0.00001636400,-2.40000
,,,-0.00001636000,-2.40000
,,,-0.00001635600,-2.40000
,,,-0.00001635200,-2.40000
,,,-0.00001634800,-2.40000
,,,-0.00001634400,-2.40000
,,,-0.00001634000,-2.40000
,,,-0.00001633600,-2.40000
,,,-0.00001633200,-2.40000
,,,-0.00001632800,-1.60000
,,,-0.00001632400,-2.40000
,,,-0.00001632000,-2.40000
,,,-0.00001631600,-2.40000
,,,-0.00001631200,-1.60000
,,,-0.00001630800,-2.40000
,,,-0.00001630400,-2.40000
,,,-0.00001630000,-2.40000
,,,-0.00001629600,-2.40000
,,,-0.00001629200,-1.60000
,,,-0.00001628800,-2.40000
,,,-0.00001628400,-1.60000
,,,-0.00001628000,-2.40000
,,,-0.00001627600,-2.40000
,,,-0.00001627200,-1.60000
,,,-0.00001626800,-1.60000
,,,-0.00001626400,-2.40000
,,,-0.00001626000,-1.60000
,,,-0.00001625600,-2.40000
,,,-0.00001625200,-1.60000
,,,-0.00001624800,-1.60000
,,,-0.00001624400,-1.60000
,,,-0.00001624000,-1.60000
,,,-0.00001623600,-1.60000
,,,-0.00001623200,-1.60000
,,,-0.00001622800,-1.60000
,,,-0.00001622400,-0.80000
,,,-0.00001622000,-0.80000
,,,-0.00001621600,0.00
,,,-0.00001621200,0.00
,,,-0.00001620800,0.80000
,,,-0.00001620400,0.80000
,,,-0.00001620000,1.60000
,,,-0.00001619600,2.40000
,,,-0.00001619200,3.20000
,,,-0.00001618800,4.00000
,,,-0.00001618400,4.80000
,,,-0.00001618000,5.60000
,,,-0.00001617600,5.60000
,,,-0.00001617200,7.20000
,,,-0.00001616800,8.00000
,,,-0.00001616400,8.80000
,,,-0.00001616000,9.60000
,,,-0.00001615600,11.20000
,,,-0.00001615200,12.80000
,,,-0.00001614800,12.80000
,,,-0.00001614400,14.40000
,,,-0.00001614000,15.20000
,,,-0.00001613600,16.00000
,,,-0.00001613200,17.60000
,,,-0.00001612800,18.40000
,,,-0.00001612400,20.00000
,,,-0.00001612000,21.60000
,,,-0.00001611600,22.40000
,,,-0.00001611200,24.00000
,,,-0.00001610800,25.60000
,,,-0.00001610400,27.20000
,,,-0.00001610000,28.80000
,,,-0.00001609600,29.60000
,,,-0.00001609200,32.00000
,,,-0.00001608800,33.60000
,,,-0.00001608400,35.20000
,,,-0.00001608000,36.80000
,,,-0.00001607600,38.40000
,,,-0.00001607200,40.00000
,,,-0.00001606800,41.60000
,,,-0.00001606400,43.20000
,,,-0.00001606000,44.80000
,,,-0.00001605600,46.40001
,,,-0.00001605200,48.00000
,,,-0.00001604800,49.60001
,,,-0.00001604400,51.20000
,,,-0.00001604000,52.80000
,,,-0.00001603600,55.20000
,,,-0.00001603200,56.00000
,,,-0.00001602800,57.60000
,,,-0.00001602400,59.20000
,,,-0.00001602000,60.80000
,,,-0.00001601600,62.40000
,,,-0.00001601200,64.00000
,,,-0.00001600800,66.40000
,,,-0.00001600400,68.00000
,,,-0.00001600000,69.60000
,,,-0.00001599600,71.20001
,,,-0.00001599200,72.80001
,,,-0.00001598800,74.40000
,,,-0.00001598400,76.00000
,,,-0.00001598000,78.40000
,,,-0.00001597600,80.00000
,,,-0.00001597200,80.80001
,,,-0.00001596800,82.40000
,,,-0.00001596400,84.80002
,,,-0.00001596000,86.40000
,,,-0.00001595600,87.20002
,,,-0.00001595200,89.60000
,,,-0.00001594800,90.40000
,,,-0.00001594400,92.80002
,,,-0.00001594000,93.60000
,,,-0.00001593600,94.40000
,,,-0.00001593200,96.00000
,,,-0.00001592800,96.80002
,,,-0.00001592400,98.40000
,,,-0.00001592000,99.20002
,,,-0.00001591600,100.80002
,,,-0.00001591200,102.40000
,,,-0.00001590800,103.20000
,,,-0.00001590400,104.80000
,,,-0.00001590000,105.60000
,,,-0.00001589600,107.20000
,,,-0.00001589200,108.00000
,,,-0.00001588800,108.80000
,,,-0.00001588400,109.60000
,,,-0.00001588000,112.00000
,,,-0.00001587600,112.00000
,,,-0.00001587200,113.60000
,,,-0.00001586800,114.40000
,,,-0.00001586400,115.20000
,,,-0.00001586000,116.00000
,,,-0.00001585600,116.00000
,,,-0.00001585200,117.60000
,,,-0.00001584800,118.40000
,,,-0.00001584400,118.40000
,,,-0.00001584000,120.00000
,,,-0.00001583600,120.00000
,,,-0.00001583200,120.00000
,,,-0.00001582800,120.80000
,,,-0.00001582400,121.60000
,,,-0.00001582000,121.60000
,,,-0.00001581600,122.40000
,,,-0.00001581200,122.40000
,,,-0.00001580800,121.60000
,,,-0.00001580400,123.20000
,,,-0.00001580000,122.40000
,,,-0.00001579600,123.20000
,,,-0.00001579200,122.40000
,,,-0.00001578800,122.40000
,,,-0.00001578400,122.40000
,,,-0.00001578000,122.40000
,,,-0.00001577600,122.40000
,,,-0.00001577200,121.60000
,,,-0.00001576800,122.40000
,,,-0.00001576400,121.60000
,,,-0.00001576000,121.60000
,,,-0.00001575600,120.80000
,,,-0.00001575200,120.80000
,,,-0.00001574800,120.00000
,,,-0.00001574400,119.20000
,,,-0.00001574000,119.20000
,,,-0.00001573600,118.40000
,,,-0.00001573200,117.60000
,,,-0.00001572800,116.80000
,,,-0.00001572400,116.00000
,,,-0.00001572000,115.20000
,,,-0.00001571600,115.20000
,,,-0.00001571200,113.60000
,,,-0.00001570800,112.80000
,,,-0.00001570400,112.00000
,,,-0.00001570000,110.40000
,,,-0.00001569600,109.60000
,,,-0.00001569200,108.80000
,,,-0.00001568800,108.00000
,,,-0.00001568400,106.40000
,,,-0.00001568000,104.80000
,,,-0.00001567600,104.00000
,,,-0.00001567200,102.40000
,,,-0.00001566800,100.80002
,,,-0.00001566400,100.00000
,,,-0.00001566000,98.40000
,,,-0.00001565600,96.80002
,,,-0.00001565200,95.20002
,,,-0.00001564800,95.20002
,,,-0.00001564400,93.60000
,,,-0.00001564000,92.00000
,,,-0.00001563600,90.40000
,,,-0.00001563200,88.80002
,,,-0.00001562800,86.40000
,,,-0.00001562400,85.60000
,,,-0.00001562000,84.00000
,,,-0.00001561600,82.40000
,,,-0.00001561200,80.80001
,,,-0.00001560800,78.40000
,,,-0.00001560400,77.60000
,,,-0.00001560000,75.20001
,,,-0.00001559600,73.60000
,,,-0.00001559200,71.20001
,,,-0.00001558800,70.40000
,,,-0.00001558400,67.20001
,,,-0.00001558000,65.60000
,,,-0.00001557600,64.00000
,,,-0.00001557200,62.40000
,,,-0.00001556800,60.00000
,,,-0.00001556400,58.40000
,,,-0.00001556000,56.00000
,,,-0.00001555600,54.40000
,,,-0.00001555200,52.80000
,,,-0.00001554800,50.40001
,,,-0.00001554400,48.80000
,,,-0.00001554000,47.20000
,,,-0.00001553600,44.80000
,,,-0.00001553200,43.20000
,,,-0.00001552800,41.60000
,,,-0.00001552400,40.00000
,,,-0.00001552000,37.60000
