capturas-osciloscopio/17-11-22/WA000042.CSV

Record Length,4096,,Source,CH1
Sample Interval,0.0000000020000,,Second,Volt
Vertical Units,CH1:V,,-0.000007396000,-12.80000
Vertical Scale,CH1:20.00,,-0.000007393999,-13.60000
Vertical Offset,CH1:-10.40000,,-0.000007391999,-14.40000
Horizontal Units,s,,-0.000007389999,-15.20000
Horizontal Scale,0.0000002500,,-0.000007387999,-16.00000
Model Number,WaveAce112,,-0.000007385999,-14.40000
Serial Number,LCRY2101C02399,,-0.000007383999,-15.20000
Software Version,2.07.02.16,,-0.000007381999,-15.20000
,,,-0.000007379999,-16.80000
,,,-0.000007377999,-16.80000
,,,-0.000007375999,-17.60000
,,,-0.000007373999,-18.40000
,,,-0.000007371999,-17.60000
,,,-0.000007369999,-17.60000
,,,-0.000007368000,-20.00000
,,,-0.000007366000,-20.00000
,,,-0.000007364000,-19.20000
,,,-0.000007362000,-20.00000
,,,-0.000007360000,-21.60000
,,,-0.000007358000,-23.20000
,,,-0.000007356000,-23.20000
,,,-0.000007354000,-23.20000
,,,-0.000007352000,-24.00000
,,,-0.000007349999,-24.80000
,,,-0.000007347999,-24.80000
,,,-0.000007345999,-24.80000
,,,-0.000007343999,-25.60000
,,,-0.000007341999,-26.40000
,,,-0.000007339999,-27.20000
,,,-0.000007337999,-26.40000
,,,-0.000007335999,-27.20000
,,,-0.000007333999,-29.60000
,,,-0.000007331999,-30.40000
,,,-0.000007329999,-30.40000
,,,-0.000007327999,-32.00000
,,,-0.000007325999,-32.00000
,,,-0.000007324000,-32.00000
,,,-0.000007322000,-32.80000
,,,-0.000007320000,-32.80000
,,,-0.000007318000,-33.60000
,,,-0.000007316000,-34.40000
,,,-0.000007314000,-34.40000
,,,-0.000007312000,-33.60000
,,,-0.000007310000,-34.40000
,,,-0.000007307999,-36.00000
,,,-0.000007305999,-36.80000
,,,-0.000007303999,-34.40000
,,,-0.000007301999,-35.20000
,,,-0.000007299999,-36.80000
,,,-0.000007297999,-35.20000
,,,-0.000007295999,-36.80000
,,,-0.000007293999,-37.60000
,,,-0.000007291999,-36.80000
,,,-0.000007289999,-36.00000
,,,-0.000007287999,-36.80000
,,,-0.000007285999,-36.80000
,,,-0.000007283999,-36.00000
,,,-0.000007282000,-36.00000
,,,-0.000007280000,-35.20000
,,,-0.000007278000,-36.00000
,,,-0.000007276000,-36.00000
,,,-0.000007274000,-34.40000
,,,-0.000007272000,-35.20000
,,,-0.000007270000,-35.20000
,,,-0.000007268000,-34.40000
,,,-0.000007266000,-33.60000
,,,-0.000007263999,-33.60000
,,,-0.000007261999,-34.40000
,,,-0.000007259999,-33.60000
,,,-0.000007257999,-30.40000
,,,-0.000007255999,-30.40000
,,,-0.000007253999,-32.00000
,,,-0.000007251999,-30.40000
,,,-0.000007249999,-29.60000
,,,-0.000007247999,-29.60000
,,,-0.000007245999,-28.80000
,,,-0.000007243999,-28.00000
,,,-0.000007241999,-26.40000
,,,-0.000007239999,-27.20000
,,,-0.000007238000,-26.40000
,,,-0.000007236000,-25.60000
,,,-0.000007234000,-24.80000
,,,-0.000007232000,-25.60000
,,,-0.000007230000,-24.80000
,,,-0.000007228000,-24.00000
,,,-0.000007226000,-23.20000
,,,-0.000007224000,-23.20000
,,,-0.000007222000,-22.40000
,,,-0.000007219999,-21.60000
,,,-0.000007217999,-20.80000
,,,-0.000007215999,-20.80000
,,,-0.000007213999,-20.80000
,,,-0.000007211999,-20.00000
,,,-0.000007209999,-17.60000
,,,-0.000007207999,-18.40000
,,,-0.000007205999,-18.40000
,,,-0.000007203999,-17.60000
,,,-0.000007201999,-17.60000
,,,-0.000007199999,-17.60000
,,,-0.000007197999,-17.60000
,,,-0.000007196000,-16.80000
,,,-0.000007194000,-15.20000
,,,-0.000007192000,-16.00000
,,,-0.000007190000,-16.00000
,,,-0.000007188000,-16.00000
,,,-0.000007186000,-14.40000
,,,-0.000007184000,-14.40000
,,,-0.000007182000,-15.20000
,,,-0.000007180000,-14.40000
,,,-0.000007177999,-13.60000
,,,-0.000007175999,-14.40000
,,,-0.000007173999,-15.20000
,,,-0.000007171999,-13.60000
,,,-0.000007169999,-12.80000
,,,-0.000007167999,-14.40000
,,,-0.000007165999,-14.40000
,,,-0.000007163999,-13.60000
,,,-0.000007161999,-13.60000
,,,-0.000007159999,-15.20000
,,,-0.000007157999,-14.40000
,,,-0.000007155999,-13.60000
,,,-0.000007153999,-14.40000
,,,-0.000007152000,-14.40000
,,,-0.000007150000,-15.20000
,,,-0.000007148000,-16.00000
,,,-0.000007146000,-14.40000
,,,-0.000007144000,-16.00000
,,,-0.000007142000,-16.00000
,,,-0.000007140000,-16.00000
,,,-0.000007138000,-16.00000
,,,-0.000007136000,-17.60000
,,,-0.000007133999,-17.60000
,,,-0.000007131999,-16.80000
,,,-0.000007129999,-17.60000
,,,-0.000007127999,-18.40000
,,,-0.000007125999,-19.20000
,,,-0.000007123999,-19.20000
,,,-0.000007121999,-19.20000
,,,-0.000007119999,-19.20000
,,,-0.000007117999,-20.80000
,,,-0.000007115999,-20.00000
,,,-0.000007113999,-20.00000
,,,-0.000007111999,-22.40000
,,,-0.000007110000,-23.20000
,,,-0.000007108000,-23.20000
,,,-0.000007106000,-23.20000
,,,-0.000007104000,-24.00000
,,,-0.000007102000,-24.00000
,,,-0.000007100000,-24.80000
,,,-0.000007098000,-23.20000
,,,-0.000007096000,-24.80000
,,,-0.000007094000,-25.60000
,,,-0.000007091999,-26.40000
,,,-0.000007089999,-26.40000
,,,-0.000007087999,-28.00000
,,,-0.000007085999,-28.00000
,,,-0.000007083999,-28.80000
,,,-0.000007081999,-27.20000
,,,-0.000007079999,-27.20000
,,,-0.000007077999,-28.00000
,,,-0.000007075999,-29.60000
,,,-0.000007073999,-29.60000
,,,-0.000007071999,-29.60000
,,,-0.000007069999,-30.40000
,,,-0.000007067999,-32.00000
,,,-0.000007066000,-29.60000
,,,-0.000007064000,-29.60000
,,,-0.000007062000,-32.00000
,,,-0.000007060000,-32.80000
,,,-0.000007058000,-30.40000
,,,-0.000007056000,-32.00000
,,,-0.000007054000,-32.00000
,,,-0.000007052000,-32.00000
,,,-0.000007050000,-30.40000
,,,-0.000007047999,-32.00000
,,,-0.000007045999,-32.00000
,,,-0.000007043999,-32.00000
,,,-0.000007041999,-30.40000
,,,-0.000007039999,-30.40000
,,,-0.000007037999,-32.80000
,,,-0.000007035999,-32.80000
,,,-0.000007033999,-30.40000
,,,-0.000007031999,-30.40000
,,,-0.000007029999,-32.00000
,,,-0.000007027999,-32.00000
,,,-0.000007025999,-29.60000
,,,-0.000007024000,-29.60000
,,,-0.000007022000,-32.00000
,,,-0.000007020000,-29.60000
,,,-0.000007018000,-28.00000
,,,-0.000007016000,-29.60000
,,,-0.000007014000,-30.40000
,,,-0.000007012000,-29.60000
,,,-0.000007010000,-27.20000
,,,-0.000007008000,-28.80000
,,,-0.000007005999,-28.00000
,,,-0.000007003999,-27.20000
,,,-0.000007001999,-25.60000
,,,-0.000006999999,-26.40000
,,,-0.000006997999,-26.40000
,,,-0.000006995999,-25.60000
,,,-0.000006993999,-24.80000
,,,-0.000006991999,-25.60000
,,,-0.000006989999,-24.80000
,,,-0.000006987999,-24.00000
,,,-0.000006985999,-23.20000
,,,-0.000006983999,-24.00000
,,,-0.000006982000,-24.00000
,,,-0.000006980000,-23.20000
,,,-0.000006978000,-22.40000
,,,-0.000006976000,-23.20000
,,,-0.000006974000,-21.60000
,,,-0.000006972000,-20.80000
,,,-0.000006970000,-20.80000
,,,-0.000006968000,-21.60000
,,,-0.000006966000,-20.00000
,,,-0.000006964000,-20.80000
,,,-0.000006961999,-19.20000
,,,-0.000006959999,-20.00000
,,,-0.000006957999,-20.80000
,,,-0.000006955999,-20.00000
,,,-0.000006953999,-18.40000
,,,-0.000006951999,-19.20000
,,,-0.000006949999,-20.00000
,,,-0.000006947999,-18.40000
,,,-0.000006945999,-17.60000
,,,-0.000006943999,-19.20000
,,,-0.000006941999,-20.00000
,,,-0.000006939999,-17.60000
,,,-0.000006938000,-17.60000
,,,-0.000006936000,-18.40000
,,,-0.000006934000,-18.40000
,,,-0.000006932000,-17.60000
,,,-0.000006930000,-17.60000
,,,-0.000006928000,-19.20000
,,,-0.000006926000,-19.20000
,,,-0.000006924000,-19.20000
,,,-0.000006922000,-18.40000
,,,-0.000006919999,-18.40000
,,,-0.000006917999,-19.20000
,,,-0.000006915999,-17.60000
,,,-0.000006913999,-17.60000
,,,-0.000006911999,-20.00000
,,,-0.000006909999,-20.00000
,,,-0.000006907999,-20.00000
,,,-0.000006905999,-18.40000
,,,-0.000006903999,-20.00000
,,,-0.000006901999,-20.80000
,,,-0.000006899999,-20.00000
,,,-0.000006897999,-19.20000
,,,-0.000006896000,-21.60000
,,,-0.000006894000,-21.60000
,,,-0.000006892000,-20.80000
,,,-0.000006890000,-20.80000
,,,-0.000006888000,-22.40000
,,,-0.000006886000,-23.20000
,,,-0.000006884000,-23.20000
,,,-0.000006882000,-22.40000
,,,-0.000006880000,-24.80000
,,,-0.000006878000,-24.80000
,,,-0.000006875999,-23.20000
,,,-0.000006873999,-24.80000
,,,-0.000006871999,-24.80000
,,,-0.000006869999,-24.80000
,,,-0.000006867999,-25.60000
,,,-0.000006865999,-25.60000
,,,-0.000006863999,-26.40000
,,,-0.000006861999,-26.40000
,,,-0.000006859999,-26.40000
,,,-0.000006857999,-27.20000
,,,-0.000006855999,-28.00000
,,,-0.000006853999,-28.80000
,,,-0.000006852000,-27.20000
,,,-0.000006850000,-27.20000
,,,-0.000006848000,-28.80000
,,,-0.000006846000,-29.60000
,,,-0.000006844000,-28.80000
,,,-0.000006842000,-28.80000
,,,-0.000006840000,-30.40000
,,,-0.000006838000,-30.40000
,,,-0.000006836000,-30.40000
,,,-0.000006834000,-29.60000
,,,-0.000006831999,-30.40000
,,,-0.000006829999,-32.00000
,,,-0.000006827999,-32.00000
,,,-0.000006825999,-30.40000
,,,-0.000006823999,-32.00000
,,,-0.000006821999,-32.00000
,,,-0.000006819999,-32.80000
,,,-0.000006817999,-33.60000
,,,-0.000006815999,-32.80000
,,,-0.000006813999,-32.00000
,,,-0.000006811999,-32.00000
,,,-0.000006810000,-30.40000
,,,-0.000006808000,-32.00000
,,,-0.000006806000,-33.60000
,,,-0.000006804000,-33.60000
,,,-0.000006802000,-29.60000
,,,-0.000006800000,-32.00000
,,,-0.000006798000,-32.80000
,,,-0.000006796000,-32.80000
,,,-0.000006794000,-32.00000
,,,-0.000006792000,-30.40000
,,,-0.000006789999,-32.00000
,,,-0.000006787999,-30.40000
,,,-0.000006785999,-29.60000
,,,-0.000006783999,-32.00000
,,,-0.000006781999,-32.00000
,,,-0.000006779999,-29.60000
,,,-0.000006777999,-28.00000
,,,-0.000006775999,-30.40000
,,,-0.000006773999,-30.40000
,,,-0.000006771999,-29.60000
,,,-0.000006769999,-28.00000
,,,-0.000006767999,-29.60000
,,,-0.000006766000,-28.00000
,,,-0.000006764000,-27.20000
,,,-0.000006762000,-26.40000
,,,-0.000006760000,-27.20000
,,,-0.000006758000,-28.00000
,,,-0.000006756000,-28.80000
,,,-0.000006754000,-26.40000
,,,-0.000006752000,-26.40000
,,,-0.000006750000,-27.20000
,,,-0.000006748000,-25.60000
,,,-0.000006745999,-24.80000
,,,-0.000006743999,-24.80000
,,,-0.000006741999,-24.80000
,,,-0.000006739999,-24.00000
,,,-0.000006737999,-24.80000
,,,-0.000006735999,-24.00000
,,,-0.000006733999,-24.80000
,,,-0.000006731999,-25.60000
,,,-0.000006729999,-22.40000
,,,-0.000006727999,-23.20000
,,,-0.000006725999,-24.00000
,,,-0.000006724000,-23.20000
,,,-0.000006722000,-21.60000
,,,-0.000006720000,-23.20000
,,,-0.000006718000,-22.40000
,,,-0.000006716000,-22.40000
,,,-0.000006714000,-21.60000
,,,-0.000006712000,-23.20000
,,,-0.000006710000,-21.60000
,,,-0.000006708000,-21.60000
,,,-0.000006706000,-21.60000
,,,-0.000006703999,-20.80000
,,,-0.000006701999,-20.80000
,,,-0.000006699999,-20.80000
,,,-0.000006697999,-19.20000
,,,-0.000006695999,-20.80000
,,,-0.000006693999,-21.60000
,,,-0.000006691999,-22.40000
,,,-0.000006689999,-20.00000
,,,-0.000006687999,-20.80000
,,,-0.000006685999,-20.80000
,,,-0.000006683999,-20.80000
,,,-0.000006681999,-20.80000
,,,-0.000006680000,-20.80000
,,,-0.000006678000,-20.80000
,,,-0.000006676000,-20.80000
,,,-0.000006674000,-20.80000
,,,-0.000006672000,-22.40000
,,,-0.000006670000,-21.60000
,,,-0.000006668000,-20.80000
,,,-0.000006666000,-20.80000
,,,-0.000006664000,-23.20000
,,,-0.000006662000,-23.20000
,,,-0.000006659999,-23.20000
,,,-0.000006657999,-21.60000
,,,-0.000006655999,-23.20000
,,,-0.000006653999,-23.20000
,,,-0.000006651999,-23.20000
,,,-0.000006649999,-23.20000
,,,-0.000006647999,-24.00000
,,,-0.000006645999,-24.00000
,,,-0.000006643999,-24.00000
,,,-0.000006641999,-23.20000
,,,-0.000006639999,-24.80000
,,,-0.000006638000,-24.80000
,,,-0.000006636000,-24.80000
,,,-0.000006634000,-24.00000
,,,-0.000006632000,-24.80000
,,,-0.000006630000,-25.60000
,,,-0.000006628000,-25.60000
,,,-0.000006626000,-24.00000
,,,-0.000006624000,-25.60000
,,,-0.000006622000,-26.40000
,,,-0.000006620000,-26.40000
,,,-0.000006617999,-24.80000
,,,-0.000006615999,-26.40000
,,,-0.000006613999,-27.20000
,,,-0.000006611999,-26.40000
,,,-0.000006609999,-27.20000
,,,-0.000006607999,-27.20000
,,,-0.000006605999,-27.20000
,,,-0.000006603999,-27.20000
,,,-0.000006601999,-26.40000
,,,-0.000006599999,-27.20000
,,,-0.000006597999,-28.00000
,,,-0.000006595999,-28.80000
,,,-0.000006594000,-27.20000
,,,-0.000006592000,-28.00000
,,,-0.000006590000,-28.80000
,,,-0.000006588000,-27.20000
,,,-0.000006586000,-28.00000
,,,-0.000006584000,-28.80000
,,,-0.000006582000,-28.80000
,,,-0.000006580000,-29.60000
,,,-0.000006578000,-28.00000
,,,-0.000006576000,-29.60000
,,,-0.000006573999,-28.00000
,,,-0.000006571999,-28.80000
,,,-0.000006569999,-29.60000
,,,-0.000006567999,-29.60000
,,,-0.000006565999,-28.00000
,,,-0.000006563999,-27.20000
,,,-0.000006561999,-27.20000
,,,-0.000006559999,-27.20000
,,,-0.000006557999,-28.00000
,,,-0.000006555999,-28.00000
,,,-0.000006553999,-26.40000
,,,-0.000006552000,-28.00000
,,,-0.000006550000,-28.00000
,,,-0.000006548000,-27.20000
,,,-0.000006546000,-26.40000
,,,-0.000006544000,-27.20000
,,,-0.000006542000,-27.20000
,,,-0.000006540000,-25.60000
,,,-0.000006538000,-24.80000
,,,-0.000006536000,-27.20000
,,,-0.000006534000,-26.40000
,,,-0.000006531999,-26.40000
,,,-0.000006529999,-26.40000
,,,-0.000006527999,-26.40000
,,,-0.000006525999,-24.80000
,,,-0.000006523999,-24.00000
,,,-0.000006521999,-24.00000
,,,-0.000006519999,-24.80000
,,,-0.000006517999,-24.80000
,,,-0.000006515999,-24.80000
,,,-0.000006513999,-23.20000
,,,-0.000006511999,-24.80000
,,,-0.000006510000,-24.00000
,,,-0.000006508000,-23.20000
,,,-0.000006506000,-22.40000
,,,-0.000006504000,-23.20000
,,,-0.000006502000,-23.20000
,,,-0.000006500000,-23.20000
,,,-0.000006498000,-22.40000
,,,-0.000006496000,-23.20000
,,,-0.000006494000,-23.20000
,,,-0.000006492000,-23.20000
,,,-0.000006490000,-20.80000
,,,-0.000006487999,-21.60000
,,,-0.000006485999,-21.60000
,,,-0.000006483999,-22.40000
,,,-0.000006481999,-19.20000
,,,-0.000006479999,-20.80000
,,,-0.000006477999,-22.40000
,,,-0.000006475999,-21.60000
,,,-0.000006473999,-20.00000
,,,-0.000006471999,-20.80000
,,,-0.000006469999,-20.00000
,,,-0.000006467999,-20.00000
,,,-0.000006466000,-18.40000
,,,-0.000006464000,-20.00000
,,,-0.000006462000,-20.80000
,,,-0.000006460000,-20.00000
,,,-0.000006458000,-19.20000
,,,-0.000006456000,-20.00000
,,,-0.000006454000,-20.00000
,,,-0.000006452000,-20.00000
,,,-0.000006450000,-20.80000
,,,-0.000006448000,-20.80000
,,,-0.000006446000,-20.00000
,,,-0.000006443999,-20.00000
,,,-0.000006441999,-18.40000
,,,-0.000006439999,-20.80000
,,,-0.000006437999,-20.80000
,,,-0.000006435999,-20.80000
,,,-0.000006433999,-20.80000
,,,-0.000006431999,-20.00000
,,,-0.000006429999,-21.60000
,,,-0.000006427999,-20.80000
,,,-0.000006425999,-20.80000
,,,-0.000006424000,-20.80000
,,,-0.000006422000,-21.60000
,,,-0.000006420000,-20.80000
,,,-0.000006418000,-20.00000
,,,-0.000006416000,-20.80000
,,,-0.000006414000,-21.60000
,,,-0.000006412000,-21.60000
,,,-0.000006410000,-21.60000
,,,-0.000006408000,-23.20000
,,,-0.000006406000,-23.20000
,,,-0.000006404000,-22.40000
,,,-0.000006401999,-22.40000
,,,-0.000006399999,-23.20000
,,,-0.000006397999,-24.00000
,,,-0.000006395999,-23.20000
,,,-0.000006393999,-22.40000
,,,-0.000006391999,-24.00000
,,,-0.000006389999,-24.00000
,,,-0.000006387999,-23.20000
,,,-0.000006385999,-23.20000
,,,-0.000006383999,-23.20000
,,,-0.000006381999,-24.00000
,,,-0.000006380000,-24.80000
,,,-0.000006378000,-24.00000
,,,-0.000006376000,-24.80000
,,,-0.000006374000,-25.60000
,,,-0.000006372000,-25.60000
,,,-0.000006370000,-24.00000
,,,-0.000006368000,-24.80000
,,,-0.000006366000,-24.80000
,,,-0.000006364000,-24.80000
,,,-0.000006362000,-24.80000
,,,-0.000006360000,-27.20000
,,,-0.000006357999,-26.40000
,,,-0.000006355999,-25.60000
,,,-0.000006353999,-24.00000
,,,-0.000006351999,-25.60000
,,,-0.000006349999,-26.40000
,,,-0.000006347999,-26.40000
,,,-0.000006345999,-24.80000
,,,-0.000006343999,-25.60000
,,,-0.000006341999,-27.20000
,,,-0.000006339999,-26.40000
,,,-0.000006338000,-24.80000
,,,-0.000006336000,-27.20000
,,,-0.000006334000,-27.20000
,,,-0.000006332000,-26.40000
,,,-0.000006330000,-25.60000
,,,-0.000006328000,-26.40000
,,,-0.000006326000,-25.60000
,,,-0.000006324000,-26.40000
,,,-0.000006322000,-26.40000
,,,-0.000006320000,-25.60000
,,,-0.000006318000,-26.40000
,,,-0.000006315999,-26.40000
,,,-0.000006313999,-24.80000
,,,-0.000006311999,-25.60000
,,,-0.000006309999,-26.40000
,,,-0.000006307999,-25.60000
,,,-0.000006305999,-24.00000
,,,-0.000006303999,-25.60000
,,,-0.000006301999,-26.40000
,,,-0.000006299999,-25.60000
,,,-0.000006297999,-24.00000
,,,-0.000006295999,-25.60000
,,,-0.000006294000,-26.40000
,,,-0.000006292000,-25.60000
,,,-0.000006290000,-24.00000
,,,-0.000006288000,-24.80000
,,,-0.000006286000,-24.80000
,,,-0.000006284000,-23.20000
,,,-0.000006282000,-24.00000
,,,-0.000006280000,-24.80000
,,,-0.000006278000,-24.00000
,,,-0.000006276000,-23.20000
,,,-0.000006274000,-23.20000
,,,-0.000006271999,-24.00000
,,,-0.000006269999,-24.00000
,,,-0.000006267999,-23.20000
,,,-0.000006265999,-23.20000
,,,-0.000006263999,-23.20000
,,,-0.000006261999,-24.00000
,,,-0.000006259999,-23.20000
,,,-0.000006257999,-21.60000
,,,-0.000006255999,-23.20000
,,,-0.000006253999,-23.20000
,,,-0.000006252000,-22.40000
,,,-0.000006250000,-22.40000
,,,-0.000006248000,-24.00000
,,,-0.000006246000,-21.60000
,,,-0.000006244000,-20.80000
,,,-0.000006242000,-21.60000
,,,-0.000006240000,-22.40000
,,,-0.000006238000,-20.80000
,,,-0.000006236000,-23.20000
,,,-0.000006234000,-22.40000
,,,-0.000006232000,-21.60000
,,,-0.000006229999,-21.60000
,,,-0.000006227999,-23.20000
,,,-0.000006225999,-22.40000
,,,-0.000006223999,-21.60000
,,,-0.000006221999,-21.60000
,,,-0.000006219999,-22.40000
,,,-0.000006217999,-21.60000
,,,-0.000006215999,-20.80000
,,,-0.000006213999,-21.60000
,,,-0.000006211999,-20.80000
,,,-0.000006209999,-20.80000
,,,-0.000006208000,-23.20000
,,,-0.000006206000,-21.60000
,,,-0.000006204000,-21.60000
,,,-0.000006202000,-21.60000
,,,-0.000006200000,-23.20000
,,,-0.000006198000,-23.20000
,,,-0.000006196000,-22.40000
,,,-0.000006194000,-20.80000
,,,-0.000006192000,-23.20000
,,,-0.000006190000,-21.60000
,,,-0.000006188000,-22.40000
,,,-0.000006185999,-20.80000
,,,-0.000006183999,-23.20000
,,,-0.000006181999,-23.20000
,,,-0.000006179999,-23.20000
,,,-0.000006177999,-24.00000
,,,-0.000006175999,-24.00000
,,,-0.000006173999,-23.20000
,,,-0.000006171999,-23.20000
,,,-0.000006169999,-22.40000
,,,-0.000006167999,-24.00000
,,,-0.000006166000,-24.00000
,,,-0.000006164000,-24.80000
,,,-0.000006162000,-24.00000
,,,-0.000006160000,-24.00000
,,,-0.000006158000,-24.80000
,,,-0.000006156000,-24.80000
,,,-0.000006154000,-24.00000
,,,-0.000006152000,-25.60000
,,,-0.000006150000,-26.40000
,,,-0.000006148000,-24.80000
,,,-0.000006146000,-24.00000
,,,-0.000006144000,-25.60000
,,,-0.000006141999,-26.40000
,,,-0.000006139999,-24.80000
,,,-0.000006137999,-24.80000
,,,-0.000006135999,-25.60000
,,,-0.000006133999,-26.40000
,,,-0.000006131999,-25.60000
,,,-0.000006129999,-26.40000
,,,-0.000006127999,-27.20000
,,,-0.000006125999,-26.40000
,,,-0.000006123999,-25.60000
,,,-0.000006122000,-25.60000
,,,-0.000006120000,-26.40000
,,,-0.000006118000,-27.20000
,,,-0.000006116000,-26.40000
,,,-0.000006114000,-26.40000
,,,-0.000006112000,-27.20000
,,,-0.000006110000,-27.20000
,,,-0.000006108000,-26.40000
,,,-0.000006106000,-26.40000
,,,-0.000006104000,-27.20000
,,,-0.000006102000,-27.20000
,,,-0.000006099999,-28.80000
,,,-0.000006097999,-26.40000
,,,-0.000006095999,-27.20000
,,,-0.000006093999,-27.20000
,,,-0.000006091999,-27.20000
,,,-0.000006089999,-26.40000
,,,-0.000006087999,-27.20000
,,,-0.000006085999,-28.00000
,,,-0.000006083999,-27.20000
,,,-0.000006081999,-26.40000
,,,-0.000006080000,-28.00000
,,,-0.000006078000,-27.20000
,,,-0.000006076000,-27.20000
,,,-0.000006074000,-26.40000
,,,-0.000006072000,-27.20000
,,,-0.000006070000,-26.40000
,,,-0.000006068000,-25.60000
,,,-0.000006066000,-25.60000
,,,-0.000006064000,-27.20000
,,,-0.000006062000,-26.40000
,,,-0.000006060000,-26.40000
,,,-0.000006058000,-24.80000
,,,-0.000006055999,-26.40000
,,,-0.000006053999,-25.60000
,,,-0.000006051999,-25.60000
,,,-0.000006049999,-24.80000
,,,-0.000006047999,-26.40000
,,,-0.000006045999,-26.40000
,,,-0.000006043999,-25.60000
,,,-0.000006041999,-24.80000
,,,-0.000006039999,-24.80000
,,,-0.000006037999,-25.60000
