capturas-osciloscopio/17-11-22/WA000006.CSV

Record Length,4096,,Source,CH1
Sample Interval,0.0000000050000,,Second,Volt
Vertical Units,CH1:V,,-0.000013119999,1.64000
Vertical Scale,CH1:0.50,,-0.000013115000,1.64000
Vertical Offset,CH1:-1.44000,,-0.000013109999,1.64000
Horizontal Units,s,,-0.000013105000,1.62000
Horizontal Scale,0.0000010000,,-0.000013100000,1.66000
Model Number,WaveAce112,,-0.000013095000,1.66000
Serial Number,LCRY2101C02399,,-0.000013090000,1.64000
Software Version,2.07.02.16,,-0.000013085000,1.68000
,,,-0.000013080000,1.66000
,,,-0.000013074999,1.68000
,,,-0.000013070000,1.68000
,,,-0.000013064999,1.66000
,,,-0.000013060000,1.66000
,,,-0.000013055000,1.68000
,,,-0.000013050000,1.66000
,,,-0.000013045000,1.68000
,,,-0.000013040000,1.66000
,,,-0.000013035000,1.72000
,,,-0.000013029999,1.68000
,,,-0.000013025000,1.70000
,,,-0.000013020000,1.68000
,,,-0.000013015000,1.68000
,,,-0.000013010000,1.72000
,,,-0.000013005000,1.70000
,,,-0.000013000000,1.68000
,,,-0.000012995000,1.70000
,,,-0.000012990000,1.68000
,,,-0.000012984999,1.68000
,,,-0.000012980000,1.72000
,,,-0.000012975000,1.66000
,,,-0.000012970000,1.74000
,,,-0.000012965000,1.72000
,,,-0.000012960000,1.66000
,,,-0.000012955000,1.72000
,,,-0.000012949999,1.70000
,,,-0.000012945000,1.68000
,,,-0.000012939999,1.68000
,,,-0.000012935000,1.70000
,,,-0.000012930000,1.68000
,,,-0.000012925000,1.68000
,,,-0.000012920000,1.66000
,,,-0.000012915000,1.68000
,,,-0.000012910000,1.66000
,,,-0.000012904999,1.70000
,,,-0.000012900000,1.66000
,,,-0.000012894999,1.66000
,,,-0.000012890000,1.68000
,,,-0.000012885000,1.64000
,,,-0.000012880000,1.66000
,,,-0.000012875000,1.68000
,,,-0.000012870000,1.64000
,,,-0.000012865000,1.62000
,,,-0.000012859999,1.66000
,,,-0.000012855000,1.62000
,,,-0.000012849999,1.58000
,,,-0.000012845000,1.64000
,,,-0.000012840000,1.64000
,,,-0.000012835000,1.62000
,,,-0.000012830000,1.64000
,,,-0.000012825000,1.64000
,,,-0.000012820000,1.60000
,,,-0.000012814999,1.62000
,,,-0.000012810000,1.60000
,,,-0.000012805000,1.62000
,,,-0.000012800000,1.58000
,,,-0.000012795000,1.62000
,,,-0.000012790000,1.60000
,,,-0.000012785000,1.58000
,,,-0.000012780000,1.60000
,,,-0.000012775000,1.54000
,,,-0.000012769999,1.58000
,,,-0.000012765000,1.58000
,,,-0.000012760000,1.58000
,,,-0.000012755000,1.56000
,,,-0.000012750000,1.58000
,,,-0.000012745000,1.52000
,,,-0.000012740000,1.52000
,,,-0.000012734999,1.52000
,,,-0.000012730000,1.54000
,,,-0.000012724999,1.54000
,,,-0.000012720000,1.50000
,,,-0.000012715000,1.54000
,,,-0.000012710000,1.54000
,,,-0.000012705000,1.52000
,,,-0.000012700000,1.54000
,,,-0.000012695000,1.52000
,,,-0.000012689999,1.54000
,,,-0.000012685000,1.52000
,,,-0.000012679999,1.52000
,,,-0.000012675000,1.52000
,,,-0.000012670000,1.50000
,,,-0.000012665000,1.50000
,,,-0.000012660000,1.54000
,,,-0.000012655000,1.54000
,,,-0.000012650000,1.50000
,,,-0.000012644999,1.52000
,,,-0.000012640000,1.52000
,,,-0.000012634999,1.52000
,,,-0.000012630000,1.54000
,,,-0.000012625000,1.54000
,,,-0.000012620000,1.50000
,,,-0.000012615000,1.52000
,,,-0.000012610000,1.56000
,,,-0.000012605000,1.52000
,,,-0.000012599999,1.54000
,,,-0.000012595000,1.52000
,,,-0.000012590000,1.52000
,,,-0.000012585000,1.52000
,,,-0.000012580000,1.56000
,,,-0.000012575000,1.54000
,,,-0.000012570000,1.54000
,,,-0.000012565000,1.56000
,,,-0.000012560000,1.58000
,,,-0.000012554999,1.56000
,,,-0.000012550000,1.56000
,,,-0.000012545000,1.60000
,,,-0.000012540000,1.58000
,,,-0.000012535000,1.56000
,,,-0.000012530000,1.60000
,,,-0.000012525000,1.62000
,,,-0.000012519999,1.58000
,,,-0.000012515000,1.62000
,,,-0.000012509999,1.60000
,,,-0.000012505000,1.64000
,,,-0.000012500000,1.66000
,,,-0.000012495000,1.62000
,,,-0.000012490000,1.66000
,,,-0.000012485000,1.68000
,,,-0.000012480000,1.66000
,,,-0.000012474999,1.68000
,,,-0.000012470000,1.66000
,,,-0.000012464999,1.70000
,,,-0.000012460000,1.70000
,,,-0.000012455000,1.68000
,,,-0.000012450000,1.72000
,,,-0.000012445000,1.76000
,,,-0.000012440000,1.74000
,,,-0.000012435000,1.76000
,,,-0.000012429999,1.76000
,,,-0.000012425000,1.74000
,,,-0.000012419999,1.76000
,,,-0.000012415000,1.76000
,,,-0.000012410000,1.78000
,,,-0.000012405000,1.80000
,,,-0.000012400000,1.82000
,,,-0.000012395000,1.82000
,,,-0.000012390000,1.82000
,,,-0.000012384999,1.82000
,,,-0.000012380000,1.86000
,,,-0.000012375000,1.86000
,,,-0.000012370000,1.90000
,,,-0.000012365000,1.90000
,,,-0.000012360000,1.86000
,,,-0.000012355000,1.88000
,,,-0.000012350000,1.90000
,,,-0.000012345000,1.94000
,,,-0.000012339999,1.94000
,,,-0.000012335000,1.94000
,,,-0.000012330000,1.92000
,,,-0.000012325000,1.98000
,,,-0.000012320000,1.96000
,,,-0.000012315000,2.00000
,,,-0.000012310000,1.96000
,,,-0.000012304999,2.00000
,,,-0.000012300000,1.98000
,,,-0.000012294999,2.00000
,,,-0.000012290000,2.04000
,,,-0.000012285000,1.98000
,,,-0.000012280000,2.04000
,,,-0.000012275000,2.04000
,,,-0.000012270000,2.06000
,,,-0.000012265000,2.02000
,,,-0.000012259999,2.06000
,,,-0.000012255000,2.04000
,,,-0.000012249999,2.06000
,,,-0.000012245000,2.08000
,,,-0.000012240000,2.06000
,,,-0.000012235000,2.04000
,,,-0.000012230000,2.06000
,,,-0.000012225000,2.08000
,,,-0.000012220000,2.08000
,,,-0.000012214999,2.08000
,,,-0.000012210000,2.08000
,,,-0.000012204999,2.08000
,,,-0.000012200000,2.06000
,,,-0.000012195000,2.10000
,,,-0.000012190000,2.06000
,,,-0.000012185000,2.06000
,,,-0.000012180000,2.08000
,,,-0.000012175000,2.04000
,,,-0.000012169999,2.06000
,,,-0.000012165000,2.08000
,,,-0.000012160000,2.04000
,,,-0.000012155000,2.04000
,,,-0.000012150000,2.06000
,,,-0.000012145000,2.08000
,,,-0.000012140000,2.06000
,,,-0.000012135000,2.04000
,,,-0.000012130000,2.04000
,,,-0.000012124999,2.06000
,,,-0.000012120000,2.02000
,,,-0.000012115000,2.04000
,,,-0.000012110000,2.00000
,,,-0.000012105000,2.04000
,,,-0.000012100000,1.98000
,,,-0.000012095000,1.94000
,,,-0.000012089999,2.00000
,,,-0.000012085000,2.02000
,,,-0.000012079999,1.96000
,,,-0.000012075000,1.98000
,,,-0.000012070000,1.92000
,,,-0.000012065000,2.00000
,,,-0.000012060000,1.94000
,,,-0.000012055000,1.96000
,,,-0.000012050000,1.92000
,,,-0.000012044999,1.92000
,,,-0.000012040000,1.92000
,,,-0.000012034999,1.94000
,,,-0.000012030000,1.90000
,,,-0.000012025000,1.92000
,,,-0.000012020000,1.90000
,,,-0.000012015000,1.86000
,,,-0.000012010000,1.88000
,,,-0.000012005000,1.88000
,,,-0.000011999999,1.86000
,,,-0.000011995000,1.86000
,,,-0.000011990000,1.86000
,,,-0.000011985000,1.84000
,,,-0.000011980000,1.84000
,,,-0.000011975000,1.82000
,,,-0.000011970000,1.86000
,,,-0.000011965000,1.82000
,,,-0.000011960000,1.84000
,,,-0.000011954999,1.82000
,,,-0.000011950000,1.84000
,,,-0.000011945000,1.78000
,,,-0.000011940000,1.82000
,,,-0.000011935000,1.78000
,,,-0.000011930000,1.80000
,,,-0.000011925000,1.78000
,,,-0.000011920000,1.80000
,,,-0.000011915000,1.78000
,,,-0.000011909999,1.78000
,,,-0.000011905000,1.76000
,,,-0.000011900000,1.80000
,,,-0.000011895000,1.78000
,,,-0.000011890000,1.76000
,,,-0.000011885000,1.76000
,,,-0.000011880000,1.82000
,,,-0.000011875000,1.76000
,,,-0.000011870000,1.76000
,,,-0.000011864999,1.76000
,,,-0.000011860000,1.76000
,,,-0.000011855000,1.76000
,,,-0.000011850000,1.76000
,,,-0.000011845000,1.78000
,,,-0.000011840000,1.76000
,,,-0.000011835000,1.76000
,,,-0.000011829999,1.78000
,,,-0.000011825000,1.80000
,,,-0.000011819999,1.76000
,,,-0.000011815000,1.78000
,,,-0.000011810000,1.80000
,,,-0.000011805000,1.78000
,,,-0.000011800000,1.78000
,,,-0.000011795000,1.82000
,,,-0.000011790000,1.82000
,,,-0.000011784999,1.82000
,,,-0.000011780000,1.82000
,,,-0.000011775000,1.80000
,,,-0.000011770000,1.82000
,,,-0.000011765000,1.84000
,,,-0.000011760000,1.84000
,,,-0.000011755000,1.84000
,,,-0.000011750000,1.82000
,,,-0.000011745000,1.84000
,,,-0.000011739999,1.84000
,,,-0.000011735000,1.86000
,,,-0.000011730000,1.86000
,,,-0.000011725000,1.88000
,,,-0.000011720000,1.90000
,,,-0.000011715000,1.92000
,,,-0.000011710000,1.90000
,,,-0.000011705000,1.92000
,,,-0.000011700000,1.92000
,,,-0.000011694999,1.92000
,,,-0.000011690000,1.94000
,,,-0.000011685000,1.94000
,,,-0.000011680000,1.96000
,,,-0.000011675000,2.00000
,,,-0.000011670000,1.98000
,,,-0.000011665000,1.98000
,,,-0.000011660000,2.02000
,,,-0.000011655000,2.02000
,,,-0.000011649999,2.04000
,,,-0.000011645000,2.02000
,,,-0.000011640000,2.06000
,,,-0.000011635000,2.02000
,,,-0.000011630000,2.06000
,,,-0.000011625000,2.06000
,,,-0.000011620000,2.08000
,,,-0.000011614999,2.10000
,,,-0.000011610000,2.12000
,,,-0.000011604999,2.10000
,,,-0.000011600000,2.12000
,,,-0.000011595000,2.12000
,,,-0.000011590000,2.14000
,,,-0.000011585000,2.12000
,,,-0.000011580000,2.14000
,,,-0.000011575000,2.16000
,,,-0.000011569999,2.16000
,,,-0.000011565000,2.20000
,,,-0.000011560000,2.22000
,,,-0.000011555000,2.16000
,,,-0.000011550000,2.22000
,,,-0.000011545000,2.18000
,,,-0.000011540000,2.22000
,,,-0.000011535000,2.22000
,,,-0.000011530000,2.28000
,,,-0.000011524999,2.24000
,,,-0.000011520000,2.28000
,,,-0.000011515000,2.26000
,,,-0.000011510000,2.24000
,,,-0.000011505000,2.28000
,,,-0.000011500000,2.24000
,,,-0.000011495000,2.26000
,,,-0.000011490000,2.30000
,,,-0.000011485000,2.32000
,,,-0.000011479999,2.28000
,,,-0.000011475000,2.34000
,,,-0.000011470000,2.28000
,,,-0.000011465000,2.32000
,,,-0.000011460000,2.34000
,,,-0.000011455000,2.32000
,,,-0.000011450000,2.36000
,,,-0.000011445000,2.32000
,,,-0.000011440000,2.32000
,,,-0.000011434999,2.36000
,,,-0.000011430000,2.34000
,,,-0.000011425000,2.34000
,,,-0.000011420000,2.34000
,,,-0.000011415000,2.32000
,,,-0.000011410000,2.36000
,,,-0.000011405000,2.34000
,,,-0.000011399999,2.34000
,,,-0.000011395000,2.34000
,,,-0.000011389999,2.32000
,,,-0.000011385000,2.34000
,,,-0.000011380000,2.30000
,,,-0.000011375000,2.36000
,,,-0.000011370000,2.34000
,,,-0.000011365000,2.32000
,,,-0.000011360000,2.32000
,,,-0.000011354999,2.38000
,,,-0.000011350000,2.32000
,,,-0.000011345000,2.32000
,,,-0.000011340000,2.28000
,,,-0.000011335000,2.32000
,,,-0.000011330000,2.32000
,,,-0.000011325000,2.32000
,,,-0.000011320000,2.28000
,,,-0.000011315000,2.30000
,,,-0.000011309999,2.32000
,,,-0.000011305000,2.26000
,,,-0.000011300000,2.28000
,,,-0.000011295000,2.26000
,,,-0.000011290000,2.30000
,,,-0.000011285000,2.24000
,,,-0.000011280000,2.24000
,,,-0.000011275000,2.28000
,,,-0.000011270000,2.22000
,,,-0.000011264999,2.22000
,,,-0.000011260000,2.22000
,,,-0.000011255000,2.26000
,,,-0.000011250000,2.22000
,,,-0.000011245000,2.22000
,,,-0.000011240000,2.22000
,,,-0.000011235000,2.22000
,,,-0.000011230000,2.18000
,,,-0.000011225000,2.24000
,,,-0.000011219999,2.16000
,,,-0.000011215000,2.16000
,,,-0.000011210000,2.18000
,,,-0.000011205000,2.18000
,,,-0.000011200000,2.14000
,,,-0.000011195000,2.14000
,,,-0.000011190000,2.20000
,,,-0.000011184999,2.14000
,,,-0.000011180000,2.14000
,,,-0.000011174999,2.08000
,,,-0.000011170000,2.14000
,,,-0.000011165000,2.16000
,,,-0.000011160000,2.14000
,,,-0.000011155000,2.14000
,,,-0.000011150000,2.12000
,,,-0.000011145000,2.08000
,,,-0.000011139999,2.10000
,,,-0.000011135000,2.12000
,,,-0.000011130000,2.06000
,,,-0.000011125000,2.10000
,,,-0.000011120000,2.12000
,,,-0.000011115000,2.12000
,,,-0.000011110000,2.06000
,,,-0.000011105000,2.10000
,,,-0.000011100000,2.08000
,,,-0.000011094999,2.06000
,,,-0.000011090000,2.08000
,,,-0.000011085000,2.10000
,,,-0.000011080000,2.08000
,,,-0.000011075000,2.12000
,,,-0.000011070000,2.06000
,,,-0.000011065000,2.08000
,,,-0.000011060000,2.10000
,,,-0.000011055000,2.10000
,,,-0.000011049999,2.06000
,,,-0.000011045000,2.10000
,,,-0.000011040000,2.10000
,,,-0.000011035000,2.10000
,,,-0.000011030000,2.08000
,,,-0.000011025000,2.12000
,,,-0.000011020000,2.08000
,,,-0.000011015000,2.12000
,,,-0.000011010000,2.12000
,,,-0.000011004999,2.10000
,,,-0.000011000000,2.12000
,,,-0.000010995000,2.12000
,,,-0.000010990000,2.12000
,,,-0.000010985000,2.14000
,,,-0.000010980000,2.12000
,,,-0.000010975000,2.16000
,,,-0.000010969999,2.14000
,,,-0.000010965000,2.16000
,,,-0.000010959999,2.16000
,,,-0.000010955000,2.16000
,,,-0.000010950000,2.16000
,,,-0.000010945000,2.16000
,,,-0.000010940000,2.18000
,,,-0.000010935000,2.16000
,,,-0.000010930000,2.22000
,,,-0.000010924999,2.20000
,,,-0.000010920000,2.20000
,,,-0.000010915000,2.26000
,,,-0.000010910000,2.20000
,,,-0.000010905000,2.24000
,,,-0.000010900000,2.22000
,,,-0.000010895000,2.26000
,,,-0.000010890000,2.28000
,,,-0.000010885000,2.28000
,,,-0.000010879999,2.28000
,,,-0.000010875000,2.28000
,,,-0.000010870000,2.28000
,,,-0.000010865000,2.32000
,,,-0.000010860000,2.28000
,,,-0.000010855000,2.30000
,,,-0.000010850000,2.34000
,,,-0.000010845000,2.28000
,,,-0.000010840000,2.36000
,,,-0.000010834999,2.34000
,,,-0.000010830000,2.32000
,,,-0.000010825000,2.34000
,,,-0.000010820000,2.38000
,,,-0.000010815000,2.32000
,,,-0.000010810000,2.38000
,,,-0.000010805000,2.44000
,,,-0.000010800000,2.38000
,,,-0.000010795000,2.42000
,,,-0.000010789999,2.42000
,,,-0.000010785000,2.46000
,,,-0.000010780000,2.42000
,,,-0.000010775000,2.44000
,,,-0.000010770000,2.48000
,,,-0.000010765000,2.50000
,,,-0.000010760000,2.42000
,,,-0.000010754999,2.50000
,,,-0.000010750000,2.48000
,,,-0.000010745000,2.52000
,,,-0.000010740000,2.48000
,,,-0.000010735000,2.50000
,,,-0.000010730000,2.48000
,,,-0.000010725000,2.50000
,,,-0.000010720000,2.54000
,,,-0.000010715000,2.54000
,,,-0.000010709999,2.54000
,,,-0.000010705000,2.50000
,,,-0.000010700000,2.56000
,,,-0.000010695000,2.56000
,,,-0.000010690000,2.54000
,,,-0.000010685000,2.54000
,,,-0.000010680000,2.54000
,,,-0.000010675000,2.60000
,,,-0.000010670000,2.56000
,,,-0.000010664999,2.60000
,,,-0.000010660000,2.54000
,,,-0.000010655000,2.58000
,,,-0.000010650000,2.56000
,,,-0.000010645000,2.60000
,,,-0.000010640000,2.56000
,,,-0.000010635000,2.64000
,,,-0.000010630000,2.56000
,,,-0.000010625000,2.60000
,,,-0.000010619999,2.56000
,,,-0.000010615000,2.58000
,,,-0.000010610000,2.58000
,,,-0.000010605000,2.60000
,,,-0.000010600000,2.58000
,,,-0.000010595000,2.58000
,,,-0.000010590000,2.62000
,,,-0.000010585000,2.58000
,,,-0.000010580000,2.58000
,,,-0.000010574999,2.60000
,,,-0.000010570000,2.56000
,,,-0.000010565000,2.60000
,,,-0.000010560000,2.58000
,,,-0.000010555000,2.56000
,,,-0.000010550000,2.58000
,,,-0.000010545000,2.56000
,,,-0.000010539999,2.58000
,,,-0.000010535000,2.62000
,,,-0.000010530000,2.56000
,,,-0.000010525000,2.58000
,,,-0.000010520000,2.58000
,,,-0.000010515000,2.60000
,,,-0.000010510000,2.54000
,,,-0.000010505000,2.54000
,,,-0.000010500000,2.56000
,,,-0.000010494999,2.58000
,,,-0.000010490000,2.54000
,,,-0.000010484999,2.56000
,,,-0.000010480000,2.54000
,,,-0.000010474999,2.54000
,,,-0.000010470000,2.54000
,,,-0.000010464999,2.52000
,,,-0.000010460000,2.56000
,,,-0.000010455000,2.52000
,,,-0.000010449999,2.50000
,,,-0.000010445000,2.52000
,,,-0.000010439999,2.52000
,,,-0.000010435000,2.52000
,,,-0.000010429999,2.48000
,,,-0.000010425000,2.52000
,,,-0.000010419999,2.50000
,,,-0.000010415000,2.48000
,,,-0.000010410000,2.48000
,,,-0.000010404999,2.50000
,,,-0.000010400000,2.48000
,,,-0.000010394999,2.48000
,,,-0.000010390000,2.48000
,,,-0.000010384999,2.46000
,,,-0.000010380000,2.50000
,,,-0.000010374999,2.44000
,,,-0.000010370000,2.48000
,,,-0.000010365000,2.52000
,,,-0.000010359999,2.42000
,,,-0.000010355000,2.44000
,,,-0.000010349999,2.48000
,,,-0.000010345000,2.48000
,,,-0.000010339999,2.48000
,,,-0.000010335000,2.44000
,,,-0.000010329999,2.46000
,,,-0.000010324999,2.46000
,,,-0.000010320000,2.44000
,,,-0.000010314999,2.46000
,,,-0.000010310000,2.42000
,,,-0.000010304999,2.46000
,,,-0.000010300000,2.46000
,,,-0.000010294999,2.46000
,,,-0.000010290000,2.48000
,,,-0.000010285000,2.44000
,,,-0.000010279999,2.48000
,,,-0.000010275000,2.46000
,,,-0.000010269999,2.44000
,,,-0.000010265000,2.46000
,,,-0.000010259999,2.42000
,,,-0.000010255000,2.44000
,,,-0.000010249999,2.48000
,,,-0.000010245000,2.46000
,,,-0.000010240000,2.48000
,,,-0.000010234999,2.46000
,,,-0.000010230000,2.42000
,,,-0.000010224999,2.48000
,,,-0.000010220000,2.48000
,,,-0.000010214999,2.42000
,,,-0.000010210000,2.48000
,,,-0.000010204999,2.50000
,,,-0.000010200000,2.46000
,,,-0.000010195000,2.48000
,,,-0.000010189999,2.48000
,,,-0.000010185000,2.50000
,,,-0.000010179999,2.48000
,,,-0.000010175000,2.46000
,,,-0.000010169999,2.50000
,,,-0.000010165000,2.50000
,,,-0.000010159999,2.54000
,,,-0.000010155000,2.52000
,,,-0.000010150000,2.50000
,,,-0.000010144999,2.52000
,,,-0.000010140000,2.48000
,,,-0.000010134999,2.52000
,,,-0.000010130000,2.58000
,,,-0.000010124999,2.54000
,,,-0.000010120000,2.52000
,,,-0.000010115000,2.58000
,,,-0.000010109999,2.58000
,,,-0.000010105000,2.56000
,,,-0.000010099999,2.56000
,,,-0.000010095000,2.58000
,,,-0.000010089999,2.60000
,,,-0.000010085000,2.56000
,,,-0.000010079999,2.58000
,,,-0.000010075000,2.62000
,,,-0.000010070000,2.62000
,,,-0.000010064999,2.56000
,,,-0.000010060000,2.62000
,,,-0.000010054999,2.64000
,,,-0.000010050000,2.64000
,,,-0.000010044999,2.58000
,,,-0.000010040000,2.64000
,,,-0.000010034999,2.66000
,,,-0.000010030000,2.64000
,,,-0.000010025000,2.66000
,,,-0.000010019999,2.64000
,,,-0.000010015000,2.66000
,,,-0.000010009999,2.66000
,,,-0.000010005000,2.68000
,,,-0.000009999999,2.66000
,,,-0.000009995000,2.68000
,,,-0.000009989999,2.72000
,,,-0.000009985000,2.70000
,,,-0.000009980000,2.70000
,,,-0.000009974999,2.70000
,,,-0.000009970000,2.74000
,,,-0.000009964999,2.70000
,,,-0.000009960000,2.72000
,,,-0.000009954999,2.76000
,,,-0.000009950000,2.72000
,,,-0.000009944999,2.72000
,,,-0.000009940000,2.80000
,,,-0.000009935000,2.66000
,,,-0.000009929999,2.74000
,,,-0.000009925000,2.82000
,,,-0.000009919999,2.74000
,,,-0.000009915000,2.74000
,,,-0.000009909999,2.80000
,,,-0.000009905000,2.78000
,,,-0.000009900000,2.74000
,,,-0.000009894999,2.78000
,,,-0.000009890000,2.82000
,,,-0.000009884999,2.82000
,,,-0.000009880000,2.80000
,,,-0.000009874999,2.76000
,,,-0.000009870000,2.80000
,,,-0.000009864999,2.84000
,,,-0.000009860000,2.80000
,,,-0.000009855000,2.82000
,,,-0.000009849999,2.84000
,,,-0.000009845000,2.76000
,,,-0.000009839999,2.82000
,,,-0.000009835000,2.86000
,,,-0.000009829999,2.80000
,,,-0.000009825000,2.82000
,,,-0.000009819999,2.80000
,,,-0.000009815000,2.84000
,,,-0.000009810000,2.88000
,,,-0.000009804999,2.84000
,,,-0.000009800000,2.76000
,,,-0.000009794999,2.82000
,,,-0.000009790000,2.86000
,,,-0.000009784999,2.86000
,,,-0.000009780000,2.82000
,,,-0.000009774999,2.84000
,,,-0.000009770000,2.84000
,,,-0.000009765000,2.82000
,,,-0.000009759999,2.82000
,,,-0.000009755000,2.84000
,,,-0.000009749999,2.88000
,,,-0.000009745000,2.86000
,,,-0.000009739999,2.80000
,,,-0.000009735000,2.82000
,,,-0.000009729999,2.90000
,,,-0.000009725000,2.82000
,,,-0.000009720000,2.80000
,,,-0.000009714999,2.82000
,,,-0.000009710000,2.88000
,,,-0.000009704999,2.78000
,,,-0.000009700000,2.84000
,,,-0.000009694999,2.84000
,,,-0.000009690000,2.84000
,,,-0.000009685000,2.86000
,,,-0.000009679999,2.82000
,,,-0.000009675000,2.84000
,,,-0.000009669999,2.80000
,,,-0.000009665000,2.82000
,,,-0.000009659999,2.82000
,,,-0.000009655000,2.82000
,,,-0.000009649999,2.80000
,,,-0.000009645000,2.84000
,,,-0.000009640000,2.80000
,,,-0.000009634999,2.84000
,,,-0.000009630000,2.84000
,,,-0.000009624999,2.80000
,,,-0.000009620000,2.80000
,,,-0.000009614999,2.76000
,,,-0.000009610000,2.82000
,,,-0.000009604999,2.82000
,,,-0.000009600000,2.80000
,,,-0.000009595000,2.78000
,,,-0.000009589999,2.80000
,,,-0.000009585000,2.82000
,,,-0.000009579999,2.74000
,,,-0.000009575000,2.80000
,,,-0.000009569999,2.80000
,,,-0.000009565000,2.78000
,,,-0.000009559999,2.80000
,,,-0.000009555000,2.82000
,,,-0.000009550000,2.80000
,,,-0.000009544999,2.82000
,,,-0.000009540000,2.76000
,,,-0.000009534999,2.78000
,,,-0.000009530000,2.80000
,,,-0.000009524999,2.78000
,,,-0.000009520000,2.82000
,,,-0.000009514999,2.78000
,,,-0.000009510000,2.74000
,,,-0.000009505000,2.78000
,,,-0.000009499999,2.80000
,,,-0.000009495000,2.76000
,,,-0.000009489999,2.78000
,,,-0.000009485000,2.76000
,,,-0.000009479999,2.78000
,,,-0.000009475000,2.76000
