capturas-osciloscopio/17-11-22/WA000068.CSV

Record Length,9216,,Source,CH1
Sample Interval,0.0000000040000,,Second,Volt
Vertical Units,CH1:V,,-0.00001843200,0.00320
Vertical Scale,CH1:0.02,,-0.00001842800,0.00320
Vertical Offset,CH1:0.04160,,-0.00001842400,0.00320
Horizontal Units,s,,-0.00001842000,0.00240
Horizontal Scale,0.0000025000,,-0.00001841600,0.00320
Model Number,WaveAce212,,-0.00001841200,0.00240
Serial Number,LCRY2101C02669,,-0.00001840800,0.00320
Software Version,2.06.02.19,,-0.00001840400,0.00240
,,,-0.00001840000,0.00320
,,,-0.00001839600,0.00240
,,,-0.00001839200,0.00320
,,,-0.00001838800,0.00240
,,,-0.00001838400,0.00320
,,,-0.00001838000,0.00320
,,,-0.00001837600,0.00240
,,,-0.00001837200,0.00240
,,,-0.00001836800,0.00240
,,,-0.00001836400,0.00320
,,,-0.00001836000,0.00240
,,,-0.00001835600,0.00240
,,,-0.00001835200,0.00240
,,,-0.00001834800,0.00320
,,,-0.00001834400,0.00240
,,,-0.00001834000,0.00320
,,,-0.00001833600,0.00320
,,,-0.00001833200,0.00240
,,,-0.00001832800,0.00240
,,,-0.00001832400,0.00240
,,,-0.00001832000,0.00240
,,,-0.00001831600,0.00320
,,,-0.00001831200,0.00320
,,,-0.00001830800,0.00320
,,,-0.00001830400,0.00240
,,,-0.00001830000,0.00320
,,,-0.00001829600,0.00320
,,,-0.00001829200,0.00240
,,,-0.00001828800,0.00320
,,,-0.00001828400,0.00240
,,,-0.00001828000,0.00240
,,,-0.00001827600,0.00320
,,,-0.00001827200,0.00320
,,,-0.00001826800,0.00240
,,,-0.00001826400,0.00320
,,,-0.00001826000,0.00240
,,,-0.00001825600,0.00240
,,,-0.00001825200,0.00240
,,,-0.00001824800,0.00320
,,,-0.00001824400,0.00240
,,,-0.00001824000,0.00320
,,,-0.00001823600,0.00240
,,,-0.00001823200,0.00240
,,,-0.00001822800,0.00240
,,,-0.00001822400,0.00240
,,,-0.00001822000,0.00320
,,,-0.00001821600,0.00240
,,,-0.00001821200,0.00240
,,,-0.00001820800,0.00320
,,,-0.00001820400,0.00160
,,,-0.00001820000,0.00320
,,,-0.00001819600,0.00240
,,,-0.00001819200,0.00240
,,,-0.00001818800,0.00240
,,,-0.00001818400,0.00240
,,,-0.00001818000,0.00320
,,,-0.00001817600,0.00320
,,,-0.00001817200,0.00240
,,,-0.00001816800,0.00240
,,,-0.00001816400,0.00320
,,,-0.00001816000,0.00320
,,,-0.00001815600,0.00240
,,,-0.00001815200,0.00240
,,,-0.00001814800,0.00240
,,,-0.00001814400,0.00320
,,,-0.00001814000,0.00320
,,,-0.00001813600,0.00240
,,,-0.00001813200,0.00320
,,,-0.00001812800,0.00240
,,,-0.00001812400,0.00240
,,,-0.00001812000,0.00240
,,,-0.00001811600,0.00320
,,,-0.00001811200,0.00320
,,,-0.00001810800,0.00240
,,,-0.00001810400,0.00320
,,,-0.00001810000,0.00240
,,,-0.00001809600,0.00320
,,,-0.00001809200,0.00320
,,,-0.00001808800,0.00320
,,,-0.00001808400,0.00240
,,,-0.00001808000,0.00320
,,,-0.00001807600,0.00400
,,,-0.00001807200,0.00320
,,,-0.00001806800,0.00320
,,,-0.00001806400,0.00320
,,,-0.00001806000,0.00320
,,,-0.00001805600,0.00320
,,,-0.00001805200,0.00240
,,,-0.00001804800,0.00240
,,,-0.00001804400,0.00320
,,,-0.00001804000,0.00320
,,,-0.00001803600,0.00320
,,,-0.00001803200,0.00320
,,,-0.00001802800,0.00400
,,,-0.00001802400,0.00320
,,,-0.00001802000,0.00240
,,,-0.00001801600,0.00320
,,,-0.00001801200,0.00240
,,,-0.00001800800,0.00240
,,,-0.00001800400,0.00240
,,,-0.00001800000,0.00320
,,,-0.00001799600,0.00320
,,,-0.00001799200,0.00400
,,,-0.00001798800,0.00320
,,,-0.00001798400,0.00320
,,,-0.00001798000,0.00320
,,,-0.00001797600,0.00320
,,,-0.00001797200,0.00320
,,,-0.00001796800,0.00320
,,,-0.00001796400,0.00320
,,,-0.00001796000,0.00240
,,,-0.00001795600,0.00240
,,,-0.00001795200,0.00320
,,,-0.00001794800,0.00320
,,,-0.00001794400,0.00240
,,,-0.00001794000,0.00240
,,,-0.00001793600,0.00320
,,,-0.00001793200,0.00320
,,,-0.00001792800,0.00320
,,,-0.00001792400,0.00320
,,,-0.00001792000,0.00240
,,,-0.00001791600,0.00320
,,,-0.00001791200,0.00240
,,,-0.00001790800,0.00320
,,,-0.00001790400,0.00320
,,,-0.00001790000,0.00320
,,,-0.00001789600,0.00240
,,,-0.00001789200,0.00320
,,,-0.00001788800,0.00320
,,,-0.00001788400,0.00320
,,,-0.00001788000,0.00320
,,,-0.00001787600,0.00320
,,,-0.00001787200,0.00320
,,,-0.00001786800,0.00240
,,,-0.00001786400,0.00240
,,,-0.00001786000,0.00240
,,,-0.00001785600,0.00320
,,,-0.00001785200,0.00320
,,,-0.00001784800,0.00320
,,,-0.00001784400,0.00240
,,,-0.00001784000,0.00320
,,,-0.00001783600,0.00320
,,,-0.00001783200,0.00240
,,,-0.00001782800,0.00240
,,,-0.00001782400,0.00240
,,,-0.00001782000,0.00240
,,,-0.00001781600,0.00240
,,,-0.00001781200,0.00240
,,,-0.00001780800,0.00240
,,,-0.00001780400,0.00320
,,,-0.00001780000,0.00240
,,,-0.00001779600,0.00320
,,,-0.00001779200,0.00240
,,,-0.00001778800,0.00240
,,,-0.00001778400,0.00320
,,,-0.00001778000,0.00240
,,,-0.00001777600,0.00320
,,,-0.00001777200,0.00320
,,,-0.00001776800,0.00240
,,,-0.00001776400,0.00240
,,,-0.00001776000,0.00320
,,,-0.00001775600,0.00320
,,,-0.00001775200,0.00240
,,,-0.00001774800,0.00320
,,,-0.00001774400,0.00320
,,,-0.00001774000,0.00320
,,,-0.00001773600,0.00240
,,,-0.00001773200,0.00320
,,,-0.00001772800,0.00320
,,,-0.00001772400,0.00320
,,,-0.00001772000,0.00320
,,,-0.00001771600,0.00240
,,,-0.00001771200,0.00240
,,,-0.00001770800,0.00320
,,,-0.00001770400,0.00320
,,,-0.00001770000,0.00320
,,,-0.00001769600,0.00320
,,,-0.00001769200,0.00320
,,,-0.00001768800,0.00240
,,,-0.00001768400,0.00240
,,,-0.00001768000,0.00240
,,,-0.00001767600,0.00320
,,,-0.00001767200,0.00320
,,,-0.00001766800,0.00240
,,,-0.00001766400,0.00320
,,,-0.00001766000,0.00240
,,,-0.00001765600,0.00240
,,,-0.00001765200,0.00240
,,,-0.00001764800,0.00320
,,,-0.00001764400,0.00400
,,,-0.00001764000,0.00240
,,,-0.00001763600,0.00240
,,,-0.00001763200,0.00320
,,,-0.00001762800,0.00320
,,,-0.00001762400,0.00320
,,,-0.00001762000,0.00320
,,,-0.00001761600,0.00240
,,,-0.00001761200,0.00240
,,,-0.00001760800,0.00320
,,,-0.00001760400,0.00240
,,,-0.00001760000,0.00320
,,,-0.00001759600,0.00320
,,,-0.00001759200,0.00320
,,,-0.00001758800,0.00320
,,,-0.00001758400,0.00320
,,,-0.00001758000,0.00240
,,,-0.00001757600,0.00320
,,,-0.00001757200,0.00320
,,,-0.00001756800,0.00320
,,,-0.00001756400,0.00320
,,,-0.00001756000,0.00240
,,,-0.00001755600,0.00240
,,,-0.00001755200,0.00320
,,,-0.00001754800,0.00320
,,,-0.00001754400,0.00320
,,,-0.00001754000,0.00320
,,,-0.00001753600,0.00320
,,,-0.00001753200,0.00320
,,,-0.00001752800,0.00320
,,,-0.00001752400,0.00320
,,,-0.00001752000,0.00320
,,,-0.00001751600,0.00240
,,,-0.00001751200,0.00240
,,,-0.00001750800,0.00400
,,,-0.00001750400,0.00320
,,,-0.00001750000,0.00240
,,,-0.00001749600,0.00320
,,,-0.00001749200,0.00240
,,,-0.00001748800,0.00240
,,,-0.00001748400,0.00240
,,,-0.00001748000,0.00320
,,,-0.00001747600,0.00320
,,,-0.00001747200,0.00240
,,,-0.00001746800,0.00320
,,,-0.00001746400,0.00240
,,,-0.00001746000,0.00320
,,,-0.00001745600,0.00320
,,,-0.00001745200,0.00320
,,,-0.00001744800,0.00320
,,,-0.00001744400,0.00320
,,,-0.00001744000,0.00320
,,,-0.00001743600,0.00400
,,,-0.00001743200,0.00320
,,,-0.00001742800,0.00320
,,,-0.00001742400,0.00320
,,,-0.00001742000,0.00320
,,,-0.00001741600,0.00320
,,,-0.00001741200,0.00320
,,,-0.00001740800,0.00320
,,,-0.00001740400,0.00400
,,,-0.00001740000,0.00320
,,,-0.00001739600,0.00240
,,,-0.00001739200,0.00320
,,,-0.00001738800,0.00320
,,,-0.00001738400,0.00320
,,,-0.00001738000,0.00320
,,,-0.00001737600,0.00240
,,,-0.00001737200,0.00320
,,,-0.00001736800,0.00240
,,,-0.00001736400,0.00240
,,,-0.00001736000,0.00240
,,,-0.00001735600,0.00320
,,,-0.00001735200,0.00240
,,,-0.00001734800,0.00240
,,,-0.00001734400,0.00240
,,,-0.00001734000,0.00240
,,,-0.00001733600,0.00240
,,,-0.00001733200,0.00240
,,,-0.00001732800,0.00320
,,,-0.00001732400,0.00240
,,,-0.00001732000,0.00240
,,,-0.00001731600,0.00320
,,,-0.00001731200,0.00240
,,,-0.00001730800,0.00320
,,,-0.00001730400,0.00320
,,,-0.00001730000,0.00320
,,,-0.00001729600,0.00240
,,,-0.00001729200,0.00320
,,,-0.00001728800,0.00320
,,,-0.00001728400,0.00320
,,,-0.00001728000,0.00320
,,,-0.00001727600,0.00240
,,,-0.00001727200,0.00320
,,,-0.00001726800,0.00240
,,,-0.00001726400,0.00240
,,,-0.00001726000,0.00240
,,,-0.00001725600,0.00240
,,,-0.00001725200,0.00240
,,,-0.00001724800,0.00320
,,,-0.00001724400,0.00240
,,,-0.00001724000,0.00320
,,,-0.00001723600,0.00320
,,,-0.00001723200,0.00320
,,,-0.00001722800,0.00320
,,,-0.00001722400,0.00320
,,,-0.00001722000,0.00320
,,,-0.00001721600,0.00320
,,,-0.00001721200,0.00240
,,,-0.00001720800,0.00240
,,,-0.00001720400,0.00320
,,,-0.00001720000,0.00240
,,,-0.00001719600,0.00320
,,,-0.00001719200,0.00240
,,,-0.00001718800,0.00240
,,,-0.00001718400,0.00240
,,,-0.00001718000,0.00240
,,,-0.00001717600,0.00320
,,,-0.00001717200,0.00240
,,,-0.00001716800,0.00240
,,,-0.00001716400,0.00320
,,,-0.00001716000,0.00240
,,,-0.00001715600,0.00240
,,,-0.00001715200,0.00240
,,,-0.00001714800,0.00240
,,,-0.00001714400,0.00320
,,,-0.00001714000,0.00320
,,,-0.00001713600,0.00240
,,,-0.00001713200,0.00240
,,,-0.00001712800,0.00240
,,,-0.00001712400,0.00240
,,,-0.00001712000,0.00240
,,,-0.00001711600,0.00320
,,,-0.00001711200,0.00320
,,,-0.00001710800,0.00240
,,,-0.00001710400,0.00320
,,,-0.00001710000,0.00240
,,,-0.00001709600,0.00240
,,,-0.00001709200,0.00240
,,,-0.00001708800,0.00240
,,,-0.00001708400,0.00320
,,,-0.00001708000,0.00240
,,,-0.00001707600,0.00240
,,,-0.00001707200,0.00240
,,,-0.00001706800,0.00240
,,,-0.00001706400,0.00240
,,,-0.00001706000,0.00240
,,,-0.00001705600,0.00240
,,,-0.00001705200,0.00320
,,,-0.00001704800,0.00240
,,,-0.00001704400,0.00320
,,,-0.00001704000,0.00240
,,,-0.00001703600,0.00240
,,,-0.00001703200,0.00320
,,,-0.00001702800,0.00240
,,,-0.00001702400,0.00240
,,,-0.00001702000,0.00240
,,,-0.00001701600,0.00320
,,,-0.00001701200,0.00240
,,,-0.00001700800,0.00320
,,,-0.00001700400,0.00240
,,,-0.00001700000,0.00320
,,,-0.00001699600,0.00320
,,,-0.00001699200,0.00320
,,,-0.00001698800,0.00320
,,,-0.00001698400,0.00320
,,,-0.00001698000,0.00240
,,,-0.00001697600,0.00240
,,,-0.00001697200,0.00240
,,,-0.00001696800,0.00320
,,,-0.00001696400,0.00240
,,,-0.00001696000,0.00320
,,,-0.00001695600,0.00320
,,,-0.00001695200,0.00320
,,,-0.00001694800,0.00240
,,,-0.00001694400,0.00320
,,,-0.00001694000,0.00320
,,,-0.00001693600,0.00240
,,,-0.00001693200,0.00240
,,,-0.00001692800,0.00240
,,,-0.00001692400,0.00320
,,,-0.00001692000,0.00320
,,,-0.00001691600,0.00320
,,,-0.00001691200,0.00240
,,,-0.00001690800,0.00320
,,,-0.00001690400,0.00320
,,,-0.00001690000,0.00240
,,,-0.00001689600,0.00320
,,,-0.00001689200,0.00240
,,,-0.00001688800,0.00240
,,,-0.00001688400,0.00240
,,,-0.00001688000,0.00240
,,,-0.00001687600,0.00320
,,,-0.00001687200,0.00240
,,,-0.00001686800,0.00320
,,,-0.00001686400,0.00240
,,,-0.00001686000,0.00240
,,,-0.00001685600,0.00320
,,,-0.00001685200,0.00240
,,,-0.00001684800,0.00320
,,,-0.00001684400,0.00240
,,,-0.00001684000,0.00240
,,,-0.00001683600,0.00240
,,,-0.00001683200,0.00320
,,,-0.00001682800,0.00240
,,,-0.00001682400,0.00320
,,,-0.00001682000,0.00240
,,,-0.00001681600,0.00240
,,,-0.00001681200,0.00320
,,,-0.00001680800,0.00320
,,,-0.00001680400,0.00240
,,,-0.00001680000,0.00320
,,,-0.00001679600,0.00320
,,,-0.00001679200,0.00240
,,,-0.00001678800,0.00320
,,,-0.00001678400,0.00320
,,,-0.00001678000,0.00320
,,,-0.00001677600,0.00240
,,,-0.00001677200,0.00240
,,,-0.00001676800,0.00240
,,,-0.00001676400,0.00240
,,,-0.00001676000,0.00240
,,,-0.00001675600,0.00240
,,,-0.00001675200,0.00240
,,,-0.00001674800,0.00240
,,,-0.00001674400,0.00240
,,,-0.00001674000,0.00320
,,,-0.00001673600,0.00320
,,,-0.00001673200,0.00240
,,,-0.00001672800,0.00160
,,,-0.00001672400,0.00320
,,,-0.00001672000,0.00240
,,,-0.00001671600,0.00240
,,,-0.00001671200,0.00320
,,,-0.00001670800,0.00240
,,,-0.00001670400,0.00240
,,,-0.00001670000,0.00240
,,,-0.00001669600,0.00320
,,,-0.00001669200,0.00320
,,,-0.00001668800,0.00320
,,,-0.00001668400,0.00240
,,,-0.00001668000,0.00320
,,,-0.00001667600,0.00320
,,,-0.00001667200,0.00320
,,,-0.00001666800,0.00240
,,,-0.00001666400,0.00320
,,,-0.00001666000,0.00320
,,,-0.00001665600,0.00240
,,,-0.00001665200,0.00240
,,,-0.00001664800,0.00320
,,,-0.00001664400,0.00320
,,,-0.00001664000,0.00320
,,,-0.00001663600,0.00320
,,,-0.00001663200,0.00240
,,,-0.00001662800,0.00240
,,,-0.00001662400,0.00320
,,,-0.00001662000,0.00240
,,,-0.00001661600,0.00320
,,,-0.00001661200,0.00240
,,,-0.00001660800,0.00320
,,,-0.00001660400,0.00240
,,,-0.00001660000,0.00240
,,,-0.00001659600,0.00240
,,,-0.00001659200,0.00320
,,,-0.00001658800,0.00240
,,,-0.00001658400,0.00320
,,,-0.00001658000,0.00320
,,,-0.00001657600,0.00240
,,,-0.00001657200,0.00240
,,,-0.00001656800,0.00240
,,,-0.00001656400,0.00320
,,,-0.00001656000,0.00320
,,,-0.00001655600,0.00240
,,,-0.00001655200,0.00240
,,,-0.00001654800,0.00240
,,,-0.00001654400,0.00320
,,,-0.00001654000,0.00320
,,,-0.00001653600,0.00240
,,,-0.00001653200,0.00240
,,,-0.00001652800,0.00240
,,,-0.00001652400,0.00320
,,,-0.00001652000,0.00320
,,,-0.00001651600,0.00240
,,,-0.00001651200,0.00240
,,,-0.00001650800,0.00240
,,,-0.00001650400,0.00320
,,,-0.00001650000,0.00240
,,,-0.00001649600,0.00320
,,,-0.00001649200,0.00320
,,,-0.00001648800,0.00240
,,,-0.00001648400,0.00240
,,,-0.00001648000,0.00240
,,,-0.00001647600,0.00400
,,,-0.00001647200,0.00240
,,,-0.00001646800,0.00240
,,,-0.00001646400,0.00240
,,,-0.00001646000,0.00240
,,,-0.00001645600,0.00320
,,,-0.00001645200,0.00240
,,,-0.00001644800,0.00240
,,,-0.00001644400,0.00320
,,,-0.00001644000,0.00240
,,,-0.00001643600,0.00240
,,,-0.00001643200,0.00240
,,,-0.00001642800,0.00320
,,,-0.00001642400,0.00240
,,,-0.00001642000,0.00240
,,,-0.00001641600,0.00240
,,,-0.00001641200,0.00320
,,,-0.00001640800,0.00160
,,,-0.00001640400,0.00240
,,,-0.00001640000,0.00320
,,,-0.00001639600,0.00320
,,,-0.00001639200,0.00320
,,,-0.00001638800,0.00320
,,,-0.00001638400,0.00320
,,,-0.00001638000,0.00240
,,,-0.00001637600,0.00320
,,,-0.00001637200,0.00320
,,,-0.00001636800,0.00320
,,,-0.00001636400,0.00320
,,,-0.00001636000,0.00320
,,,-0.00001635600,0.00320
,,,-0.00001635200,0.00240
,,,-0.00001634800,0.00320
,,,-0.00001634400,0.00320
,,,-0.00001634000,0.00240
,,,-0.00001633600,0.00320
,,,-0.00001633200,0.00320
,,,-0.00001632800,0.00240
,,,-0.00001632400,0.00240
,,,-0.00001632000,0.00320
,,,-0.00001631600,0.00320
,,,-0.00001631200,0.00240
,,,-0.00001630800,0.00320
,,,-0.00001630400,0.00240
,,,-0.00001630000,0.00320
,,,-0.00001629600,0.00240
,,,-0.00001629200,0.00320
,,,-0.00001628800,0.00320
,,,-0.00001628400,0.00320
,,,-0.00001628000,0.00240
,,,-0.00001627600,0.00240
,,,-0.00001627200,0.00320
,,,-0.00001626800,0.00320
,,,-0.00001626400,0.00240
,,,-0.00001626000,0.00320
,,,-0.00001625600,0.00240
,,,-0.00001625200,0.00240
,,,-0.00001624800,0.00240
,,,-0.00001624400,0.00240
,,,-0.00001624000,0.00240
,,,-0.00001623600,0.00320
,,,-0.00001623200,0.00240
,,,-0.00001622800,0.00320
,,,-0.00001622400,0.00240
,,,-0.00001622000,0.00240
,,,-0.00001621600,0.00240
,,,-0.00001621200,0.00240
,,,-0.00001620800,0.00320
,,,-0.00001620400,0.00320
,,,-0.00001620000,0.00240
,,,-0.00001619600,0.00320
,,,-0.00001619200,0.00240
,,,-0.00001618800,0.00320
,,,-0.00001618400,0.00240
,,,-0.00001618000,0.00320
,,,-0.00001617600,0.00240
,,,-0.00001617200,0.00240
,,,-0.00001616800,0.00320
,,,-0.00001616400,0.00240
,,,-0.00001616000,0.00240
,,,-0.00001615600,0.00240
,,,-0.00001615200,0.00240
,,,-0.00001614800,0.00240
,,,-0.00001614400,0.00240
,,,-0.00001614000,0.00320
,,,-0.00001613600,0.00320
,,,-0.00001613200,0.00320
,,,-0.00001612800,0.00320
,,,-0.00001612400,0.00240
,,,-0.00001612000,0.00320
,,,-0.00001611600,0.00240
,,,-0.00001611200,0.00240
,,,-0.00001610800,0.00240
,,,-0.00001610400,0.00240
,,,-0.00001610000,0.00240
,,,-0.00001609600,0.00240
,,,-0.00001609200,0.00240
,,,-0.00001608800,0.00160
,,,-0.00001608400,0.00160
,,,-0.00001608000,0.00080
,,,-0.00001607600,-0.00080
,,,-0.00001607200,-0.00560
,,,-0.00001606800,-0.01600
,,,-0.00001606400,-0.03520
,,,-0.00001606000,-0.05520
,,,-0.00001605600,-0.07520
,,,-0.00001605200,-0.08800
,,,-0.00001604800,-0.09680
,,,-0.00001604400,-0.10160
,,,-0.00001604000,-0.10480
,,,-0.00001603600,-0.10480
,,,-0.00001603200,-0.10400
,,,-0.00001602800,-0.09920
,,,-0.00001602400,-0.09600
,,,-0.00001602000,-0.09200
,,,-0.00001601600,-0.08560
,,,-0.00001601200,-0.08320
,,,-0.00001600800,-0.08000
,,,-0.00001600400,-0.07840
,,,-0.00001600000,-0.07680
,,,-0.00001599600,-0.07600
,,,-0.00001599200,-0.07440
,,,-0.00001598800,-0.07440
,,,-0.00001598400,-0.07360
,,,-0.00001598000,-0.07280
,,,-0.00001597600,-0.07200
,,,-0.00001597200,-0.07120
,,,-0.00001596800,-0.07040
,,,-0.00001596400,-0.06880
,,,-0.00001596000,-0.06800
,,,-0.00001595600,-0.06800
,,,-0.00001595200,-0.06640
,,,-0.00001594800,-0.06640
,,,-0.00001594400,-0.06480
,,,-0.00001594000,-0.06400
,,,-0.00001593600,-0.06400
,,,-0.00001593200,-0.06160
,,,-0.00001592800,-0.06240
,,,-0.00001592400,-0.06160
,,,-0.00001592000,-0.06000
,,,-0.00001591600,-0.05520
,,,-0.00001591200,-0.05200
,,,-0.00001590800,-0.04560
,,,-0.00001590400,-0.03840
,,,-0.00001590000,-0.03040
,,,-0.00001589600,-0.02160
,,,-0.00001589200,-0.01280
,,,-0.00001588800,-0.00560
,,,-0.00001588400,0.00160
,,,-0.00001588000,0.00720
,,,-0.00001587600,0.01200
,,,-0.00001587200,0.01360
,,,-0.00001586800,0.01440
,,,-0.00001586400,0.01600
,,,-0.00001586000,0.01840
,,,-0.00001585600,0.01920
,,,-0.00001585200,0.01920
,,,-0.00001584800,0.01760
,,,-0.00001584400,0.01680
,,,-0.00001584000,0.01680
,,,-0.00001583600,0.01600
,,,-0.00001583200,0.01520
,,,-0.00001582800,0.01360
,,,-0.00001582400,0.01200
,,,-0.00001582000,0.01120
,,,-0.00001581600,0.00960
,,,-0.00001581200,0.00800
,,,-0.00001580800,0.00640
,,,-0.00001580400,0.00320
,,,-0.00001580000,0.00160
,,,-0.00001579600,0.00080
,,,-0.00001579200,0.00
,,,-0.00001578800,0.00
,,,-0.00001578400,0.00
,,,-0.00001578000,0.00
,,,-0.00001577600,0.00
,,,-0.00001577200,-0.00080
,,,-0.00001576800,-0.00080
,,,-0.00001576400,-0.00160
,,,-0.00001576000,-0.00160
,,,-0.00001575600,-0.00160
,,,-0.00001575200,-0.00160
,,,-0.00001574800,-0.00160
,,,-0.00001574400,-0.00160
,,,-0.00001574000,-0.00240
,,,-0.00001573600,-0.00240
,,,-0.00001573200,-0.00160
,,,-0.00001572800,-0.00080
,,,-0.00001572400,0.00
,,,-0.00001572000,0.00080
,,,-0.00001571600,0.00
,,,-0.00001571200,0.00
,,,-0.00001570800,0.00
,,,-0.00001570400,0.00
,,,-0.00001570000,-0.00080
,,,-0.00001569600,-0.00320
,,,-0.00001569200,-0.00320
,,,-0.00001568800,-0.00320
,,,-0.00001568400,-0.00400
,,,-0.00001568000,-0.00400
,,,-0.00001567600,-0.00400
,,,-0.00001567200,-0.00480
,,,-0.00001566800,-0.00560
,,,-0.00001566400,-0.00720
,,,-0.00001566000,-0.00640
,,,-0.00001565600,-0.00640
,,,-0.00001565200,-0.00640
,,,-0.00001564800,-0.00560
,,,-0.00001564400,-0.00480
,,,-0.00001564000,-0.00560
,,,-0.00001563600,-0.00480
,,,-0.00001563200,-0.00480
,,,-0.00001562800,-0.00480
,,,-0.00001562400,-0.00400
,,,-0.00001562000,-0.00400
,,,-0.00001561600,-0.00400
,,,-0.00001561200,-0.00320
,,,-0.00001560800,-0.00400
,,,-0.00001560400,-0.00240
,,,-0.00001560000,-0.00160
,,,-0.00001559600,-0.00160
,,,-0.00001559200,-0.00080
,,,-0.00001558800,-0.00080
,,,-0.00001558400,0.00080
,,,-0.00001558000,0.00160
,,,-0.00001557600,0.00080
,,,-0.00001557200,0.00160
,,,-0.00001556800,0.00240
,,,-0.00001556400,0.00240
,,,-0.00001556000,0.00240
,,,-0.00001555600,0.00320
,,,-0.00001555200,0.00320
,,,-0.00001554800,0.00320
,,,-0.00001554400,0.00320
,,,-0.00001554000,0.00400
,,,-0.00001553600,0.00480
,,,-0.00001553200,0.00480
,,,-0.00001552800,0.00640
,,,-0.00001552400,0.00640
,,,-0.00001552000,0.00640
,,,-0.00001551600,0.00720
,,,-0.00001551200,0.00720
,,,-0.00001550800,0.00720
,,,-0.00001550400,0.00800
,,,-0.00001550000,0.00800
,,,-0.00001549600,0.00720
,,,-0.00001549200,0.00640
,,,-0.00001548800,0.00480
,,,-0.00001548400,0.00320
,,,-0.00001548000,0.00240
,,,-0.00001547600,0.00080
,,,-0.00001547200,0.00080
,,,-0.00001546800,0.00080
,,,-0.00001546400,0.00080
,,,-0.00001546000,0.00080
,,,-0.00001545600,0.00
,,,-0.00001545200,-0.00080
,,,-0.00001544800,-0.00080
,,,-0.00001544400,0.00
,,,-0.00001544000,0.00
,,,-0.00001543600,0.00
,,,-0.00001543200,-0.00080
,,,-0.00001542800,-0.00080
,,,-0.00001542400,-0.00080
,,,-0.00001542000,-0.00080
,,,-0.00001541600,-0.00160
,,,-0.00001541200,-0.00160
