capturas-osciloscopio/17-11-22/WA000008.CSV

Record Length,4096,,Source,CH1
Sample Interval,0.0000000050000,,Second,Volt
Vertical Units,CH1:V,,-0.000007000000,5.68000
Vertical Scale,CH1:2.00,,-0.000006995000,5.76000
Vertical Offset,CH1:0.00,,-0.000006989999,5.84000
Horizontal Units,s,,-0.000006984999,5.68000
Horizontal Scale,0.0000010000,,-0.000006980000,5.60000
Model Number,WaveAce112,,-0.000006975000,5.68000
Serial Number,LCRY2101C02399,,-0.000006970000,5.84000
Software Version,2.07.02.16,,-0.000006965000,5.76000
,,,-0.000006960000,5.84000
,,,-0.000006955000,5.68000
,,,-0.000006950000,5.76000
,,,-0.000006944999,5.68000
,,,-0.000006939999,5.60000
,,,-0.000006935000,5.76000
,,,-0.000006930000,5.76000
,,,-0.000006925000,5.68000
,,,-0.000006920000,5.76000
,,,-0.000006915000,5.76000
,,,-0.000006910000,5.68000
,,,-0.000006904999,5.68000
,,,-0.000006899999,5.92000
,,,-0.000006895000,5.76000
,,,-0.000006890000,5.68000
,,,-0.000006885000,5.84000
,,,-0.000006880000,5.84000
,,,-0.000006875000,5.60000
,,,-0.000006870000,5.68000
,,,-0.000006865000,5.84000
,,,-0.000006859999,5.68000
,,,-0.000006854999,5.76000
,,,-0.000006850000,5.68000
,,,-0.000006845000,5.60000
,,,-0.000006840000,5.84000
,,,-0.000006835000,5.60000
,,,-0.000006830000,5.84000
,,,-0.000006825000,5.68000
,,,-0.000006820000,5.68000
,,,-0.000006814999,5.84000
,,,-0.000006810000,5.76000
,,,-0.000006805000,5.68000
,,,-0.000006800000,5.68000
,,,-0.000006795000,5.68000
,,,-0.000006790000,5.76000
,,,-0.000006785000,5.68000
,,,-0.000006780000,5.76000
,,,-0.000006774999,5.76000
,,,-0.000006769999,5.52000
,,,-0.000006765000,5.60000
,,,-0.000006760000,5.76000
,,,-0.000006755000,5.60000
,,,-0.000006750000,5.76000
,,,-0.000006745000,5.60000
,,,-0.000006740000,5.76000
,,,-0.000006735000,5.68000
,,,-0.000006729999,5.68000
,,,-0.000006724999,5.68000
,,,-0.000006720000,5.52000
,,,-0.000006715000,5.60000
,,,-0.000006710000,5.76000
,,,-0.000006705000,5.60000
,,,-0.000006700000,5.76000
,,,-0.000006695000,5.76000
,,,-0.000006689999,5.52000
,,,-0.000006684999,5.76000
,,,-0.000006680000,5.60000
,,,-0.000006675000,5.60000
,,,-0.000006670000,5.68000
,,,-0.000006665000,5.60000
,,,-0.000006660000,5.60000
,,,-0.000006655000,5.68000
,,,-0.000006650000,5.52000
,,,-0.000006644999,5.68000
,,,-0.000006639999,5.60000
,,,-0.000006635000,5.36000
,,,-0.000006630000,5.60000
,,,-0.000006625000,5.60000
,,,-0.000006620000,5.60000
,,,-0.000006615000,5.60000
,,,-0.000006610000,5.52000
,,,-0.000006605000,5.52000
,,,-0.000006599999,5.52000
,,,-0.000006595000,5.36000
,,,-0.000006590000,5.52000
,,,-0.000006585000,5.60000
,,,-0.000006580000,5.52000
,,,-0.000006575000,5.44000
,,,-0.000006570000,5.52000
,,,-0.000006565000,5.52000
,,,-0.000006559999,5.52000
,,,-0.000006554999,5.52000
,,,-0.000006550000,5.28000
,,,-0.000006545000,5.36000
,,,-0.000006540000,5.52000
,,,-0.000006535000,5.36000
,,,-0.000006530000,5.52000
,,,-0.000006525000,5.36000
,,,-0.000006520000,5.44000
,,,-0.000006514999,5.36000
,,,-0.000006510000,5.52000
,,,-0.000006505000,5.44000
,,,-0.000006500000,5.28000
,,,-0.000006495000,5.36000
,,,-0.000006490000,5.28000
,,,-0.000006485000,5.36000
,,,-0.000006480000,5.28000
,,,-0.000006474999,5.36000
,,,-0.000006469999,5.28000
,,,-0.000006465000,5.20000
,,,-0.000006460000,5.28000
,,,-0.000006455000,5.44000
,,,-0.000006450000,5.20000
,,,-0.000006445000,5.28000
,,,-0.000006440000,5.28000
,,,-0.000006435000,5.36000
,,,-0.000006429999,5.20000
,,,-0.000006424999,5.12000
,,,-0.000006420000,5.28000
,,,-0.000006415000,5.36000
,,,-0.000006410000,5.20000
,,,-0.000006405000,5.04000
,,,-0.000006400000,5.20000
,,,-0.000006395000,5.28000
,,,-0.000006390000,5.20000
,,,-0.000006384999,5.12000
,,,-0.000006380000,5.12000
,,,-0.000006375000,5.12000
,,,-0.000006370000,5.12000
,,,-0.000006365000,5.12000
,,,-0.000006360000,5.20000
,,,-0.000006355000,5.04000
,,,-0.000006350000,4.96000
,,,-0.000006344999,5.04000
,,,-0.000006339999,5.12000
,,,-0.000006335000,5.04000
,,,-0.000006330000,5.12000
,,,-0.000006325000,5.04000
,,,-0.000006320000,5.12000
,,,-0.000006315000,4.96000
,,,-0.000006310000,4.96000
,,,-0.000006305000,4.96000
,,,-0.000006299999,4.96000
,,,-0.000006295000,5.04000
,,,-0.000006290000,4.88000
,,,-0.000006285000,4.96000
,,,-0.000006280000,5.04000
,,,-0.000006275000,4.96000
,,,-0.000006270000,4.96000
,,,-0.000006265000,4.80000
,,,-0.000006259999,4.80000
,,,-0.000006254999,5.04000
,,,-0.000006250000,4.88000
,,,-0.000006245000,4.80000
,,,-0.000006240000,4.88000
,,,-0.000006235000,4.88000
,,,-0.000006230000,4.88000
,,,-0.000006225000,4.88000
,,,-0.000006220000,4.64000
,,,-0.000006214999,4.72000
,,,-0.000006209999,4.88000
,,,-0.000006205000,4.72000
,,,-0.000006200000,4.64000
,,,-0.000006195000,4.72000
,,,-0.000006190000,4.72000
,,,-0.000006185000,4.72000
,,,-0.000006180000,4.64000
,,,-0.000006175000,4.72000
,,,-0.000006169999,4.64000
,,,-0.000006165000,4.72000
,,,-0.000006160000,4.64000
,,,-0.000006155000,4.48000
,,,-0.000006150000,4.64000
,,,-0.000006145000,4.64000
,,,-0.000006140000,4.56000
,,,-0.000006135000,4.56000
,,,-0.000006129999,4.64000
,,,-0.000006124999,4.48000
,,,-0.000006120000,4.40000
,,,-0.000006115000,4.56000
,,,-0.000006110000,4.56000
,,,-0.000006105000,4.48000
,,,-0.000006100000,4.56000
,,,-0.000006095000,4.40000
,,,-0.000006090000,4.48000
,,,-0.000006084999,4.48000
,,,-0.000006080000,4.40000
,,,-0.000006075000,4.32000
,,,-0.000006070000,4.40000
,,,-0.000006065000,4.32000
,,,-0.000006060000,4.32000
,,,-0.000006055000,4.40000
,,,-0.000006050000,4.40000
,,,-0.000006044999,4.40000
,,,-0.000006039999,4.24000
,,,-0.000006035000,4.24000
,,,-0.000006030000,4.40000
,,,-0.000006025000,4.32000
,,,-0.000006020000,4.24000
,,,-0.000006015000,4.32000
,,,-0.000006010000,4.16000
,,,-0.000006005000,4.08000
,,,-0.000005999999,4.24000
,,,-0.000005995000,4.16000
,,,-0.000005990000,4.24000
,,,-0.000005985000,4.08000
,,,-0.000005980000,4.00000
,,,-0.000005975000,4.16000
,,,-0.000005970000,4.16000
,,,-0.000005965000,4.08000
,,,-0.000005960000,4.00000
,,,-0.000005954999,4.00000
,,,-0.000005950000,4.00000
,,,-0.000005945000,4.00000
,,,-0.000005940000,4.00000
,,,-0.000005935000,4.08000
,,,-0.000005930000,3.84000
,,,-0.000005925000,4.00000
,,,-0.000005920000,3.76000
,,,-0.000005914999,4.00000
,,,-0.000005909999,3.84000
,,,-0.000005905000,3.84000
,,,-0.000005900000,3.76000
,,,-0.000005895000,3.76000
,,,-0.000005890000,3.84000
,,,-0.000005885000,3.76000
,,,-0.000005880000,3.68000
,,,-0.000005875000,3.76000
,,,-0.000005869999,3.76000
,,,-0.000005865000,3.68000
,,,-0.000005860000,3.60000
,,,-0.000005855000,3.60000
,,,-0.000005850000,3.68000
,,,-0.000005845000,3.68000
,,,-0.000005840000,3.52000
,,,-0.000005835000,3.44000
,,,-0.000005830000,3.60000
,,,-0.000005824999,3.60000
,,,-0.000005820000,3.52000
,,,-0.000005815000,3.60000
,,,-0.000005810000,3.52000
,,,-0.000005805000,3.52000
,,,-0.000005800000,3.52000
,,,-0.000005795000,3.44000
,,,-0.000005790000,3.44000
,,,-0.000005784999,3.44000
,,,-0.000005780000,3.52000
,,,-0.000005775000,3.60000
,,,-0.000005770000,3.52000
,,,-0.000005765000,3.44000
,,,-0.000005760000,3.44000
,,,-0.000005755000,3.44000
,,,-0.000005750000,3.52000
,,,-0.000005745000,3.44000
,,,-0.000005739999,3.44000
,,,-0.000005735000,3.44000
,,,-0.000005730000,3.28000
,,,-0.000005725000,3.36000
,,,-0.000005720000,3.28000
,,,-0.000005715000,3.36000
,,,-0.000005710000,3.44000
,,,-0.000005705000,3.36000
,,,-0.000005699999,3.20000
,,,-0.000005694999,3.44000
,,,-0.000005690000,3.28000
,,,-0.000005685000,3.28000
,,,-0.000005680000,3.20000
,,,-0.000005675000,3.28000
,,,-0.000005670000,3.28000
,,,-0.000005665000,3.28000
,,,-0.000005660000,3.20000
,,,-0.000005654999,3.20000
,,,-0.000005650000,3.20000
,,,-0.000005645000,3.20000
,,,-0.000005640000,3.12000
,,,-0.000005635000,3.12000
,,,-0.000005630000,3.20000
,,,-0.000005625000,3.12000
,,,-0.000005620000,3.12000
,,,-0.000005615000,3.20000
,,,-0.000005609999,3.12000
,,,-0.000005605000,2.96000
,,,-0.000005600000,3.12000
,,,-0.000005595000,3.04000
,,,-0.000005590000,3.04000
,,,-0.000005585000,2.96000
,,,-0.000005580000,2.88000
,,,-0.000005575000,3.04000
,,,-0.000005569999,2.96000
,,,-0.000005565000,3.04000
,,,-0.000005560000,3.04000
,,,-0.000005555000,2.96000
,,,-0.000005550000,2.88000
,,,-0.000005545000,2.96000
,,,-0.000005540000,2.88000
,,,-0.000005535000,2.96000
,,,-0.000005530000,2.96000
,,,-0.000005524999,2.88000
,,,-0.000005520000,2.88000
,,,-0.000005515000,2.88000
,,,-0.000005510000,2.88000
,,,-0.000005505000,2.80000
,,,-0.000005500000,2.88000
,,,-0.000005495000,2.88000
,,,-0.000005490000,2.88000
,,,-0.000005484999,2.88000
,,,-0.000005479999,2.80000
,,,-0.000005475000,2.80000
,,,-0.000005470000,2.64000
,,,-0.000005465000,2.80000
,,,-0.000005460000,2.80000
,,,-0.000005455000,2.72000
,,,-0.000005450000,2.72000
,,,-0.000005445000,2.72000
,,,-0.000005439999,2.80000
,,,-0.000005435000,2.72000
,,,-0.000005430000,2.72000
,,,-0.000005425000,2.64000
,,,-0.000005420000,2.64000
,,,-0.000005415000,2.64000
,,,-0.000005410000,2.64000
,,,-0.000005405000,2.64000
,,,-0.000005400000,2.72000
,,,-0.000005394999,2.64000
,,,-0.000005390000,2.56000
,,,-0.000005385000,2.64000
,,,-0.000005380000,2.64000
,,,-0.000005375000,2.64000
,,,-0.000005370000,2.64000
,,,-0.000005365000,2.64000
,,,-0.000005360000,2.56000
,,,-0.000005354999,2.56000
,,,-0.000005350000,2.64000
,,,-0.000005345000,2.48000
,,,-0.000005340000,2.56000
,,,-0.000005335000,2.64000
,,,-0.000005330000,2.64000
,,,-0.000005325000,2.48000
,,,-0.000005320000,2.56000
,,,-0.000005315000,2.56000
,,,-0.000005309999,2.56000
,,,-0.000005305000,2.56000
,,,-0.000005300000,2.56000
,,,-0.000005295000,2.56000
,,,-0.000005290000,2.56000
,,,-0.000005285000,2.48000
,,,-0.000005280000,2.56000
,,,-0.000005275000,2.40000
,,,-0.000005269999,2.48000
,,,-0.000005265000,2.40000
,,,-0.000005260000,2.64000
,,,-0.000005255000,2.40000
,,,-0.000005250000,2.32000
,,,-0.000005245000,2.48000
,,,-0.000005240000,2.56000
,,,-0.000005235000,2.40000
,,,-0.000005230000,2.40000
,,,-0.000005225000,2.48000
,,,-0.000005220000,2.56000
,,,-0.000005215000,2.40000
,,,-0.000005210000,2.32000
,,,-0.000005205000,2.48000
,,,-0.000005200000,2.40000
,,,-0.000005195000,2.32000
,,,-0.000005190000,2.40000
,,,-0.000005185000,2.32000
,,,-0.000005180000,2.40000
,,,-0.000005175000,2.40000
,,,-0.000005170000,2.32000
,,,-0.000005165000,2.32000
,,,-0.000005160000,2.48000
,,,-0.000005155000,2.32000
,,,-0.000005150000,2.32000
,,,-0.000005145000,2.32000
,,,-0.000005140000,2.32000
,,,-0.000005135000,2.40000
,,,-0.000005130000,2.40000
,,,-0.000005125000,2.32000
,,,-0.000005120000,2.32000
,,,-0.000005115000,2.32000
,,,-0.000005110000,2.48000
,,,-0.000005105000,2.32000
,,,-0.000005100000,2.24000
,,,-0.000005095000,2.32000
,,,-0.000005090000,2.32000
,,,-0.000005085000,2.32000
,,,-0.000005080000,2.32000
,,,-0.000005075000,2.32000
,,,-0.000005070000,2.24000
,,,-0.000005065000,2.32000
,,,-0.000005060000,2.32000
,,,-0.000005055000,2.32000
,,,-0.000005050000,2.24000
,,,-0.000005045000,2.16000
,,,-0.000005040000,2.32000
,,,-0.000005035000,2.16000
,,,-0.000005030000,2.40000
,,,-0.000005025000,2.32000
,,,-0.000005020000,2.16000
,,,-0.000005015000,2.24000
,,,-0.000005010000,2.24000
,,,-0.000005005000,2.16000
,,,-0.000005000000,2.16000
,,,-0.000004995000,2.24000
,,,-0.000004990000,2.32000
,,,-0.000004985000,2.08000
,,,-0.000004980000,2.16000
,,,-0.000004975000,2.16000
,,,-0.000004970000,2.24000
,,,-0.000004965000,2.24000
,,,-0.000004960000,2.16000
,,,-0.000004955000,2.00000
,,,-0.000004950000,2.24000
,,,-0.000004945000,2.16000
,,,-0.000004940000,2.16000
,,,-0.000004935000,2.32000
,,,-0.000004930000,2.16000
,,,-0.000004925000,2.16000
,,,-0.000004920000,2.16000
,,,-0.000004915000,2.00000
,,,-0.000004910000,2.24000
,,,-0.000004905000,2.08000
,,,-0.000004900000,2.00000
,,,-0.000004895000,2.24000
,,,-0.000004890000,2.00000
,,,-0.000004885000,2.08000
,,,-0.000004880000,2.24000
,,,-0.000004875000,2.08000
,,,-0.000004870000,2.16000
,,,-0.000004865000,2.16000
,,,-0.000004860000,2.00000
,,,-0.000004855000,2.16000
,,,-0.000004850000,2.16000
,,,-0.000004845000,1.92000
,,,-0.000004840000,2.16000
,,,-0.000004835000,2.08000
,,,-0.000004830000,2.00000
,,,-0.000004825000,2.00000
,,,-0.000004820000,2.00000
,,,-0.000004815000,2.08000
,,,-0.000004810000,2.00000
,,,-0.000004805000,2.08000
,,,-0.000004800000,2.00000
,,,-0.000004795000,1.92000
,,,-0.000004790000,2.00000
,,,-0.000004785000,2.08000
,,,-0.000004780000,2.00000
,,,-0.000004775000,2.08000
,,,-0.000004770000,2.00000
,,,-0.000004765000,2.00000
,,,-0.000004760000,1.92000
,,,-0.000004755000,1.92000
,,,-0.000004750000,1.92000
,,,-0.000004745000,2.00000
,,,-0.000004740000,2.00000
,,,-0.000004735000,1.84000
,,,-0.000004730000,1.76000
,,,-0.000004725000,1.52000
,,,-0.000004720000,0.96000
,,,-0.000004715000,0.72000
,,,-0.000004710000,0.32000
,,,-0.000004705000,0.00
,,,-0.000004700000,-0.24000
,,,-0.000004695000,-0.48000
,,,-0.000004690000,-0.72000
,,,-0.000004685000,-0.96000
,,,-0.000004680000,-1.20000
,,,-0.000004675000,-1.52000
,,,-0.000004670000,-1.36000
,,,-0.000004665000,-1.52000
,,,-0.000004660000,-1.52000
,,,-0.000004655000,-1.36000
,,,-0.000004650000,-1.28000
,,,-0.000004645000,-1.36000
,,,-0.000004640000,-1.28000
,,,-0.000004635000,-1.20000
,,,-0.000004630000,-1.04000
,,,-0.000004625000,-1.12000
,,,-0.000004620000,-0.96000
,,,-0.000004615000,-0.88000
,,,-0.000004610000,-0.80000
,,,-0.000004605000,-0.80000
,,,-0.000004600000,-0.64000
,,,-0.000004595000,-0.64000
,,,-0.000004590000,-0.56000
,,,-0.000004585000,-0.64000
,,,-0.000004580000,-0.72000
,,,-0.000004575000,-0.64000
,,,-0.000004570000,-0.72000
,,,-0.000004565000,-0.72000
,,,-0.000004560000,-0.96000
,,,-0.000004555000,-1.04000
,,,-0.000004550000,-1.20000
,,,-0.000004545000,-1.20000
,,,-0.000004540000,-1.20000
,,,-0.000004535000,-1.04000
,,,-0.000004530000,-1.04000
,,,-0.000004525000,-1.04000
,,,-0.000004520000,-1.04000
,,,-0.000004515000,-1.04000
,,,-0.000004510000,-0.96000
,,,-0.000004505000,-0.88000
,,,-0.000004500000,-0.80000
,,,-0.000004495000,-0.72000
,,,-0.000004490000,-0.64000
,,,-0.000004485000,-0.64000
,,,-0.000004480000,-0.48000
,,,-0.000004475000,-0.56000
,,,-0.000004470000,-0.40000
,,,-0.000004465000,-0.40000
,,,-0.000004460000,-0.40000
,,,-0.000004455000,-0.24000
,,,-0.000004450000,-0.24000
,,,-0.000004445000,-0.16000
,,,-0.000004440000,-0.24000
,,,-0.000004435000,-0.32000
,,,-0.000004430000,-0.16000
,,,-0.000004425000,-0.16000
,,,-0.000004420000,-0.08000
,,,-0.000004415000,-0.16000
,,,-0.000004410000,-0.08000
,,,-0.000004405000,-0.08000
,,,-0.000004400000,-0.08000
,,,-0.000004395000,-0.08000
,,,-0.000004390000,0.00
,,,-0.000004385000,0.00
,,,-0.000004380000,0.00
,,,-0.000004375000,0.08000
,,,-0.000004370000,0.16000
,,,-0.000004365000,0.08000
,,,-0.000004360000,0.00
,,,-0.000004355000,0.00
,,,-0.000004350000,0.08000
,,,-0.000004345000,0.08000
,,,-0.000004340000,0.00
,,,-0.000004335000,0.08000
,,,-0.000004330000,0.00
,,,-0.000004325000,0.00
,,,-0.000004320000,-0.08000
,,,-0.000004315000,-0.08000
,,,-0.000004310000,-0.08000
,,,-0.000004305000,-0.08000
,,,-0.000004300000,-0.08000
,,,-0.000004295000,-0.08000
,,,-0.000004290000,-0.16000
,,,-0.000004285000,-0.24000
,,,-0.000004280000,-0.24000
,,,-0.000004275000,-0.40000
,,,-0.000004270000,-0.32000
,,,-0.000004265000,-0.48000
,,,-0.000004260000,-0.64000
,,,-0.000004255000,-0.64000
,,,-0.000004250000,-0.64000
,,,-0.000004245000,-0.80000
,,,-0.000004240000,-0.96000
,,,-0.000004235000,-1.12000
,,,-0.000004230000,-1.20000
,,,-0.000004225000,-1.20000
,,,-0.000004220000,-1.52000
,,,-0.000004215000,-1.52000
,,,-0.000004210000,-1.68000
,,,-0.000004205000,-1.84000
,,,-0.000004200000,-2.00000
,,,-0.000004195000,-2.24000
,,,-0.000004190000,-2.32000
,,,-0.000004185000,-2.40000
,,,-0.000004180000,-2.56000
,,,-0.000004175000,-2.64000
,,,-0.000004170000,-2.72000
,,,-0.000004165000,-2.96000
,,,-0.000004160000,-2.96000
,,,-0.000004155000,-3.20000
,,,-0.000004150000,-3.28000
,,,-0.000004145000,-3.44000
,,,-0.000004140000,-3.52000
,,,-0.000004135000,-3.68000
,,,-0.000004130000,-3.68000
,,,-0.000004125000,-4.00000
,,,-0.000004120000,-3.92000
,,,-0.000004115000,-4.24000
,,,-0.000004110000,-4.40000
,,,-0.000004105000,-4.48000
,,,-0.000004100000,-4.64000
,,,-0.000004095000,-4.72000
,,,-0.000004090000,-4.64000
,,,-0.000004085000,-4.80000
,,,-0.000004080000,-4.88000
,,,-0.000004075000,-5.04000
,,,-0.000004070000,-4.96000
,,,-0.000004065000,-5.12000
,,,-0.000004060000,-5.20000
,,,-0.000004055000,-5.12000
,,,-0.000004050000,-5.20000
,,,-0.000004045000,-5.12000
,,,-0.000004040000,-4.96000
,,,-0.000004035000,-5.28000
,,,-0.000004030000,-5.20000
,,,-0.000004025000,-5.20000
,,,-0.000004020000,-5.20000
,,,-0.000004015000,-5.12000
,,,-0.000004010000,-5.20000
,,,-0.000004005000,-5.12000
,,,-0.000004000000,-5.20000
,,,-0.000003995000,-5.20000
,,,-0.000003990000,-5.12000
,,,-0.000003985000,-5.12000
,,,-0.000003980000,-5.04000
,,,-0.000003975000,-5.04000
,,,-0.000003970000,-5.12000
,,,-0.000003965000,-5.04000
,,,-0.000003960000,-4.96000
,,,-0.000003955000,-5.04000
,,,-0.000003950000,-4.96000
,,,-0.000003945000,-5.12000
,,,-0.000003940000,-5.04000
,,,-0.000003935000,-5.04000
,,,-0.000003930000,-5.04000
,,,-0.000003925000,-5.04000
,,,-0.000003920000,-5.04000
,,,-0.000003915000,-5.04000
,,,-0.000003910000,-5.04000
,,,-0.000003905000,-5.04000
,,,-0.000003900000,-4.96000
,,,-0.000003895000,-5.12000
,,,-0.000003890000,-4.96000
,,,-0.000003885000,-5.04000
,,,-0.000003880000,-5.04000
,,,-0.000003875000,-5.12000
,,,-0.000003870000,-4.88000
,,,-0.000003865000,-4.96000
,,,-0.000003860000,-4.96000
,,,-0.000003855000,-5.04000
,,,-0.000003850000,-4.96000
,,,-0.000003845000,-4.96000
,,,-0.000003840000,-5.04000
,,,-0.000003835000,-5.04000
,,,-0.000003830000,-5.04000
,,,-0.000003825000,-4.88000
,,,-0.000003820000,-4.88000
,,,-0.000003815000,-4.96000
,,,-0.000003810000,-5.04000
,,,-0.000003805000,-5.04000
,,,-0.000003800000,-4.96000
,,,-0.000003795000,-4.88000
,,,-0.000003790000,-4.88000
,,,-0.000003785000,-5.04000
,,,-0.000003780000,-4.96000
,,,-0.000003775000,-5.04000
,,,-0.000003770000,-4.96000
,,,-0.000003765000,-4.88000
,,,-0.000003760000,-4.96000
,,,-0.000003755000,-5.04000
,,,-0.000003750000,-4.96000
,,,-0.000003745000,-4.88000
,,,-0.000003740000,-4.96000
,,,-0.000003735000,-4.96000
,,,-0.000003730000,-4.88000
,,,-0.000003725000,-4.88000
,,,-0.000003720000,-4.88000
,,,-0.000003715000,-5.12000
,,,-0.000003710000,-4.88000
,,,-0.000003705000,-4.88000
,,,-0.000003700000,-4.80000
,,,-0.000003695000,-4.88000
,,,-0.000003690000,-4.96000
,,,-0.000003685000,-5.04000
,,,-0.000003680000,-4.96000
,,,-0.000003675000,-4.88000
,,,-0.000003670000,-4.80000
,,,-0.000003665000,-4.88000
,,,-0.000003660000,-4.88000
,,,-0.000003655000,-4.80000
,,,-0.000003650000,-4.96000
,,,-0.000003645000,-4.88000
,,,-0.000003640000,-4.96000
,,,-0.000003635000,-4.88000
,,,-0.000003630000,-4.72000
,,,-0.000003625000,-4.88000
,,,-0.000003620000,-4.88000
,,,-0.000003615000,-4.80000
,,,-0.000003610000,-4.88000
,,,-0.000003605000,-4.80000
,,,-0.000003600000,-4.80000
,,,-0.000003595000,-4.88000
,,,-0.000003590000,-4.80000
,,,-0.000003585000,-4.88000
,,,-0.000003580000,-4.72000
,,,-0.000003575000,-4.72000
,,,-0.000003570000,-4.88000
,,,-0.000003565000,-4.80000
,,,-0.000003560000,-4.80000
,,,-0.000003555000,-4.80000
,,,-0.000003550000,-4.72000
,,,-0.000003545000,-4.72000
,,,-0.000003540000,-4.72000
,,,-0.000003535000,-4.56000
,,,-0.000003530000,-4.64000
,,,-0.000003525000,-4.80000
,,,-0.000003520000,-4.64000
,,,-0.000003515000,-4.72000
,,,-0.000003510000,-4.64000
,,,-0.000003505000,-4.80000
,,,-0.000003500000,-4.72000
,,,-0.000003495000,-4.72000
,,,-0.000003490000,-4.72000
,,,-0.000003485000,-4.64000
,,,-0.000003480000,-4.72000
,,,-0.000003475000,-4.72000
,,,-0.000003470000,-4.72000
,,,-0.000003465000,-4.72000
,,,-0.000003460000,-4.56000
,,,-0.000003455000,-4.72000
,,,-0.000003450000,-4.64000
,,,-0.000003445000,-4.64000
,,,-0.000003440000,-4.64000
,,,-0.000003435000,-4.72000
,,,-0.000003430000,-4.64000
,,,-0.000003425000,-4.72000
,,,-0.000003420000,-4.56000
,,,-0.000003415000,-4.64000
,,,-0.000003410000,-4.64000
,,,-0.000003405000,-4.64000
,,,-0.000003400000,-4.72000
,,,-0.000003395000,-4.64000
