capturas-osciloscopio/17-11-22/WA000016.CSV

Record Length,4096,,Source,CH1
Sample Interval,0.0000000050000,,Second,Volt
Vertical Units,CH1:V,,-0.000005439999,-0.00080
Vertical Scale,CH1:0.01,,-0.000005435000,-0.00040
Vertical Offset,CH1:-0.00760,,-0.000005430000,-0.00040
Horizontal Units,s,,-0.000005425000,-0.00040
Horizontal Scale,0.0000010000,,-0.000005420000,-0.00040
Model Number,WaveAce112,,-0.000005415000,-0.00040
Serial Number,LCRY2101C02399,,-0.000005410000,0.00
Software Version,2.07.02.16,,-0.000005405000,0.00
,,,-0.000005400000,-0.00040
,,,-0.000005394999,0.00
,,,-0.000005390000,0.00
,,,-0.000005385000,0.00
,,,-0.000005380000,0.00040
,,,-0.000005375000,0.00
,,,-0.000005370000,0.00040
,,,-0.000005365000,0.00040
,,,-0.000005360000,0.00
,,,-0.000005354999,0.00
,,,-0.000005350000,0.00080
,,,-0.000005345000,0.00
,,,-0.000005340000,0.00040
,,,-0.000005335000,0.00040
,,,-0.000005330000,0.00080
,,,-0.000005325000,0.00040
,,,-0.000005320000,0.00040
,,,-0.000005315000,0.00
,,,-0.000005309999,0.00040
,,,-0.000005305000,0.00
,,,-0.000005300000,0.00040
,,,-0.000005295000,0.00
,,,-0.000005290000,0.00040
,,,-0.000005285000,0.00080
,,,-0.000005280000,0.00040
,,,-0.000005275000,0.00040
,,,-0.000005269999,0.00
,,,-0.000005265000,0.00040
,,,-0.000005260000,0.00
,,,-0.000005255000,0.00
,,,-0.000005250000,-0.00040
,,,-0.000005245000,0.00080
,,,-0.000005240000,0.00
,,,-0.000005235000,0.00040
,,,-0.000005230000,0.00
,,,-0.000005225000,0.00
,,,-0.000005220000,0.00
,,,-0.000005215000,0.00040
,,,-0.000005210000,0.00
,,,-0.000005205000,0.00040
,,,-0.000005200000,0.00040
,,,-0.000005195000,0.00040
,,,-0.000005190000,0.00
,,,-0.000005185000,0.00
,,,-0.000005180000,0.00040
,,,-0.000005175000,0.00040
,,,-0.000005170000,0.00
,,,-0.000005165000,0.00040
,,,-0.000005160000,0.00
,,,-0.000005155000,0.00040
,,,-0.000005150000,-0.00040
,,,-0.000005145000,0.00040
,,,-0.000005140000,-0.00040
,,,-0.000005135000,0.00080
,,,-0.000005130000,0.00040
,,,-0.000005125000,0.00
,,,-0.000005120000,0.00040
,,,-0.000005115000,0.00
,,,-0.000005110000,0.00040
,,,-0.000005105000,0.00
,,,-0.000005100000,0.00
,,,-0.000005095000,0.00
,,,-0.000005090000,0.00080
,,,-0.000005085000,0.00
,,,-0.000005080000,0.00
,,,-0.000005075000,0.00040
,,,-0.000005070000,0.00040
,,,-0.000005065000,-0.00080
,,,-0.000005060000,0.00040
,,,-0.000005055000,-0.00040
,,,-0.000005050000,-0.00040
,,,-0.000005045000,0.00080
,,,-0.000005040000,-0.00040
,,,-0.000005035000,-0.00040
,,,-0.000005030000,0.00040
,,,-0.000005025000,-0.00040
,,,-0.000005020000,0.00
,,,-0.000005015000,0.00040
,,,-0.000005010000,-0.00040
,,,-0.000005005000,0.00
,,,-0.000005000000,-0.00160
,,,-0.000004995000,0.00080
,,,-0.000004990000,-0.00040
,,,-0.000004985000,0.00
,,,-0.000004980000,-0.00040
,,,-0.000004975000,0.00040
,,,-0.000004970000,-0.00040
,,,-0.000004965000,0.00080
,,,-0.000004960000,-0.00040
,,,-0.000004955000,0.00040
,,,-0.000004950000,0.00
,,,-0.000004945000,0.00
,,,-0.000004940000,0.00
,,,-0.000004935000,0.00
,,,-0.000004930000,0.00
,,,-0.000004925000,0.00
,,,-0.000004920000,0.00040
,,,-0.000004915000,0.00080
,,,-0.000004910000,0.00040
,,,-0.000004905000,0.00120
,,,-0.000004900000,0.00120
,,,-0.000004895000,0.00080
,,,-0.000004890000,0.00120
,,,-0.000004885000,0.00160
,,,-0.000004880000,0.00160
,,,-0.000004875000,0.00120
,,,-0.000004870000,0.00120
,,,-0.000004865000,0.00080
,,,-0.000004860000,0.00120
,,,-0.000004855000,0.00
,,,-0.000004850000,-0.00040
,,,-0.000004845000,0.00040
,,,-0.000004840000,0.00
,,,-0.000004835000,0.00
,,,-0.000004830000,-0.00080
,,,-0.000004825000,-0.00120
,,,-0.000004820000,-0.00160
,,,-0.000004815000,-0.00120
,,,-0.000004810000,-0.00240
,,,-0.000004805000,-0.00240
,,,-0.000004800000,-0.00320
,,,-0.000004795000,-0.00360
,,,-0.000004790000,-0.00480
,,,-0.000004785000,-0.00520
,,,-0.000004780000,-0.00520
,,,-0.000004775000,-0.00640
,,,-0.000004770000,-0.00640
,,,-0.000004765000,-0.00720
,,,-0.000004760000,-0.00680
,,,-0.000004755000,-0.00760
,,,-0.000004750000,-0.00960
,,,-0.000004745000,-0.00960
,,,-0.000004740000,-0.00920
,,,-0.000004735000,-0.01080
,,,-0.000004730000,-0.01160
,,,-0.000004725000,-0.01120
,,,-0.000004720000,-0.01320
,,,-0.000004715000,-0.01320
,,,-0.000004710000,-0.01440
,,,-0.000004705000,-0.01480
,,,-0.000004700000,-0.01520
,,,-0.000004695000,-0.01520
,,,-0.000004690000,-0.01800
,,,-0.000004685000,-0.01720
,,,-0.000004680000,-0.01800
,,,-0.000004675000,-0.01880
,,,-0.000004670000,-0.01920
,,,-0.000004665000,-0.01920
,,,-0.000004660000,-0.01960
,,,-0.000004655000,-0.02040
,,,-0.000004650000,-0.01960
,,,-0.000004645000,-0.02040
,,,-0.000004640000,-0.02080
,,,-0.000004635000,-0.02120
,,,-0.000004630000,-0.01960
,,,-0.000004625000,-0.02040
,,,-0.000004620000,-0.01880
,,,-0.000004615000,-0.01880
,,,-0.000004610000,-0.01720
,,,-0.000004605000,-0.01640
,,,-0.000004600000,-0.01520
,,,-0.000004595000,-0.01600
,,,-0.000004590000,-0.01440
,,,-0.000004585000,-0.01400
,,,-0.000004580000,-0.01320
,,,-0.000004575000,-0.01200
,,,-0.000004570000,-0.01160
,,,-0.000004565000,-0.01240
,,,-0.000004560000,-0.01360
,,,-0.000004555000,-0.01400
,,,-0.000004550000,-0.01440
,,,-0.000004545000,-0.01400
,,,-0.000004540000,-0.01360
,,,-0.000004535000,-0.01360
,,,-0.000004530000,-0.01320
,,,-0.000004525000,-0.01320
,,,-0.000004520000,-0.01280
,,,-0.000004515000,-0.01280
,,,-0.000004510000,-0.01280
,,,-0.000004505000,-0.01200
,,,-0.000004500000,-0.01160
,,,-0.000004495000,-0.01280
,,,-0.000004490000,-0.01120
,,,-0.000004485000,-0.01120
,,,-0.000004480000,-0.01200
,,,-0.000004475000,-0.01080
,,,-0.000004470000,-0.01040
,,,-0.000004465000,-0.01200
,,,-0.000004460000,-0.01000
,,,-0.000004455000,-0.01000
,,,-0.000004450000,-0.01000
,,,-0.000004445000,-0.00960
,,,-0.000004440000,-0.00960
,,,-0.000004435000,-0.00960
,,,-0.000004430000,-0.00920
,,,-0.000004425000,-0.00960
,,,-0.000004420000,-0.00920
,,,-0.000004415000,-0.00920
,,,-0.000004410000,-0.00880
,,,-0.000004405000,-0.00840
,,,-0.000004400000,-0.00840
,,,-0.000004395000,-0.00920
,,,-0.000004390000,-0.00800
,,,-0.000004385000,-0.00880
,,,-0.000004380000,-0.00800
,,,-0.000004375000,-0.00840
,,,-0.000004370000,-0.00720
,,,-0.000004365000,-0.00760
,,,-0.000004360000,-0.00800
,,,-0.000004355000,-0.00840
,,,-0.000004350000,-0.00720
,,,-0.000004345000,-0.00800
,,,-0.000004340000,-0.00680
,,,-0.000004335000,-0.00800
,,,-0.000004330000,-0.00800
,,,-0.000004325000,-0.00880
,,,-0.000004320000,-0.00720
,,,-0.000004315000,-0.00840
,,,-0.000004310000,-0.00720
,,,-0.000004305000,-0.00800
,,,-0.000004300000,-0.00840
,,,-0.000004295000,-0.00760
,,,-0.000004290000,-0.00800
,,,-0.000004285000,-0.00840
,,,-0.000004280000,-0.00800
,,,-0.000004275000,-0.00800
,,,-0.000004270000,-0.00800
,,,-0.000004265000,-0.00760
,,,-0.000004260000,-0.00800
,,,-0.000004255000,-0.00800
,,,-0.000004250000,-0.00760
,,,-0.000004245000,-0.00800
,,,-0.000004240000,-0.00800
,,,-0.000004235000,-0.00760
,,,-0.000004230000,-0.00800
,,,-0.000004225000,-0.00800
,,,-0.000004220000,-0.00720
,,,-0.000004215000,-0.00720
,,,-0.000004210000,-0.00680
,,,-0.000004205000,-0.00720
,,,-0.000004200000,-0.00720
,,,-0.000004195000,-0.00640
,,,-0.000004190000,-0.00680
,,,-0.000004185000,-0.00720
,,,-0.000004180000,-0.00600
,,,-0.000004175000,-0.00640
,,,-0.000004170000,-0.00600
,,,-0.000004165000,-0.00560
,,,-0.000004160000,-0.00520
,,,-0.000004155000,-0.00640
,,,-0.000004150000,-0.00520
,,,-0.000004145000,-0.00520
,,,-0.000004140000,-0.00480
,,,-0.000004135000,-0.00520
,,,-0.000004130000,-0.00480
,,,-0.000004125000,-0.00520
,,,-0.000004120000,-0.00480
,,,-0.000004115000,-0.00440
,,,-0.000004110000,-0.00480
,,,-0.000004105000,-0.00440
,,,-0.000004100000,-0.00280
,,,-0.000004095000,-0.00480
,,,-0.000004090000,-0.00320
,,,-0.000004085000,-0.00440
,,,-0.000004080000,-0.00320
,,,-0.000004075000,-0.00440
,,,-0.000004070000,-0.00280
,,,-0.000004065000,-0.00400
,,,-0.000004060000,-0.00320
,,,-0.000004055000,-0.00360
,,,-0.000004050000,-0.00280
,,,-0.000004045000,-0.00240
,,,-0.000004040000,-0.00320
,,,-0.000004035000,-0.00240
,,,-0.000004030000,-0.00240
,,,-0.000004025000,-0.00240
,,,-0.000004020000,-0.00240
,,,-0.000004015000,-0.00160
,,,-0.000004010000,-0.00240
,,,-0.000004005000,-0.00160
,,,-0.000004000000,-0.00200
,,,-0.000003995000,-0.00160
,,,-0.000003990000,-0.00080
,,,-0.000003985000,-0.00240
,,,-0.000003980000,-0.00160
,,,-0.000003975000,-0.00240
,,,-0.000003970000,-0.00080
,,,-0.000003965000,-0.00120
,,,-0.000003960000,-0.00160
,,,-0.000003955000,-0.00120
,,,-0.000003950000,-0.00080
,,,-0.000003945000,-0.00160
,,,-0.000003940000,-0.00160
,,,-0.000003935000,-0.00080
,,,-0.000003930000,-0.00160
,,,-0.000003925000,-0.00080
,,,-0.000003920000,-0.00120
,,,-0.000003915000,-0.00120
,,,-0.000003910000,-0.00120
,,,-0.000003905000,-0.00040
,,,-0.000003900000,-0.00120
,,,-0.000003895000,-0.00080
,,,-0.000003890000,-0.00080
,,,-0.000003885000,0.00
,,,-0.000003880000,-0.00160
,,,-0.000003875000,-0.00040
,,,-0.000003870000,-0.00040
,,,-0.000003865000,-0.00040
,,,-0.000003860000,0.00
,,,-0.000003855000,-0.00080
,,,-0.000003850000,0.00
,,,-0.000003845000,-0.00040
,,,-0.000003840000,-0.00080
,,,-0.000003835000,0.00
,,,-0.000003830000,-0.00040
,,,-0.000003825000,-0.00120
,,,-0.000003820000,0.00080
,,,-0.000003815000,-0.00040
,,,-0.000003810000,0.00040
,,,-0.000003805000,-0.00040
,,,-0.000003800000,-0.00040
,,,-0.000003795000,0.00
,,,-0.000003790000,0.00
,,,-0.000003785000,0.00
,,,-0.000003780000,0.00
,,,-0.000003775000,0.00
,,,-0.000003770000,0.00
,,,-0.000003765000,0.00
,,,-0.000003760000,-0.00040
,,,-0.000003755000,0.00
,,,-0.000003750000,-0.00040
,,,-0.000003745000,-0.00080
,,,-0.000003740000,0.00040
,,,-0.000003735000,0.00
,,,-0.000003730000,-0.00040
,,,-0.000003725000,0.00
,,,-0.000003720000,0.00040
,,,-0.000003715000,-0.00080
,,,-0.000003710000,0.00040
,,,-0.000003705000,-0.00040
,,,-0.000003700000,0.00
,,,-0.000003695000,0.00
,,,-0.000003690000,0.00
,,,-0.000003685000,0.00
,,,-0.000003680000,-0.00040
,,,-0.000003675000,0.00040
,,,-0.000003670000,0.00
,,,-0.000003665000,0.00040
,,,-0.000003660000,0.00
,,,-0.000003655000,0.00
,,,-0.000003650000,-0.00040
,,,-0.000003645000,0.00080
,,,-0.000003640000,-0.00040
,,,-0.000003635000,0.00080
,,,-0.000003630000,0.00040
,,,-0.000003625000,0.00
,,,-0.000003620000,0.00
,,,-0.000003615000,0.00
,,,-0.000003610000,0.00
,,,-0.000003605000,0.00040
,,,-0.000003600000,0.00080
,,,-0.000003595000,0.00
,,,-0.000003590000,-0.00040
,,,-0.000003585000,0.00
,,,-0.000003580000,0.00040
,,,-0.000003575000,0.00
,,,-0.000003570000,0.00
,,,-0.000003565000,0.00
,,,-0.000003560000,0.00080
,,,-0.000003555000,0.00
,,,-0.000003550000,0.00040
,,,-0.000003545000,0.00
,,,-0.000003540000,0.00
,,,-0.000003535000,0.00
,,,-0.000003530000,0.00
,,,-0.000003525000,0.00
,,,-0.000003520000,0.00
,,,-0.000003515000,0.00
,,,-0.000003510000,-0.00040
,,,-0.000003505000,0.00040
,,,-0.000003500000,0.00040
,,,-0.000003495000,0.00
,,,-0.000003490000,0.00080
,,,-0.000003485000,0.00
,,,-0.000003480000,0.00040
,,,-0.000003475000,0.00080
,,,-0.000003470000,0.00040
,,,-0.000003465000,0.00040
,,,-0.000003460000,0.00080
,,,-0.000003455000,0.00
,,,-0.000003450000,0.00
,,,-0.000003445000,0.00040
,,,-0.000003440000,0.00080
,,,-0.000003435000,0.00040
,,,-0.000003430000,0.00040
,,,-0.000003425000,0.00
,,,-0.000003420000,-0.00040
,,,-0.000003415000,0.00040
,,,-0.000003410000,0.00
,,,-0.000003405000,0.00040
,,,-0.000003400000,-0.00040
,,,-0.000003395000,0.00120
,,,-0.000003390000,-0.00040
,,,-0.000003385000,0.00040
,,,-0.000003380000,0.00040
,,,-0.000003375000,0.00040
,,,-0.000003370000,0.00040
,,,-0.000003365000,0.00040
,,,-0.000003360000,0.00
,,,-0.000003355000,0.00040
,,,-0.000003350000,0.00080
,,,-0.000003345000,0.00
,,,-0.000003340000,0.00080
,,,-0.000003335000,0.00040
,,,-0.000003330000,0.00040
,,,-0.000003325000,0.00080
,,,-0.000003320000,0.00080
,,,-0.000003315000,0.00
,,,-0.000003310000,0.00120
,,,-0.000003305000,0.00
,,,-0.000003300000,0.00080
,,,-0.000003295000,0.00040
,,,-0.000003290000,0.00040
,,,-0.000003285000,0.00040
,,,-0.000003280000,0.00080
,,,-0.000003275000,0.00
,,,-0.000003270000,0.00
,,,-0.000003265000,-0.00080
,,,-0.000003260000,-0.00040
,,,-0.000003255000,-0.00200
,,,-0.000003250000,-0.00200
,,,-0.000003245000,-0.00160
,,,-0.000003240000,-0.00280
,,,-0.000003235000,-0.00320
,,,-0.000003230000,-0.00360
,,,-0.000003225000,-0.00520
,,,-0.000003220000,-0.00680
,,,-0.000003215000,-0.00680
,,,-0.000003210000,-0.00680
,,,-0.000003205000,-0.01120
,,,-0.000003200000,-0.01160
,,,-0.000003195000,-0.01160
,,,-0.000003190000,-0.01360
,,,-0.000003185000,-0.01520
,,,-0.000003180000,-0.01600
,,,-0.000003175000,-0.01720
,,,-0.000003170000,-0.01680
,,,-0.000003165000,-0.01680
,,,-0.000003160000,-0.01800
,,,-0.000003155000,-0.01840
,,,-0.000003150000,-0.01960
,,,-0.000003145000,-0.02080
,,,-0.000003140000,-0.02000
,,,-0.000003135000,-0.02000
,,,-0.000003130000,-0.02280
,,,-0.000003125000,-0.02200
,,,-0.000003120000,-0.02280
,,,-0.000003115000,-0.02480
,,,-0.000003110000,-0.02360
,,,-0.000003105000,-0.02280
,,,-0.000003100000,-0.02440
,,,-0.000003095000,-0.02560
,,,-0.000003090000,-0.02440
,,,-0.000003085000,-0.02520
,,,-0.000003080000,-0.02640
,,,-0.000003075000,-0.02600
,,,-0.000003070000,-0.02560
,,,-0.000003065000,-0.02720
,,,-0.000003060000,-0.02720
,,,-0.000003055000,-0.02680
,,,-0.000003050000,-0.02720
,,,-0.000003045000,-0.02680
,,,-0.000003040000,-0.02600
,,,-0.000003035000,-0.02680
,,,-0.000003030000,-0.02520
,,,-0.000003025000,-0.02640
,,,-0.000003020000,-0.02520
,,,-0.000003015000,-0.02600
,,,-0.000003010000,-0.02560
,,,-0.000003005000,-0.02440
,,,-0.000003000000,-0.02440
,,,-0.000002995000,-0.02360
,,,-0.000002990000,-0.02400
,,,-0.000002985000,-0.02360
,,,-0.000002980000,-0.02240
,,,-0.000002975000,-0.02360
,,,-0.000002970000,-0.02200
,,,-0.000002965000,-0.02120
,,,-0.000002960000,-0.02080
,,,-0.000002955000,-0.02200
,,,-0.000002950000,-0.02000
,,,-0.000002945000,-0.02080
,,,-0.000002940000,-0.01920
,,,-0.000002935000,-0.01840
,,,-0.000002930000,-0.01760
,,,-0.000002925000,-0.01720
,,,-0.000002920000,-0.01680
,,,-0.000002915000,-0.01720
,,,-0.000002910000,-0.01560
,,,-0.000002905000,-0.01600
,,,-0.000002900000,-0.01440
,,,-0.000002895000,-0.01440
,,,-0.000002890000,-0.01320
,,,-0.000002885000,-0.01400
,,,-0.000002880000,-0.01320
,,,-0.000002875000,-0.01360
,,,-0.000002870000,-0.01160
,,,-0.000002865000,-0.01240
,,,-0.000002860000,-0.01200
,,,-0.000002855000,-0.01080
,,,-0.000002850000,-0.01000
,,,-0.000002845000,-0.01000
,,,-0.000002840000,-0.01000
,,,-0.000002835000,-0.00880
,,,-0.000002830000,-0.00880
,,,-0.000002825000,-0.00880
,,,-0.000002820000,-0.00880
,,,-0.000002815000,-0.00720
,,,-0.000002810000,-0.00800
,,,-0.000002805000,-0.00720
,,,-0.000002800000,-0.00640
,,,-0.000002795000,-0.00640
,,,-0.000002790000,-0.00640
,,,-0.000002785000,-0.00600
,,,-0.000002780000,-0.00520
,,,-0.000002775000,-0.00560
,,,-0.000002770000,-0.00520
,,,-0.000002765000,-0.00480
,,,-0.000002760000,-0.00480
,,,-0.000002755000,-0.00480
,,,-0.000002750000,-0.00360
,,,-0.000002745000,-0.00480
,,,-0.000002740000,-0.00360
,,,-0.000002735000,-0.00440
,,,-0.000002730000,-0.00280
,,,-0.000002725000,-0.00400
,,,-0.000002720000,-0.00280
,,,-0.000002715000,-0.00400
,,,-0.000002710000,-0.00280
,,,-0.000002705000,-0.00280
,,,-0.000002700000,-0.00200
,,,-0.000002695000,-0.00280
,,,-0.000002690000,-0.00160
,,,-0.000002685000,-0.00280
,,,-0.000002680000,-0.00280
,,,-0.000002675000,-0.00160
,,,-0.000002670000,-0.00200
,,,-0.000002665000,-0.00240
,,,-0.000002660000,-0.00080
,,,-0.000002655000,-0.00200
,,,-0.000002650000,-0.00160
,,,-0.000002645000,-0.00160
,,,-0.000002640000,-0.00160
,,,-0.000002635000,-0.00080
,,,-0.000002630000,-0.00160
,,,-0.000002625000,-0.00120
,,,-0.000002620000,-0.00040
,,,-0.000002615000,-0.00160
,,,-0.000002610000,-0.00080
,,,-0.000002605000,-0.00040
,,,-0.000002600000,-0.00160
,,,-0.000002595000,-0.00080
,,,-0.000002590000,-0.00080
,,,-0.000002585000,-0.00080
,,,-0.000002580000,-0.00080
,,,-0.000002575000,0.00
,,,-0.000002570000,-0.00080
,,,-0.000002565000,-0.00040
,,,-0.000002560000,-0.00160
,,,-0.000002555000,0.00
,,,-0.000002550000,-0.00160
,,,-0.000002545000,-0.00040
,,,-0.000002540000,-0.00080
,,,-0.000002535000,-0.00040
,,,-0.000002530000,0.00
,,,-0.000002525000,-0.00040
,,,-0.000002520000,-0.00040
,,,-0.000002515000,-0.00120
,,,-0.000002510000,-0.00040
,,,-0.000002505000,-0.00120
,,,-0.000002500000,-0.00040
,,,-0.000002495000,-0.00080
,,,-0.000002490000,-0.00040
,,,-0.000002485000,0.00
,,,-0.000002480000,-0.00040
,,,-0.000002475000,-0.00120
,,,-0.000002470000,-0.00040
,,,-0.000002465000,-0.00080
,,,-0.000002460000,-0.00040
,,,-0.000002455000,-0.00120
,,,-0.000002450000,0.00
,,,-0.000002445000,-0.00080
,,,-0.000002440000,-0.00040
,,,-0.000002435000,-0.00080
,,,-0.000002430000,0.00040
,,,-0.000002425000,-0.00080
,,,-0.000002420000,-0.00040
,,,-0.000002415000,-0.00080
,,,-0.000002410000,0.00
,,,-0.000002405000,0.00
,,,-0.000002400000,0.00
,,,-0.000002395000,-0.00080
,,,-0.000002390000,-0.00040
,,,-0.000002385000,0.00
,,,-0.000002380000,0.00040
,,,-0.000002375000,-0.00080
,,,-0.000002370000,0.00040
,,,-0.000002365000,0.00040
,,,-0.000002360000,0.00
,,,-0.000002355000,0.00
,,,-0.000002350000,0.00040
,,,-0.000002345000,0.00
,,,-0.000002340000,0.00080
,,,-0.000002335000,0.00040
,,,-0.000002330000,0.00
,,,-0.000002325000,0.00160
,,,-0.000002320000,0.00040
,,,-0.000002315000,0.00040
,,,-0.000002310000,0.00080
,,,-0.000002305000,0.00040
,,,-0.000002300000,0.00040
,,,-0.000002295000,0.00120
,,,-0.000002290000,0.00080
,,,-0.000002285000,0.00160
,,,-0.000002280000,0.00040
,,,-0.000002275000,0.00120
,,,-0.000002270000,0.00120
,,,-0.000002265000,0.00120
,,,-0.000002260000,0.00040
,,,-0.000002255000,0.00120
,,,-0.000002250000,0.00160
,,,-0.000002245000,0.00080
,,,-0.000002240000,0.00120
,,,-0.000002235000,0.00160
,,,-0.000002230000,0.00160
,,,-0.000002225000,0.00120
,,,-0.000002220000,0.00120
,,,-0.000002215000,0.00120
,,,-0.000002210000,0.00160
,,,-0.000002205000,0.00200
,,,-0.000002200000,0.00160
,,,-0.000002195000,0.00240
,,,-0.000002190000,0.00160
,,,-0.000002185000,0.00160
,,,-0.000002180000,0.00200
,,,-0.000002175000,0.00200
,,,-0.000002170000,0.00240
,,,-0.000002165000,0.00160
,,,-0.000002160000,0.00200
,,,-0.000002155000,0.00240
,,,-0.000002150000,0.00160
,,,-0.000002145000,0.00240
,,,-0.000002140000,0.00160
,,,-0.000002135000,0.00240
,,,-0.000002130000,0.00160
,,,-0.000002125000,0.00280
,,,-0.000002120000,0.00280
,,,-0.000002115000,0.00280
,,,-0.000002110000,0.00240
,,,-0.000002105000,0.00240
,,,-0.000002100000,0.00320
,,,-0.000002095000,0.00240
,,,-0.000002090000,0.00280
,,,-0.000002085000,0.00280
,,,-0.000002080000,0.00280
,,,-0.000002075000,0.00280
,,,-0.000002070000,0.00280
,,,-0.000002065000,0.00320
,,,-0.000002060000,0.00280
,,,-0.000002055000,0.00320
,,,-0.000002050000,0.00320
,,,-0.000002045000,0.00320
,,,-0.000002040000,0.00280
,,,-0.000002035000,0.00440
,,,-0.000002030000,0.00280
,,,-0.000002025000,0.00320
,,,-0.000002020000,0.00320
,,,-0.000002015000,0.00360
,,,-0.000002010000,0.00280
,,,-0.000002005000,0.00360
,,,-0.000002000000,0.00400
,,,-0.000001995000,0.00320
,,,-0.000001990000,0.00320
,,,-0.000001985000,0.00360
,,,-0.000001980000,0.00320
,,,-0.000001975000,0.00360
,,,-0.000001970000,0.00360
,,,-0.000001965000,0.00320
,,,-0.000001960000,0.00360
,,,-0.000001955000,0.00360
,,,-0.000001950000,0.00360
,,,-0.000001945000,0.00320
,,,-0.000001940000,0.00360
,,,-0.000001935000,0.00320
,,,-0.000001930000,0.00360
,,,-0.000001925000,0.00360
,,,-0.000001920000,0.00400
,,,-0.000001915000,0.00360
,,,-0.000001910000,0.00360
,,,-0.000001905000,0.00240
,,,-0.000001900000,0.00400
,,,-0.000001895000,0.00320
,,,-0.000001890000,0.00360
,,,-0.000001885000,0.00400
,,,-0.000001880000,0.00360
,,,-0.000001875000,0.00360
,,,-0.000001870000,0.00400
,,,-0.000001865000,0.00320
,,,-0.000001860000,0.00440
,,,-0.000001855000,0.00400
,,,-0.000001850000,0.00400
,,,-0.000001845000,0.00320
,,,-0.000001840000,0.00360
,,,-0.000001835000,0.00400
,,,-0.000001830000,0.00400
,,,-0.000001825000,0.00320
,,,-0.000001820000,0.00440
,,,-0.000001815000,0.00400
,,,-0.000001810000,0.00400
