capturas-osciloscopio/17-11-22/WA000036.CSV

Record Length,4096,,Source,CH1
Sample Interval,0.0000000100000,,Second,Volt
Vertical Units,CH1:V,,-0.000020480000,20.80000
Vertical Scale,CH1:20.00,,-0.000020469998,20.80000
Vertical Offset,CH1:-20.80000,,-0.000020460000,20.80000
Horizontal Units,s,,-0.000020450000,21.60000
Horizontal Scale,0.0000025000,,-0.000020440000,20.80000
Model Number,WaveAce112,,-0.000020430000,21.60000
Serial Number,LCRY2101C02399,,-0.000020420000,20.80000
Software Version,2.07.02.16,,-0.000020410000,21.60000
,,,-0.000020400000,22.40000
,,,-0.000020390000,22.40000
,,,-0.000020379998,23.20000
,,,-0.000020370000,24.00000
,,,-0.000020360000,23.20000
,,,-0.000020350000,24.00000
,,,-0.000020340000,24.00000
,,,-0.000020330000,24.80000
,,,-0.000020320000,24.80000
,,,-0.000020310000,24.80000
,,,-0.000020300000,25.60000
,,,-0.000020289998,25.60000
,,,-0.000020280000,26.40000
,,,-0.000020270000,27.20000
,,,-0.000020260000,26.40000
,,,-0.000020250000,27.20000
,,,-0.000020240000,25.60000
,,,-0.000020230000,25.60000
,,,-0.000020219998,26.40000
,,,-0.000020210000,27.20000
,,,-0.000020199998,26.40000
,,,-0.000020190000,26.40000
,,,-0.000020180000,25.60000
,,,-0.000020170000,25.60000
,,,-0.000020160000,25.60000
,,,-0.000020150000,25.60000
,,,-0.000020140000,24.80000
,,,-0.000020129998,24.80000
,,,-0.000020120000,25.60000
,,,-0.000020110000,24.80000
,,,-0.000020100000,25.60000
,,,-0.000020090000,25.60000
,,,-0.000020080000,25.60000
,,,-0.000020070000,25.60000
,,,-0.000020060000,26.40000
,,,-0.000020050000,25.60000
,,,-0.000020039998,26.40000
,,,-0.000020030000,27.20000
,,,-0.000020020000,26.40000
,,,-0.000020010000,28.00000
,,,-0.000020000000,27.20000
,,,-0.000019990000,28.80000
,,,-0.000019980000,29.60000
,,,-0.000019970000,30.40000
,,,-0.000019960000,30.40000
,,,-0.000019949998,30.40000
,,,-0.000019940000,30.40000
,,,-0.000019930000,30.40000
,,,-0.000019920000,31.20000
,,,-0.000019910000,30.40000
,,,-0.000019900000,33.60000
,,,-0.000019890000,31.20000
,,,-0.000019880000,31.20000
,,,-0.000019870000,31.20000
,,,-0.000019859998,32.00000
,,,-0.000019850000,32.00000
,,,-0.000019840000,34.40000
,,,-0.000019830000,32.00000
,,,-0.000019820000,32.00000
,,,-0.000019810000,32.00000
,,,-0.000019800000,33.60000
,,,-0.000019789998,32.00000
,,,-0.000019780000,33.60000
,,,-0.000019769998,34.40000
,,,-0.000019760000,33.60000
,,,-0.000019750000,34.40000
,,,-0.000019740000,34.40000
,,,-0.000019730000,35.20000
,,,-0.000019720000,34.40000
,,,-0.000019710000,35.20000
,,,-0.000019699998,34.40000
,,,-0.000019690000,36.00000
,,,-0.000019680000,36.00000
,,,-0.000019670000,36.00000
,,,-0.000019660000,36.00000
,,,-0.000019650000,36.00000
,,,-0.000019640000,36.80000
,,,-0.000019630000,36.00000
,,,-0.000019620000,36.00000
,,,-0.000019609998,35.20000
,,,-0.000019600000,37.60000
,,,-0.000019590000,37.60000
,,,-0.000019580000,37.60000
,,,-0.000019570000,36.80000
,,,-0.000019560000,36.80000
,,,-0.000019550000,37.60000
,,,-0.000019540000,36.80000
,,,-0.000019530000,37.60000
,,,-0.000019519998,36.80000
,,,-0.000019510000,37.60000
,,,-0.000019500000,36.80000
,,,-0.000019490000,37.60000
,,,-0.000019480000,36.80000
,,,-0.000019470000,36.80000
,,,-0.000019460000,37.60000
,,,-0.000019450000,37.60000
,,,-0.000019440000,36.80000
,,,-0.000019429998,36.80000
,,,-0.000019420000,36.80000
,,,-0.000019410000,36.80000
,,,-0.000019400000,36.80000
,,,-0.000019390000,36.80000
,,,-0.000019380000,36.80000
,,,-0.000019370000,36.80000
,,,-0.000019359998,36.80000
,,,-0.000019350000,36.80000
,,,-0.000019339998,36.80000
,,,-0.000019330000,37.60000
,,,-0.000019320000,36.80000
,,,-0.000019310000,36.00000
,,,-0.000019300000,36.80000
,,,-0.000019290000,36.00000
,,,-0.000019280000,36.80000
,,,-0.000019269998,36.00000
,,,-0.000019260000,36.80000
,,,-0.000019250000,36.80000
,,,-0.000019240000,36.80000
,,,-0.000019230000,36.80000
,,,-0.000019220000,36.80000
,,,-0.000019210000,37.60000
,,,-0.000019200000,36.80000
,,,-0.000019190000,36.80000
,,,-0.000019179998,37.60000
,,,-0.000019170000,36.00000
,,,-0.000019160000,36.80000
,,,-0.000019150000,21.60000
,,,-0.000019140000,20.00000
,,,-0.000019130000,12.00000
,,,-0.000019120000,11.20000
,,,-0.000019110000,7.20000
,,,-0.000019100000,4.80000
,,,-0.000019089998,3.20000
,,,-0.000019080000,1.60000
,,,-0.000019070000,1.60000
,,,-0.000019060000,1.60000
,,,-0.000019050000,1.60000
,,,-0.000019040000,1.60000
,,,-0.000019030000,1.60000
,,,-0.000019020000,1.60000
,,,-0.000019010000,1.60000
,,,-0.000018999998,0.80000
,,,-0.000018990000,2.40000
,,,-0.000018980000,0.00
,,,-0.000018970000,1.60000
,,,-0.000018960000,0.80000
,,,-0.000018950000,0.80000
,,,-0.000018940000,0.80000
,,,-0.000018929998,0.80000
,,,-0.000018920000,0.80000
,,,-0.000018909998,0.80000
,,,-0.000018900000,0.80000
,,,-0.000018890000,1.60000
,,,-0.000018880000,1.60000
,,,-0.000018870000,2.40000
,,,-0.000018860000,0.80000
,,,-0.000018850000,1.60000
,,,-0.000018839998,1.60000
,,,-0.000018830000,0.80000
,,,-0.000018820000,0.00
,,,-0.000018810000,1.60000
,,,-0.000018800000,0.80000
,,,-0.000018790000,1.60000
,,,-0.000018780000,1.60000
,,,-0.000018770000,1.60000
,,,-0.000018760000,0.80000
,,,-0.000018749998,0.80000
,,,-0.000018740000,0.80000
,,,-0.000018730000,1.60000
,,,-0.000018720000,0.80000
,,,-0.000018710000,0.80000
,,,-0.000018700000,0.80000
,,,-0.000018690000,0.80000
,,,-0.000018680000,1.60000
,,,-0.000018670000,1.60000
,,,-0.000018659998,1.60000
,,,-0.000018650000,0.80000
,,,-0.000018640000,1.60000
,,,-0.000018630000,1.60000
,,,-0.000018620000,1.60000
,,,-0.000018610000,0.80000
,,,-0.000018600000,1.60000
,,,-0.000018590000,1.60000
,,,-0.000018580000,1.60000
,,,-0.000018569998,0.80000
,,,-0.000018560000,0.80000
,,,-0.000018550000,1.60000
,,,-0.000018540000,0.80000
,,,-0.000018530000,1.60000
,,,-0.000018520000,0.80000
,,,-0.000018510000,1.60000
,,,-0.000018499998,0.00
,,,-0.000018490000,1.60000
,,,-0.000018479998,0.80000
,,,-0.000018470000,0.80000
,,,-0.000018460000,0.80000
,,,-0.000018450000,2.40000
,,,-0.000018440000,0.80000
,,,-0.000018430000,0.80000
,,,-0.000018420000,0.80000
,,,-0.000018409998,1.60000
,,,-0.000018400000,0.80000
,,,-0.000018390000,1.60000
,,,-0.000018380000,1.60000
,,,-0.000018370000,1.60000
,,,-0.000018360000,1.60000
,,,-0.000018350000,0.80000
,,,-0.000018340000,0.80000
,,,-0.000018330000,1.60000
,,,-0.000018319998,0.80000
,,,-0.000018310000,0.80000
,,,-0.000018300000,1.60000
,,,-0.000018290000,0.80000
,,,-0.000018280000,1.60000
,,,-0.000018270000,1.60000
,,,-0.000018260000,1.60000
,,,-0.000018250000,1.60000
,,,-0.000018240000,1.60000
,,,-0.000018229998,2.40000
,,,-0.000018220000,1.60000
,,,-0.000018210000,1.60000
,,,-0.000018200000,0.80000
,,,-0.000018190000,2.40000
,,,-0.000018180000,1.60000
,,,-0.000018170000,1.60000
,,,-0.000018160000,1.60000
,,,-0.000018150000,1.60000
,,,-0.000018139998,0.80000
,,,-0.000018130000,1.60000
,,,-0.000018120000,0.80000
,,,-0.000018110000,2.40000
,,,-0.000018100000,1.60000
,,,-0.000018090000,2.40000
,,,-0.000018080000,0.80000
,,,-0.000018069998,0.80000
,,,-0.000018060000,1.60000
,,,-0.000018049998,1.60000
,,,-0.000018040000,1.60000
,,,-0.000018030000,1.60000
,,,-0.000018020000,1.60000
,,,-0.000018010000,1.60000
,,,-0.000018000000,0.80000
,,,-0.000017990000,2.40000
,,,-0.000017979998,1.60000
,,,-0.000017970000,2.40000
,,,-0.000017960000,0.80000
,,,-0.000017950000,0.80000
,,,-0.000017940000,2.40000
,,,-0.000017930000,1.60000
,,,-0.000017920000,1.60000
,,,-0.000017910000,1.60000
,,,-0.000017900000,0.80000
,,,-0.000017889998,1.60000
,,,-0.000017880000,1.60000
,,,-0.000017870000,1.60000
,,,-0.000017860000,1.60000
,,,-0.000017850000,2.40000
,,,-0.000017840000,0.80000
,,,-0.000017830000,2.40000
,,,-0.000017820000,1.60000
,,,-0.000017810000,1.60000
,,,-0.000017799998,1.60000
,,,-0.000017790000,1.60000
,,,-0.000017780000,1.60000
,,,-0.000017770000,2.40000
,,,-0.000017760000,1.60000
,,,-0.000017750000,1.60000
,,,-0.000017740000,2.40000
,,,-0.000017730000,1.60000
,,,-0.000017720000,1.60000
,,,-0.000017709998,1.60000
,,,-0.000017700000,1.60000
,,,-0.000017690000,2.40000
,,,-0.000017680000,1.60000
,,,-0.000017670000,2.40000
,,,-0.000017660000,1.60000
,,,-0.000017650000,1.60000
,,,-0.000017639998,1.60000
,,,-0.000017630000,2.40000
,,,-0.000017619998,1.60000
,,,-0.000017610000,2.40000
,,,-0.000017600000,1.60000
,,,-0.000017590000,1.60000
,,,-0.000017580000,1.60000
,,,-0.000017570000,1.60000
,,,-0.000017560000,1.60000
,,,-0.000017549998,2.40000
,,,-0.000017540000,1.60000
,,,-0.000017530000,1.60000
,,,-0.000017520000,1.60000
,,,-0.000017510000,2.40000
,,,-0.000017500000,1.60000
,,,-0.000017490000,2.40000
,,,-0.000017480000,1.60000
,,,-0.000017470000,2.40000
,,,-0.000017459998,1.60000
,,,-0.000017450000,2.40000
,,,-0.000017440000,1.60000
,,,-0.000017430000,2.40000
,,,-0.000017420000,1.60000
,,,-0.000017410000,1.60000
,,,-0.000017400000,1.60000
,,,-0.000017390000,1.60000
,,,-0.000017380000,1.60000
,,,-0.000017369998,1.60000
,,,-0.000017360000,1.60000
,,,-0.000017350000,2.40000
,,,-0.000017340000,1.60000
,,,-0.000017330000,2.40000
,,,-0.000017320000,1.60000
,,,-0.000017310000,2.40000
,,,-0.000017300000,1.60000
,,,-0.000017290000,2.40000
,,,-0.000017279998,0.80000
,,,-0.000017270000,1.60000
,,,-0.000017260000,1.60000
,,,-0.000017250000,2.40000
,,,-0.000017240000,1.60000
,,,-0.000017230000,1.60000
,,,-0.000017220000,1.60000
,,,-0.000017209998,2.40000
,,,-0.000017200000,1.60000
,,,-0.000017189998,2.40000
,,,-0.000017180000,1.60000
,,,-0.000017170000,1.60000
,,,-0.000017160000,2.40000
,,,-0.000017150000,2.40000
,,,-0.000017140000,1.60000
,,,-0.000017130000,2.40000
,,,-0.000017119998,1.60000
,,,-0.000017110000,1.60000
,,,-0.000017100000,1.60000
,,,-0.000017090000,1.60000
,,,-0.000017080000,1.60000
,,,-0.000017070000,2.40000
,,,-0.000017060000,0.80000
,,,-0.000017050000,1.60000
,,,-0.000017040000,1.60000
,,,-0.000017029998,2.40000
,,,-0.000017020000,1.60000
,,,-0.000017010000,2.40000
,,,-0.000017000000,1.60000
,,,-0.000016990000,2.40000
,,,-0.000016980000,1.60000
,,,-0.000016970000,2.40000
,,,-0.000016960000,1.60000
,,,-0.000016950000,2.40000
,,,-0.000016939998,2.40000
,,,-0.000016930000,2.40000
,,,-0.000016920000,0.80000
,,,-0.000016910000,2.40000
,,,-0.000016900000,3.20000
,,,-0.000016890000,2.40000
,,,-0.000016880000,1.60000
,,,-0.000016870000,2.40000
,,,-0.000016860000,2.40000
,,,-0.000016849998,2.40000
,,,-0.000016840000,1.60000
,,,-0.000016830000,2.40000
,,,-0.000016820000,1.60000
,,,-0.000016810000,2.40000
,,,-0.000016800000,3.20000
,,,-0.000016790000,2.40000
,,,-0.000016780002,3.20000
,,,-0.000016770000,2.40000
,,,-0.000016759998,1.60000
,,,-0.000016750000,2.40000
,,,-0.000016740000,1.60000
,,,-0.000016730000,2.40000
,,,-0.000016720000,1.60000
,,,-0.000016710000,2.40000
,,,-0.000016700000,3.20000
,,,-0.000016689998,1.60000
,,,-0.000016680000,1.60000
,,,-0.000016670000,2.40000
,,,-0.000016660000,1.60000
,,,-0.000016650000,2.40000
,,,-0.000016640000,1.60000
,,,-0.000016630000,1.60000
,,,-0.000016620000,3.20000
,,,-0.000016610000,1.60000
,,,-0.000016599998,3.20000
,,,-0.000016590000,2.40000
,,,-0.000016580000,3.20000
,,,-0.000016570000,2.40000
,,,-0.000016560000,1.60000
,,,-0.000016550000,2.40000
,,,-0.000016540000,3.20000
,,,-0.000016530000,1.60000
,,,-0.000016520000,1.60000
,,,-0.000016509998,1.60000
,,,-0.000016500000,2.40000
,,,-0.000016490000,2.40000
,,,-0.000016480000,2.40000
,,,-0.000016470000,2.40000
,,,-0.000016460000,3.20000
,,,-0.000016450000,2.40000
,,,-0.000016440000,2.40000
,,,-0.000016430000,2.40000
,,,-0.000016419998,4.00000
,,,-0.000016410000,3.20000
,,,-0.000016400000,1.60000
,,,-0.000016390000,2.40000
,,,-0.000016380000,1.60000
,,,-0.000016370000,2.40000
,,,-0.000016360000,3.20000
,,,-0.000016350002,2.40000
,,,-0.000016340000,1.60000
,,,-0.000016329998,2.40000
,,,-0.000016320000,3.20000
,,,-0.000016310000,2.40000
,,,-0.000016300000,1.60000
,,,-0.000016290000,2.40000
,,,-0.000016280000,2.40000
,,,-0.000016270000,1.60000
,,,-0.000016259998,1.60000
,,,-0.000016250000,2.40000
,,,-0.000016240000,3.20000
,,,-0.000016230000,2.40000
,,,-0.000016220000,3.20000
,,,-0.000016210000,2.40000
,,,-0.000016200000,3.20000
,,,-0.000016190000,2.40000
,,,-0.000016180000,1.60000
,,,-0.000016169998,3.20000
,,,-0.000016160000,2.40000
,,,-0.000016150000,2.40000
,,,-0.000016140000,3.20000
,,,-0.000016130000,2.40000
,,,-0.000016120000,2.40000
,,,-0.000016110000,2.40000
,,,-0.000016100000,1.60000
,,,-0.000016090000,1.60000
,,,-0.000016079998,1.60000
,,,-0.000016070000,1.60000
,,,-0.000016060000,3.20000
,,,-0.000016050000,2.40000
,,,-0.000016040000,1.60000
,,,-0.000016030000,2.40000
,,,-0.000016020000,2.40000
,,,-0.000016010000,2.40000
,,,-0.000016000000,1.60000
,,,-0.000015989998,2.40000
,,,-0.000015980000,3.20000
,,,-0.000015970000,2.40000
,,,-0.000015960000,3.20000
,,,-0.000015950000,2.40000
,,,-0.000015940000,4.00000
,,,-0.000015930000,4.80000
,,,-0.000015920002,5.60000
,,,-0.000015910000,7.20000
,,,-0.000015899998,8.80000
,,,-0.000015890000,12.80000
,,,-0.000015880000,14.40000
,,,-0.000015870000,22.40000
,,,-0.000015860000,27.20000
,,,-0.000015850000,67.20001
,,,-0.000015840000,83.20001
,,,-0.000015829998,57.60000
,,,-0.000015820000,53.60000
,,,-0.000015810000,52.80000
,,,-0.000015800000,52.00000
,,,-0.000015790000,51.20000
,,,-0.000015780000,49.60001
,,,-0.000015770000,50.40001
,,,-0.000015760000,49.60001
,,,-0.000015750000,48.80000
,,,-0.000015739998,48.80000
,,,-0.000015730000,48.80000
,,,-0.000015720000,47.20000
,,,-0.000015710000,48.00000
,,,-0.000015700000,48.80000
,,,-0.000015690000,48.00000
,,,-0.000015680000,49.60001
,,,-0.000015670000,47.20000
,,,-0.000015660000,47.20000
,,,-0.000015649998,48.00000
,,,-0.000015640000,47.20000
,,,-0.000015630000,46.40001
,,,-0.000015620000,46.40001
,,,-0.000015610000,46.40001
,,,-0.000015600000,45.60001
,,,-0.000015590000,45.60001
,,,-0.000015580000,46.40001
,,,-0.000015570000,47.20000
,,,-0.000015559998,45.60001
,,,-0.000015550000,44.00000
,,,-0.000015540000,44.80000
,,,-0.000015530000,44.80000
,,,-0.000015520000,43.20000
,,,-0.000015510000,44.00000
,,,-0.000015500000,44.80000
,,,-0.000015490002,44.00000
,,,-0.000015480000,43.20000
,,,-0.000015469998,44.00000
,,,-0.000015460000,43.20000
,,,-0.000015450000,43.20000
,,,-0.000015440000,43.20000
,,,-0.000015430000,41.60000
,,,-0.000015420000,40.80000
,,,-0.000015410000,41.60000
,,,-0.000015399998,40.80000
,,,-0.000015390000,39.20000
,,,-0.000015380000,40.80000
,,,-0.000015370000,40.00000
,,,-0.000015360000,40.00000
,,,-0.000015350000,37.60000
,,,-0.000015340000,38.40000
,,,-0.000015330000,37.60000
,,,-0.000015320000,37.60000
,,,-0.000015309998,37.60000
,,,-0.000015300000,36.80000
,,,-0.000015290000,36.80000
,,,-0.000015280000,35.20000
,,,-0.000015270000,36.00000
,,,-0.000015260000,36.00000
,,,-0.000015250000,34.40000
,,,-0.000015240000,34.40000
,,,-0.000015230000,34.40000
,,,-0.000015220000,33.60000
,,,-0.000015210000,35.20000
,,,-0.000015200000,33.60000
,,,-0.000015190000,33.60000
,,,-0.000015179999,33.60000
,,,-0.000015169999,33.60000
,,,-0.000015160000,34.40000
,,,-0.000015150000,34.40000
,,,-0.000015140000,32.00000
,,,-0.000015130000,34.40000
,,,-0.000015120000,34.40000
,,,-0.000015110000,33.60000
,,,-0.000015099999,33.60000
,,,-0.000015089999,34.40000
,,,-0.000015080000,33.60000
,,,-0.000015070000,34.40000
,,,-0.000015060000,33.60000
,,,-0.000015050000,34.40000
,,,-0.000015040000,35.20000
,,,-0.000015030000,35.20000
,,,-0.000015020000,34.40000
,,,-0.000015009999,34.40000
,,,-0.000014999999,36.80000
,,,-0.000014990000,36.00000
,,,-0.000014980000,36.80000
,,,-0.000014970000,36.80000
,,,-0.000014960000,36.80000
,,,-0.000014950000,36.00000
,,,-0.000014940000,37.60000
,,,-0.000014930000,37.60000
,,,-0.000014919999,38.40000
,,,-0.000014909999,38.40000
,,,-0.000014900000,38.40000
,,,-0.000014890000,37.60000
,,,-0.000014880000,40.00000
,,,-0.000014870000,39.20000
,,,-0.000014860000,39.20000
,,,-0.000014850000,40.00000
,,,-0.000014839999,40.00000
,,,-0.000014829999,39.20000
,,,-0.000014820000,40.00000
,,,-0.000014810000,38.40000
,,,-0.000014800000,40.00000
,,,-0.000014790000,40.80000
,,,-0.000014780000,40.00000
,,,-0.000014770000,40.00000
,,,-0.000014760000,42.40001
,,,-0.000014749999,40.80000
,,,-0.000014739999,40.80000
,,,-0.000014730000,40.80000
,,,-0.000014720000,40.80000
,,,-0.000014710000,40.80000
,,,-0.000014700000,40.00000
,,,-0.000014690000,40.80000
,,,-0.000014680000,39.20000
,,,-0.000014669999,41.60000
,,,-0.000014659999,40.00000
,,,-0.000014650000,40.00000
,,,-0.000014640000,39.20000
,,,-0.000014630000,38.40000
,,,-0.000014620000,39.20000
,,,-0.000014610000,37.60000
,,,-0.000014600000,38.40000
,,,-0.000014590000,37.60000
,,,-0.000014579999,38.40000
,,,-0.000014569999,37.60000
,,,-0.000014560000,38.40000
,,,-0.000014550000,37.60000
,,,-0.000014540000,37.60000
,,,-0.000014530000,36.00000
,,,-0.000014520000,36.80000
,,,-0.000014510000,36.80000
,,,-0.000014500000,36.00000
,,,-0.000014489999,36.00000
,,,-0.000014479999,36.00000
,,,-0.000014470000,36.00000
,,,-0.000014460000,36.00000
,,,-0.000014450000,36.00000
,,,-0.000014440000,34.40000
,,,-0.000014430000,35.20000
,,,-0.000014420000,34.40000
,,,-0.000014409999,35.20000
,,,-0.000014399999,34.40000
,,,-0.000014390000,36.00000
,,,-0.000014380000,34.40000
,,,-0.000014370000,35.20000
,,,-0.000014360000,34.40000
,,,-0.000014350000,34.40000
,,,-0.000014340000,35.20000
,,,-0.000014330000,36.00000
,,,-0.000014319999,36.00000
,,,-0.000014309999,35.20000
,,,-0.000014300000,34.40000
,,,-0.000014290000,35.20000
,,,-0.000014280000,34.40000
,,,-0.000014270000,35.20000
,,,-0.000014260000,36.80000
,,,-0.000014250000,35.20000
,,,-0.000014239999,36.00000
,,,-0.000014229999,36.00000
,,,-0.000014220000,36.00000
,,,-0.000014210000,36.80000
,,,-0.000014200000,37.60000
,,,-0.000014190000,37.60000
,,,-0.000014180000,36.80000
,,,-0.000014170000,36.80000
,,,-0.000014160000,36.80000
,,,-0.000014149999,37.60000
,,,-0.000014139999,36.80000
,,,-0.000014130000,37.60000
,,,-0.000014120000,37.60000
,,,-0.000014110000,37.60000
,,,-0.000014100000,38.40000
,,,-0.000014090000,37.60000
,,,-0.000014080000,37.60000
,,,-0.000014070000,38.40000
,,,-0.000014059999,37.60000
,,,-0.000014050000,37.60000
,,,-0.000014040000,38.40000
,,,-0.000014030000,39.20000
,,,-0.000014020000,38.40000
,,,-0.000014010000,38.40000
,,,-0.000014000000,38.40000
,,,-0.000013990000,37.60000
,,,-0.000013979999,38.40000
,,,-0.000013969999,38.40000
,,,-0.000013960000,38.40000
,,,-0.000013950000,38.40000
,,,-0.000013940000,38.40000
,,,-0.000013930000,37.60000
,,,-0.000013920000,38.40000
,,,-0.000013910000,38.40000
,,,-0.000013900000,38.40000
,,,-0.000013889999,37.60000
,,,-0.000013879999,37.60000
,,,-0.000013870000,36.80000
,,,-0.000013860000,37.60000
,,,-0.000013850000,38.40000
,,,-0.000013840000,37.60000
,,,-0.000013830000,37.60000
,,,-0.000013820000,37.60000
,,,-0.000013809999,36.80000
,,,-0.000013799999,36.80000
,,,-0.000013790000,36.80000
,,,-0.000013780000,36.80000
,,,-0.000013770000,37.60000
,,,-0.000013760000,36.80000
,,,-0.000013750000,36.80000
,,,-0.000013740000,36.80000
,,,-0.000013730000,36.80000
,,,-0.000013719999,36.80000
,,,-0.000013709999,37.60000
,,,-0.000013700000,36.00000
,,,-0.000013690000,36.00000
,,,-0.000013680000,36.80000
,,,-0.000013670000,36.80000
,,,-0.000013660000,37.60000
,,,-0.000013650000,36.00000
,,,-0.000013640000,36.00000
,,,-0.000013629999,36.00000
,,,-0.000013620000,36.80000
,,,-0.000013610000,36.00000
,,,-0.000013600000,36.00000
,,,-0.000013590000,35.20000
,,,-0.000013580000,36.00000
,,,-0.000013570000,35.20000
,,,-0.000013560000,36.00000
,,,-0.000013549999,36.00000
,,,-0.000013539999,36.80000
,,,-0.000013530000,36.00000
,,,-0.000013520000,36.00000
,,,-0.000013510000,36.00000
,,,-0.000013500000,36.00000
,,,-0.000013490000,36.80000
,,,-0.000013480000,36.80000
,,,-0.000013470000,36.00000
,,,-0.000013459999,36.00000
,,,-0.000013449999,36.00000
,,,-0.000013440000,36.80000
,,,-0.000013430000,36.00000
,,,-0.000013420000,36.80000
,,,-0.000013410000,36.80000
,,,-0.000013400000,36.80000
,,,-0.000013390000,36.00000
,,,-0.000013379999,36.80000
,,,-0.000013369999,37.60000
,,,-0.000013360000,36.80000
,,,-0.000013350000,37.60000
,,,-0.000013340000,37.60000
,,,-0.000013330000,36.80000
