capturas-osciloscopio/17-11-22/WA000044.CSV

Record Length,4096,,Source,CH1
Sample Interval,0.0000000050000,,Second,Volt
Vertical Units,CH1:V,,-0.000016939998,18.40000
Vertical Scale,CH1:20.00,,-0.000016935000,18.40000
Vertical Offset,CH1:36.00000,,-0.000016930000,18.40000
Horizontal Units,s,,-0.000016925000,17.60000
Horizontal Scale,0.0000005000,,-0.000016920000,19.20000
Model Number,WaveAce112,,-0.000016915000,20.00000
Serial Number,LCRY2101C02399,,-0.000016910000,18.40000
Software Version,2.07.02.16,,-0.000016905000,17.60000
,,,-0.000016900000,20.00000
,,,-0.000016894998,20.00000
,,,-0.000016890000,19.20000
,,,-0.000016885000,20.00000
,,,-0.000016880000,18.40000
,,,-0.000016875000,20.00000
,,,-0.000016870000,20.00000
,,,-0.000016865000,19.20000
,,,-0.000016860000,16.80000
,,,-0.000016855000,19.20000
,,,-0.000016849998,19.20000
,,,-0.000016845000,18.40000
,,,-0.000016840000,18.40000
,,,-0.000016835000,18.40000
,,,-0.000016830000,17.60000
,,,-0.000016825002,18.40000
,,,-0.000016820000,18.40000
,,,-0.000016815000,17.60000
,,,-0.000016810000,18.40000
,,,-0.000016804998,17.60000
,,,-0.000016800000,16.80000
,,,-0.000016795000,17.60000
,,,-0.000016790000,16.80000
,,,-0.000016785000,17.60000
,,,-0.000016780002,16.80000
,,,-0.000016775000,15.20000
,,,-0.000016770000,16.80000
,,,-0.000016765000,17.60000
,,,-0.000016759998,16.00000
,,,-0.000016755000,16.00000
,,,-0.000016750000,16.80000
,,,-0.000016745000,16.80000
,,,-0.000016740000,14.40000
,,,-0.000016734998,16.00000
,,,-0.000016730000,16.00000
,,,-0.000016725000,17.60000
,,,-0.000016720000,15.20000
,,,-0.000016715000,15.20000
,,,-0.000016710000,16.00000
,,,-0.000016705000,16.80000
,,,-0.000016700000,15.20000
,,,-0.000016695000,14.40000
,,,-0.000016689998,16.00000
,,,-0.000016685000,16.80000
,,,-0.000016680000,15.20000
,,,-0.000016675000,17.60000
,,,-0.000016670000,15.20000
,,,-0.000016665000,16.80000
,,,-0.000016660000,16.80000
,,,-0.000016655000,16.00000
,,,-0.000016650000,16.80000
,,,-0.000016644998,18.40000
,,,-0.000016640000,15.20000
,,,-0.000016635000,15.20000
,,,-0.000016630000,16.80000
,,,-0.000016625000,18.40000
,,,-0.000016620000,16.80000
,,,-0.000016615000,16.00000
,,,-0.000016610000,16.80000
,,,-0.000016605000,16.00000
,,,-0.000016599998,16.00000
,,,-0.000016595000,15.20000
,,,-0.000016590000,16.00000
,,,-0.000016585000,15.20000
,,,-0.000016580000,12.80000
,,,-0.000016575000,13.60000
,,,-0.000016570000,12.00000
,,,-0.000016565000,10.40000
,,,-0.000016560000,7.20000
,,,-0.000016554998,4.00000
,,,-0.000016550000,0.00
,,,-0.000016545000,-1.60000
,,,-0.000016540000,-1.60000
,,,-0.000016535000,-3.20000
,,,-0.000016530000,-3.20000
,,,-0.000016525000,-2.40000
,,,-0.000016520000,-2.40000
,,,-0.000016515000,-2.40000
,,,-0.000016509998,-3.20000
,,,-0.000016505000,-1.60000
,,,-0.000016500000,-4.00000
,,,-0.000016495000,-2.40000
,,,-0.000016490000,-1.60000
,,,-0.000016485000,-1.60000
,,,-0.000016480000,-3.20000
,,,-0.000016475000,-2.40000
,,,-0.000016470000,-3.20000
,,,-0.000016464998,-2.40000
,,,-0.000016460000,-1.60000
,,,-0.000016455000,-2.40000
,,,-0.000016450000,-3.20000
,,,-0.000016445000,-2.40000
,,,-0.000016440000,-3.20000
,,,-0.000016435000,-1.60000
,,,-0.000016430000,-3.20000
,,,-0.000016425000,-2.40000
,,,-0.000016419998,-1.60000
,,,-0.000016415000,-1.60000
,,,-0.000016410000,-1.60000
,,,-0.000016405000,-2.40000
,,,-0.000016400000,-1.60000
,,,-0.000016395002,-2.40000
,,,-0.000016390000,-3.20000
,,,-0.000016385000,-2.40000
,,,-0.000016380000,-1.60000
,,,-0.000016374998,-2.40000
,,,-0.000016370000,-0.80000
,,,-0.000016365000,-1.60000
,,,-0.000016360000,-3.20000
,,,-0.000016355000,-2.40000
,,,-0.000016350002,-2.40000
,,,-0.000016345000,-1.60000
,,,-0.000016340000,-1.60000
,,,-0.000016335000,-1.60000
,,,-0.000016329998,-3.20000
,,,-0.000016325000,-0.80000
,,,-0.000016320000,-1.60000
,,,-0.000016315000,-2.40000
,,,-0.000016310000,-3.20000
,,,-0.000016304998,-2.40000
,,,-0.000016300000,-1.60000
,,,-0.000016295000,-2.40000
,,,-0.000016290000,-1.60000
,,,-0.000016285000,-2.40000
,,,-0.000016280000,-3.20000
,,,-0.000016275000,-2.40000
,,,-0.000016270000,-1.60000
,,,-0.000016265000,-3.20000
,,,-0.000016259998,-2.40000
,,,-0.000016255000,-2.40000
,,,-0.000016250000,-2.40000
,,,-0.000016245000,-3.20000
,,,-0.000016240000,-3.20000
,,,-0.000016235000,-3.20000
,,,-0.000016230000,-3.20000
,,,-0.000016225000,-2.40000
,,,-0.000016220000,-2.40000
,,,-0.000016214998,-3.20000
,,,-0.000016210000,-3.20000
,,,-0.000016205000,-3.20000
,,,-0.000016200000,-4.80000
,,,-0.000016195000,-6.40000
,,,-0.000016190000,-8.80000
,,,-0.000016185000,-11.20000
,,,-0.000016180000,-14.40000
,,,-0.000016175000,-18.40000
,,,-0.000016169998,-23.20000
,,,-0.000016165000,-28.80000
,,,-0.000016160000,-34.40000
,,,-0.000016155000,-38.40000
,,,-0.000016150000,-44.00000
,,,-0.000016145000,-51.20000
,,,-0.000016140000,-56.00000
,,,-0.000016135000,-61.60000
,,,-0.000016130000,-68.00000
,,,-0.000016124998,-71.20001
,,,-0.000016120000,-76.80001
,,,-0.000016115000,-80.80001
,,,-0.000016110000,-84.80002
,,,-0.000016105000,-87.20002
,,,-0.000016100000,-88.80002
,,,-0.000016095000,-91.20002
,,,-0.000016090000,-92.80002
,,,-0.000016085000,-90.40000
,,,-0.000016079998,-89.60000
,,,-0.000016075000,-89.60000
,,,-0.000016070000,-87.20002
,,,-0.000016065000,-83.20001
,,,-0.000016060000,-79.20001
,,,-0.000016055000,-75.20001
,,,-0.000016050000,-68.80001
,,,-0.000016045000,-64.80001
,,,-0.000016040000,-57.60000
,,,-0.000016034998,-52.00000
,,,-0.000016030000,-44.80000
,,,-0.000016025000,-40.00000
,,,-0.000016020000,-33.60000
,,,-0.000016015000,-28.00000
,,,-0.000016010000,-20.00000
,,,-0.000016005000,-14.40000
,,,-0.000016000000,-9.60000
,,,-0.000015995000,-3.20000
,,,-0.000015989998,-1.60000
,,,-0.000015985000,-1.60000
,,,-0.000015980000,-1.60000
,,,-0.000015975000,-0.80000
,,,-0.000015970000,-3.20000
,,,-0.000015965002,-1.60000
,,,-0.000015960000,-3.20000
,,,-0.000015955000,-1.60000
,,,-0.000015950000,-1.60000
,,,-0.000015944998,-2.40000
,,,-0.000015940000,-1.60000
,,,-0.000015935000,-2.40000
,,,-0.000015930000,-1.60000
,,,-0.000015925000,-1.60000
,,,-0.000015920002,-3.20000
,,,-0.000015915000,-2.40000
,,,-0.000015910000,-1.60000
,,,-0.000015905000,-2.40000
,,,-0.000015899998,-1.60000
,,,-0.000015895000,-2.40000
,,,-0.000015890000,-1.60000
,,,-0.000015885000,-2.40000
,,,-0.000015880000,-3.20000
,,,-0.000015874998,-4.00000
,,,-0.000015870000,-7.20000
,,,-0.000015865000,-8.00000
,,,-0.000015860000,-9.60000
,,,-0.000015855000,-14.40000
,,,-0.000015850000,-18.40000
,,,-0.000015845000,-21.60000
,,,-0.000015840000,-26.40000
,,,-0.000015835000,-28.80000
,,,-0.000015829998,-32.80000
,,,-0.000015825000,-36.00000
,,,-0.000015820000,-37.60000
,,,-0.000015815000,-40.80000
,,,-0.000015810000,-43.20000
,,,-0.000015805000,-45.60001
,,,-0.000015800000,-48.00000
,,,-0.000015795000,-49.60001
,,,-0.000015790000,-52.80000
,,,-0.000015784998,-51.20000
,,,-0.000015780000,-52.00000
,,,-0.000015775000,-52.00000
,,,-0.000015770000,-51.20000
,,,-0.000015765000,-49.60001
,,,-0.000015760000,-48.80000
,,,-0.000015755000,-47.20000
,,,-0.000015750000,-44.80000
,,,-0.000015745000,-42.40001
,,,-0.000015739998,-40.00000
,,,-0.000015735000,-36.80000
,,,-0.000015730000,-33.60000
,,,-0.000015725000,-32.80000
,,,-0.000015720000,-28.80000
,,,-0.000015715000,-25.60000
,,,-0.000015710000,-22.40000
,,,-0.000015705000,-20.00000
,,,-0.000015700000,-16.80000
,,,-0.000015694998,-15.20000
,,,-0.000015690000,-12.00000
,,,-0.000015685000,-9.60000
,,,-0.000015680000,-10.40000
,,,-0.000015675000,-8.80000
,,,-0.000015670000,-6.40000
,,,-0.000015665000,-5.60000
,,,-0.000015660000,-5.60000
,,,-0.000015655000,-6.40000
,,,-0.000015649998,-6.40000
,,,-0.000015645000,-6.40000
,,,-0.000015640000,-7.20000
,,,-0.000015635000,-8.80000
,,,-0.000015630000,-10.40000
,,,-0.000015625000,-12.00000
,,,-0.000015620000,-14.40000
,,,-0.000015615000,-15.20000
,,,-0.000015610000,-17.60000
,,,-0.000015604998,-20.80000
,,,-0.000015600000,-23.20000
,,,-0.000015595000,-26.40000
,,,-0.000015590000,-29.60000
,,,-0.000015585000,-32.00000
,,,-0.000015580000,-33.60000
,,,-0.000015575000,-35.20000
,,,-0.000015570000,-36.80000
,,,-0.000015565000,-39.20000
,,,-0.000015559998,-41.60000
,,,-0.000015555000,-41.60000
,,,-0.000015550000,-43.20000
,,,-0.000015545000,-44.80000
,,,-0.000015540000,-44.80000
,,,-0.000015535002,-44.80000
,,,-0.000015530000,-45.60001
,,,-0.000015525000,-44.80000
,,,-0.000015520000,-42.40001
,,,-0.000015514998,-43.20000
,,,-0.000015510000,-42.40001
,,,-0.000015505000,-41.60000
,,,-0.000015500000,-39.20000
,,,-0.000015495000,-38.40000
,,,-0.000015490002,-36.80000
,,,-0.000015485000,-34.40000
,,,-0.000015480000,-32.80000
,,,-0.000015475000,-31.20000
,,,-0.000015469998,-28.00000
,,,-0.000015465000,-28.00000
,,,-0.000015460000,-24.80000
,,,-0.000015455000,-22.40000
,,,-0.000015450000,-20.00000
,,,-0.000015444998,-18.40000
,,,-0.000015440000,-17.60000
,,,-0.000015435000,-16.80000
,,,-0.000015430000,-14.40000
,,,-0.000015425000,-14.40000
,,,-0.000015420000,-12.80000
,,,-0.000015415000,-13.60000
,,,-0.000015410000,-13.60000
,,,-0.000015405000,-12.80000
,,,-0.000015399998,-13.60000
,,,-0.000015395000,-14.40000
,,,-0.000015390000,-16.00000
,,,-0.000015385000,-16.00000
,,,-0.000015380000,-16.80000
,,,-0.000015375000,-17.60000
,,,-0.000015370000,-20.00000
,,,-0.000015365000,-20.80000
,,,-0.000015360000,-23.20000
,,,-0.000015354998,-24.80000
,,,-0.000015350000,-26.40000
,,,-0.000015345000,-28.00000
,,,-0.000015340000,-29.60000
,,,-0.000015335000,-29.60000
,,,-0.000015330000,-32.80000
,,,-0.000015325000,-32.80000
,,,-0.000015320000,-33.60000
,,,-0.000015315000,-35.20000
,,,-0.000015309998,-36.00000
,,,-0.000015305000,-36.00000
,,,-0.000015300000,-36.80000
,,,-0.000015295000,-36.80000
,,,-0.000015290000,-36.80000
,,,-0.000015285000,-36.00000
,,,-0.000015280000,-36.80000
,,,-0.000015275000,-36.00000
,,,-0.000015270000,-36.80000
,,,-0.000015264998,-34.40000
,,,-0.000015260000,-32.00000
,,,-0.000015255000,-32.00000
,,,-0.000015250000,-30.40000
,,,-0.000015245000,-28.80000
,,,-0.000015240000,-28.00000
,,,-0.000015235000,-26.40000
,,,-0.000015230000,-24.80000
,,,-0.000015224999,-23.20000
,,,-0.000015220000,-21.60000
,,,-0.000015214999,-20.00000
,,,-0.000015210000,-19.20000
,,,-0.000015205000,-17.60000
,,,-0.000015200000,-16.80000
,,,-0.000015195000,-17.60000
,,,-0.000015190000,-14.40000
,,,-0.000015185000,-15.20000
,,,-0.000015179999,-15.20000
,,,-0.000015175000,-14.40000
,,,-0.000015169999,-13.60000
,,,-0.000015165000,-14.40000
,,,-0.000015160000,-14.40000
,,,-0.000015155000,-14.40000
,,,-0.000015150000,-15.20000
,,,-0.000015145000,-16.00000
,,,-0.000015140000,-16.00000
,,,-0.000015134999,-18.40000
,,,-0.000015130000,-18.40000
,,,-0.000015124999,-20.00000
,,,-0.000015120000,-20.00000
,,,-0.000015115000,-22.40000
,,,-0.000015110000,-23.20000
,,,-0.000015105000,-25.60000
,,,-0.000015099999,-25.60000
,,,-0.000015095000,-27.20000
,,,-0.000015089999,-28.00000
,,,-0.000015085000,-28.80000
,,,-0.000015080000,-29.60000
,,,-0.000015075000,-30.40000
,,,-0.000015070000,-32.00000
,,,-0.000015065000,-32.00000
,,,-0.000015060000,-32.00000
,,,-0.000015054999,-32.80000
,,,-0.000015050000,-32.80000
,,,-0.000015044999,-32.00000
,,,-0.000015040000,-32.00000
,,,-0.000015035000,-32.00000
,,,-0.000015030000,-31.20000
,,,-0.000015025000,-32.00000
,,,-0.000015020000,-29.60000
,,,-0.000015015000,-29.60000
,,,-0.000015009999,-29.60000
,,,-0.000015005000,-28.00000
,,,-0.000014999999,-27.20000
,,,-0.000014995000,-26.40000
,,,-0.000014990000,-24.80000
,,,-0.000014985000,-25.60000
,,,-0.000014980000,-22.40000
,,,-0.000014975000,-21.60000
,,,-0.000014970000,-20.80000
,,,-0.000014964999,-20.80000
,,,-0.000014960000,-19.20000
,,,-0.000014954999,-20.00000
,,,-0.000014950000,-19.20000
,,,-0.000014945000,-19.20000
,,,-0.000014940000,-18.40000
,,,-0.000014935000,-19.20000
,,,-0.000014930000,-18.40000
,,,-0.000014925000,-19.20000
,,,-0.000014919999,-19.20000
,,,-0.000014915000,-19.20000
,,,-0.000014909999,-20.00000
,,,-0.000014905000,-21.60000
,,,-0.000014900000,-20.00000
,,,-0.000014895000,-21.60000
,,,-0.000014890000,-22.40000
,,,-0.000014884999,-22.40000
,,,-0.000014880000,-24.80000
,,,-0.000014874999,-25.60000
,,,-0.000014870000,-26.40000
,,,-0.000014865000,-28.00000
,,,-0.000014860000,-28.00000
,,,-0.000014855000,-28.80000
,,,-0.000014850000,-30.40000
,,,-0.000014845000,-29.60000
,,,-0.000014839999,-31.20000
,,,-0.000014835000,-32.00000
,,,-0.000014829999,-32.80000
,,,-0.000014825000,-32.80000
,,,-0.000014820000,-32.80000
,,,-0.000014815000,-32.80000
,,,-0.000014810000,-33.60000
,,,-0.000014805000,-32.80000
,,,-0.000014800000,-32.80000
,,,-0.000014794999,-32.00000
,,,-0.000014790000,-32.00000
,,,-0.000014784999,-32.00000
,,,-0.000014780000,-30.40000
,,,-0.000014775000,-30.40000
,,,-0.000014770000,-30.40000
,,,-0.000014765000,-28.00000
,,,-0.000014760000,-29.60000
,,,-0.000014755000,-28.00000
,,,-0.000014749999,-27.20000
,,,-0.000014745000,-26.40000
,,,-0.000014739999,-26.40000
,,,-0.000014735000,-24.80000
,,,-0.000014730000,-24.80000
,,,-0.000014725000,-23.20000
,,,-0.000014720000,-22.40000
,,,-0.000014715000,-21.60000
,,,-0.000014710000,-22.40000
,,,-0.000014704999,-22.40000
,,,-0.000014700000,-20.00000
,,,-0.000014694999,-21.60000
,,,-0.000014690000,-22.40000
,,,-0.000014685000,-21.60000
,,,-0.000014680000,-20.80000
,,,-0.000014675000,-21.60000
,,,-0.000014669999,-22.40000
,,,-0.000014665000,-22.40000
,,,-0.000014659999,-23.20000
,,,-0.000014655000,-22.40000
,,,-0.000014650000,-23.20000
,,,-0.000014645000,-25.60000
,,,-0.000014640000,-25.60000
,,,-0.000014635000,-25.60000
,,,-0.000014630000,-25.60000
,,,-0.000014624999,-27.20000
,,,-0.000014620000,-26.40000
,,,-0.000014614999,-28.80000
,,,-0.000014610000,-28.00000
,,,-0.000014605000,-28.80000
,,,-0.000014600000,-29.60000
,,,-0.000014595000,-28.80000
,,,-0.000014590000,-30.40000
,,,-0.000014585000,-29.60000
,,,-0.000014579999,-29.60000
,,,-0.000014575000,-30.40000
,,,-0.000014569999,-29.60000
,,,-0.000014565000,-28.80000
,,,-0.000014560000,-29.60000
,,,-0.000014555000,-28.80000
,,,-0.000014550000,-29.60000
,,,-0.000014545000,-28.80000
,,,-0.000014540000,-28.00000
,,,-0.000014534999,-27.20000
,,,-0.000014530000,-26.40000
,,,-0.000014524999,-25.60000
,,,-0.000014520000,-26.40000
,,,-0.000014515000,-24.80000
,,,-0.000014510000,-23.20000
,,,-0.000014505000,-24.80000
,,,-0.000014500000,-23.20000
,,,-0.000014495000,-22.40000
,,,-0.000014489999,-22.40000
,,,-0.000014485000,-21.60000
,,,-0.000014479999,-22.40000
,,,-0.000014475000,-20.80000
,,,-0.000014470000,-20.00000
,,,-0.000014465000,-20.80000
,,,-0.000014460000,-20.00000
,,,-0.000014454999,-21.60000
,,,-0.000014450000,-20.00000
,,,-0.000014444999,-20.00000
,,,-0.000014440000,-20.00000
,,,-0.000014435000,-20.80000
,,,-0.000014430000,-20.80000
,,,-0.000014425000,-22.40000
,,,-0.000014420000,-20.80000
,,,-0.000014415000,-22.40000
,,,-0.000014409999,-22.40000
,,,-0.000014405000,-21.60000
,,,-0.000014399999,-23.20000
,,,-0.000014395000,-24.80000
,,,-0.000014390000,-24.80000
,,,-0.000014385000,-25.60000
,,,-0.000014380000,-25.60000
,,,-0.000014375000,-25.60000
,,,-0.000014370000,-26.40000
,,,-0.000014364999,-26.40000
,,,-0.000014360000,-27.20000
,,,-0.000014354999,-28.00000
,,,-0.000014350000,-27.20000
,,,-0.000014345000,-28.00000
,,,-0.000014340000,-27.20000
,,,-0.000014335000,-27.20000
,,,-0.000014330000,-27.20000
,,,-0.000014325000,-28.00000
,,,-0.000014319999,-27.20000
,,,-0.000014315000,-27.20000
,,,-0.000014309999,-27.20000
,,,-0.000014305000,-28.00000
,,,-0.000014300000,-26.40000
,,,-0.000014295000,-26.40000
,,,-0.000014290000,-25.60000
,,,-0.000014285000,-25.60000
,,,-0.000014280000,-25.60000
,,,-0.000014274999,-24.80000
,,,-0.000014270000,-23.20000
,,,-0.000014264999,-23.20000
,,,-0.000014260000,-22.40000
,,,-0.000014255000,-22.40000
,,,-0.000014250000,-22.40000
,,,-0.000014245000,-21.60000
,,,-0.000014239999,-22.40000
,,,-0.000014235000,-22.40000
,,,-0.000014229999,-22.40000
,,,-0.000014225000,-21.60000
,,,-0.000014220000,-22.40000
,,,-0.000014215000,-23.20000
,,,-0.000014210000,-22.40000
,,,-0.000014205000,-21.60000
,,,-0.000014200000,-22.40000
,,,-0.000014194999,-23.20000
,,,-0.000014190000,-23.20000
,,,-0.000014184999,-23.20000
,,,-0.000014180000,-23.20000
,,,-0.000014175000,-24.80000
,,,-0.000014170000,-25.60000
,,,-0.000014165000,-25.60000
,,,-0.000014160000,-24.80000
,,,-0.000014155000,-25.60000
,,,-0.000014149999,-26.40000
,,,-0.000014145000,-27.20000
,,,-0.000014139999,-27.20000
,,,-0.000014135000,-26.40000
,,,-0.000014130000,-27.20000
,,,-0.000014125000,-27.20000
,,,-0.000014120000,-28.00000
,,,-0.000014115000,-28.00000
,,,-0.000014110000,-28.00000
,,,-0.000014104999,-28.80000
,,,-0.000014100000,-29.60000
,,,-0.000014094999,-28.00000
,,,-0.000014090000,-28.00000
,,,-0.000014085000,-28.00000
,,,-0.000014080000,-29.60000
,,,-0.000014075000,-28.00000
,,,-0.000014070000,-27.20000
,,,-0.000014065000,-28.80000
,,,-0.000014059999,-26.40000
,,,-0.000014055000,-26.40000
,,,-0.000014050000,-26.40000
,,,-0.000014045000,-26.40000
,,,-0.000014040000,-27.20000
,,,-0.000014035000,-25.60000
,,,-0.000014030000,-25.60000
,,,-0.000014024999,-25.60000
,,,-0.000014020000,-24.80000
,,,-0.000014014999,-24.80000
,,,-0.000014010000,-23.20000
,,,-0.000014005000,-24.80000
,,,-0.000014000000,-24.80000
,,,-0.000013995000,-24.80000
,,,-0.000013990000,-23.20000
,,,-0.000013985000,-24.80000
,,,-0.000013979999,-23.20000
,,,-0.000013975000,-24.80000
,,,-0.000013969999,-23.20000
,,,-0.000013965000,-25.60000
,,,-0.000013960000,-24.80000
,,,-0.000013955000,-24.80000
,,,-0.000013950000,-23.20000
,,,-0.000013945000,-25.60000
,,,-0.000013940000,-24.80000
,,,-0.000013934999,-25.60000
,,,-0.000013930000,-24.80000
,,,-0.000013924999,-26.40000
,,,-0.000013920000,-27.20000
,,,-0.000013915000,-26.40000
,,,-0.000013910000,-25.60000
,,,-0.000013905000,-26.40000
,,,-0.000013900000,-26.40000
,,,-0.000013895000,-27.20000
,,,-0.000013889999,-27.20000
,,,-0.000013885000,-26.40000
,,,-0.000013879999,-27.20000
,,,-0.000013875000,-26.40000
,,,-0.000013870000,-27.20000
,,,-0.000013865000,-28.00000
,,,-0.000013860000,-27.20000
,,,-0.000013855000,-27.20000
,,,-0.000013850000,-26.40000
,,,-0.000013844999,-26.40000
,,,-0.000013840000,-27.20000
,,,-0.000013835000,-26.40000
,,,-0.000013830000,-26.40000
,,,-0.000013825000,-26.40000
,,,-0.000013820000,-25.60000
,,,-0.000013815000,-25.60000
,,,-0.000013809999,-25.60000
,,,-0.000013805000,-25.60000
,,,-0.000013799999,-23.20000
,,,-0.000013795000,-24.80000
,,,-0.000013790000,-24.80000
,,,-0.000013785000,-23.20000
,,,-0.000013780000,-23.20000
,,,-0.000013775000,-22.40000
,,,-0.000013770000,-22.40000
,,,-0.000013764999,-22.40000
,,,-0.000013760000,-23.20000
,,,-0.000013754999,-22.40000
,,,-0.000013750000,-22.40000
,,,-0.000013745000,-23.20000
,,,-0.000013740000,-22.40000
,,,-0.000013735000,-22.40000
,,,-0.000013730000,-22.40000
,,,-0.000013725000,-21.60000
,,,-0.000013719999,-23.20000
,,,-0.000013715000,-22.40000
,,,-0.000013709999,-22.40000
,,,-0.000013705000,-23.20000
,,,-0.000013700000,-21.60000
,,,-0.000013695000,-25.60000
,,,-0.000013690000,-24.80000
,,,-0.000013685000,-22.40000
,,,-0.000013680000,-24.80000
,,,-0.000013674999,-24.80000
,,,-0.000013670000,-23.20000
,,,-0.000013664999,-25.60000
,,,-0.000013660000,-24.80000
,,,-0.000013655000,-24.80000
,,,-0.000013650000,-25.60000
,,,-0.000013645000,-25.60000
,,,-0.000013640000,-23.20000
,,,-0.000013635000,-25.60000
,,,-0.000013629999,-25.60000
,,,-0.000013625000,-26.40000
,,,-0.000013620000,-24.80000
,,,-0.000013615000,-24.80000
,,,-0.000013610000,-25.60000
,,,-0.000013605000,-24.80000
,,,-0.000013600000,-25.60000
,,,-0.000013594999,-24.80000
,,,-0.000013590000,-24.80000
,,,-0.000013584999,-23.20000
,,,-0.000013580000,-22.40000
,,,-0.000013575000,-22.40000
,,,-0.000013570000,-22.40000
,,,-0.000013565000,-21.60000
,,,-0.000013560000,-20.00000
,,,-0.000013555000,-21.60000
,,,-0.000013549999,-20.00000
,,,-0.000013545000,-19.20000
,,,-0.000013539999,-17.60000
,,,-0.000013535000,-18.40000
,,,-0.000013530000,-16.80000
,,,-0.000013525000,-16.80000
,,,-0.000013520000,-16.00000
,,,-0.000013515000,-14.40000
,,,-0.000013510000,-12.80000
