capturas-osciloscopio/17-11-22/WA000034.CSV

Record Length,4096,,Source,CH1
Sample Interval,0.0000000050000,,Second,Volt
Vertical Units,CH1:V,,-0.000005200000,27.20000
Vertical Scale,CH1:10.00,,-0.000005195000,28.00000
Vertical Offset,CH1:-30.40000,,-0.000005190000,28.40000
Horizontal Units,s,,-0.000005185000,29.20000
Horizontal Scale,0.0000010000,,-0.000005180000,30.00000
Model Number,WaveAce112,,-0.000005175000,30.00000
Serial Number,LCRY2101C02399,,-0.000005170000,30.80000
Software Version,2.07.02.16,,-0.000005165000,31.60000
,,,-0.000005160000,32.80000
,,,-0.000005155000,33.20000
,,,-0.000005150000,33.60000
,,,-0.000005145000,34.40000
,,,-0.000005140000,35.20000
,,,-0.000005135000,34.40000
,,,-0.000005130000,35.60000
,,,-0.000005125000,36.00000
,,,-0.000005120000,36.00000
,,,-0.000005115000,35.60000
,,,-0.000005110000,36.00000
,,,-0.000005105000,36.40000
,,,-0.000005100000,36.40000
,,,-0.000005095000,36.00000
,,,-0.000005090000,36.80000
,,,-0.000005085000,36.00000
,,,-0.000005080000,36.80000
,,,-0.000005075000,35.60000
,,,-0.000005070000,35.60000
,,,-0.000005065000,36.00000
,,,-0.000005060000,35.60000
,,,-0.000005055000,35.60000
,,,-0.000005050000,36.00000
,,,-0.000005045000,35.60000
,,,-0.000005040000,34.80000
,,,-0.000005035000,34.80000
,,,-0.000005030000,35.20000
,,,-0.000005025000,34.80000
,,,-0.000005020000,34.80000
,,,-0.000005015000,34.00000
,,,-0.000005010000,34.00000
,,,-0.000005005000,34.40000
,,,-0.000005000000,33.60000
,,,-0.000004995000,33.20000
,,,-0.000004990000,33.20000
,,,-0.000004985000,32.80000
,,,-0.000004980000,32.80000
,,,-0.000004975000,32.00000
,,,-0.000004970000,32.40000
,,,-0.000004965000,31.60000
,,,-0.000004960000,31.60000
,,,-0.000004955000,32.00000
,,,-0.000004950000,30.40000
,,,-0.000004945000,31.60000
,,,-0.000004940000,30.80000
,,,-0.000004935000,30.00000
,,,-0.000004930000,30.00000
,,,-0.000004925000,30.00000
,,,-0.000004920000,30.00000
,,,-0.000004915000,30.00000
,,,-0.000004910000,29.60000
,,,-0.000004905000,29.20000
,,,-0.000004900000,29.20000
,,,-0.000004895000,29.20000
,,,-0.000004890000,29.20000
,,,-0.000004885000,29.20000
,,,-0.000004880000,28.80000
,,,-0.000004875000,28.40000
,,,-0.000004870000,28.40000
,,,-0.000004865000,28.40000
,,,-0.000004860000,27.60000
,,,-0.000004855000,28.00000
,,,-0.000004850000,27.60000
,,,-0.000004845000,27.60000
,,,-0.000004840000,27.20000
,,,-0.000004835000,27.20000
,,,-0.000004830000,26.80000
,,,-0.000004825000,26.80000
,,,-0.000004820000,26.40000
,,,-0.000004815000,26.00000
,,,-0.000004810000,26.00000
,,,-0.000004805000,26.00000
,,,-0.000004800000,25.60000
,,,-0.000004795000,25.20000
,,,-0.000004790000,25.20000
,,,-0.000004785000,24.40000
,,,-0.000004780000,24.40000
,,,-0.000004775000,24.00000
,,,-0.000004770000,24.00000
,,,-0.000004765000,23.60000
,,,-0.000004760000,24.00000
,,,-0.000004755000,22.80000
,,,-0.000004750000,22.40000
,,,-0.000004745000,23.20000
,,,-0.000004740000,22.80000
,,,-0.000004735000,22.00000
,,,-0.000004730000,22.80000
,,,-0.000004725000,22.00000
,,,-0.000004720000,22.00000
,,,-0.000004715000,21.60000
,,,-0.000004710000,20.80000
,,,-0.000004705000,21.60000
,,,-0.000004700000,20.80000
,,,-0.000004695000,20.40000
,,,-0.000004690000,20.40000
,,,-0.000004685000,20.40000
,,,-0.000004680000,19.60000
,,,-0.000004675000,19.60000
,,,-0.000004670000,19.20000
,,,-0.000004665000,18.80000
,,,-0.000004660000,19.20000
,,,-0.000004655000,18.00000
,,,-0.000004650000,18.80000
,,,-0.000004645000,18.40000
,,,-0.000004640000,17.60000
,,,-0.000004635000,17.60000
,,,-0.000004630000,17.60000
,,,-0.000004625000,17.20000
,,,-0.000004620000,17.20000
,,,-0.000004615000,16.40000
,,,-0.000004610000,16.80000
,,,-0.000004605000,16.40000
,,,-0.000004600000,16.40000
,,,-0.000004595000,16.40000
,,,-0.000004590000,16.40000
,,,-0.000004585000,16.00000
,,,-0.000004580000,15.60000
,,,-0.000004575000,15.60000
,,,-0.000004570000,16.00000
,,,-0.000004565000,15.60000
,,,-0.000004560000,15.60000
,,,-0.000004555000,15.20000
,,,-0.000004550000,14.80000
,,,-0.000004545000,14.80000
,,,-0.000004540000,14.80000
,,,-0.000004535000,14.40000
,,,-0.000004530000,15.20000
,,,-0.000004525000,15.20000
,,,-0.000004520000,15.60000
,,,-0.000004515000,14.40000
,,,-0.000004510000,14.80000
,,,-0.000004505000,15.20000
,,,-0.000004500000,14.80000
,,,-0.000004495000,14.00000
,,,-0.000004490000,15.60000
,,,-0.000004485000,14.80000
,,,-0.000004480000,14.40000
,,,-0.000004475000,15.20000
,,,-0.000004470000,14.40000
,,,-0.000004465000,15.60000
,,,-0.000004460000,14.40000
,,,-0.000004455000,14.00000
,,,-0.000004450000,15.60000
,,,-0.000004445000,14.80000
,,,-0.000004440000,14.80000
,,,-0.000004435000,15.20000
,,,-0.000004430000,14.40000
,,,-0.000004425000,14.40000
,,,-0.000004420000,14.80000
,,,-0.000004415000,15.20000
,,,-0.000004410000,14.40000
,,,-0.000004405000,15.20000
,,,-0.000004400000,14.40000
,,,-0.000004395000,14.80000
,,,-0.000004390000,14.40000
,,,-0.000004385000,13.60000
,,,-0.000004380000,14.40000
,,,-0.000004375000,14.00000
,,,-0.000004370000,14.00000
,,,-0.000004365000,13.20000
,,,-0.000004360000,14.40000
,,,-0.000004355000,13.60000
,,,-0.000004350000,13.20000
,,,-0.000004345000,13.60000
,,,-0.000004340000,13.60000
,,,-0.000004335000,12.40000
,,,-0.000004330000,12.80000
,,,-0.000004325000,12.80000
,,,-0.000004320000,12.40000
,,,-0.000004315000,12.40000
,,,-0.000004310000,12.40000
,,,-0.000004305000,12.40000
,,,-0.000004300000,12.40000
,,,-0.000004295000,12.00000
,,,-0.000004290000,11.20000
,,,-0.000004285000,10.80000
,,,-0.000004280000,11.60000
,,,-0.000004275000,11.20000
,,,-0.000004270000,10.80000
,,,-0.000004265000,11.60000
,,,-0.000004260000,10.80000
,,,-0.000004255000,10.80000
,,,-0.000004250000,10.40000
,,,-0.000004245000,10.80000
,,,-0.000004240000,11.20000
,,,-0.000004235000,11.60000
,,,-0.000004230000,11.20000
,,,-0.000004225000,10.40000
,,,-0.000004220000,10.80000
,,,-0.000004215000,10.80000
,,,-0.000004210000,11.20000
,,,-0.000004205000,10.80000
,,,-0.000004200000,11.20000
,,,-0.000004195000,11.20000
,,,-0.000004190000,10.40000
,,,-0.000004185000,10.40000
,,,-0.000004180000,11.20000
,,,-0.000004175000,10.80000
,,,-0.000004170000,11.20000
,,,-0.000004165000,10.40000
,,,-0.000004160000,10.80000
,,,-0.000004155000,10.80000
,,,-0.000004150000,10.40000
,,,-0.000004145000,10.40000
,,,-0.000004140000,10.00000
,,,-0.000004135000,11.20000
,,,-0.000004130000,10.40000
,,,-0.000004125000,10.00000
,,,-0.000004120000,10.40000
,,,-0.000004115000,10.40000
,,,-0.000004110000,9.60000
,,,-0.000004105000,10.00000
,,,-0.000004100000,10.40000
,,,-0.000004095000,10.00000
,,,-0.000004090000,9.60000
,,,-0.000004085000,10.00000
,,,-0.000004080000,10.40000
,,,-0.000004075000,10.00000
,,,-0.000004070000,9.60000
,,,-0.000004065000,9.60000
,,,-0.000004060000,9.60000
,,,-0.000004055000,9.20000
,,,-0.000004050000,9.60000
,,,-0.000004045000,9.20000
,,,-0.000004040000,9.20000
,,,-0.000004035000,10.00000
,,,-0.000004030000,9.20000
,,,-0.000004025000,9.20000
,,,-0.000004020000,9.20000
,,,-0.000004015000,9.20000
,,,-0.000004010000,9.60000
,,,-0.000004005000,8.80000
,,,-0.000004000000,8.40000
,,,-0.000003995000,8.80000
,,,-0.000003990000,9.20000
,,,-0.000003985000,9.20000
,,,-0.000003980000,8.40000
,,,-0.000003975000,8.80000
,,,-0.000003970000,9.20000
,,,-0.000003965000,8.80000
,,,-0.000003960000,9.20000
,,,-0.000003955000,8.40000
,,,-0.000003950000,8.40000
,,,-0.000003945000,8.80000
,,,-0.000003940000,8.40000
,,,-0.000003935000,8.80000
,,,-0.000003930000,8.40000
,,,-0.000003925000,7.60000
,,,-0.000003920000,8.40000
,,,-0.000003915000,8.80000
,,,-0.000003910000,8.00000
,,,-0.000003905000,8.00000
,,,-0.000003900000,8.40000
,,,-0.000003895000,8.00000
,,,-0.000003890000,7.60000
,,,-0.000003885000,8.00000
,,,-0.000003880000,8.00000
,,,-0.000003875000,8.40000
,,,-0.000003870000,8.00000
,,,-0.000003865000,8.40000
,,,-0.000003860000,8.00000
,,,-0.000003855000,7.60000
,,,-0.000003850000,8.00000
,,,-0.000003845000,8.40000
,,,-0.000003840000,8.00000
,,,-0.000003835000,8.00000
,,,-0.000003830000,7.60000
,,,-0.000003825000,7.60000
,,,-0.000003820000,8.00000
,,,-0.000003815000,7.20000
,,,-0.000003810000,8.00000
,,,-0.000003805000,8.00000
,,,-0.000003800000,7.60000
,,,-0.000003795000,6.80000
,,,-0.000003790000,8.00000
,,,-0.000003785000,8.00000
,,,-0.000003780000,7.60000
,,,-0.000003775000,7.20000
,,,-0.000003770000,7.60000
,,,-0.000003765000,6.80000
,,,-0.000003760000,7.20000
,,,-0.000003755000,8.00000
,,,-0.000003750000,7.60000
,,,-0.000003745000,7.60000
,,,-0.000003740000,6.80000
,,,-0.000003735000,6.40000
,,,-0.000003730000,8.00000
,,,-0.000003725000,7.20000
,,,-0.000003720000,6.80000
,,,-0.000003715000,7.20000
,,,-0.000003710000,7.20000
,,,-0.000003705000,6.80000
,,,-0.000003700000,6.80000
,,,-0.000003695000,6.80000
,,,-0.000003690000,6.80000
,,,-0.000003685000,6.40000
,,,-0.000003680000,7.60000
,,,-0.000003675000,6.80000
,,,-0.000003670000,6.80000
,,,-0.000003665000,6.80000
,,,-0.000003660000,6.40000
,,,-0.000003655000,6.00000
,,,-0.000003650000,7.20000
,,,-0.000003645000,6.80000
,,,-0.000003640000,6.00000
,,,-0.000003635000,7.20000
,,,-0.000003630000,7.20000
,,,-0.000003625000,6.80000
,,,-0.000003620000,6.80000
,,,-0.000003615000,6.00000
,,,-0.000003610000,6.40000
,,,-0.000003605000,6.40000
,,,-0.000003600000,6.80000
,,,-0.000003595000,5.60000
,,,-0.000003590000,6.40000
,,,-0.000003585000,6.80000
,,,-0.000003580000,6.80000
,,,-0.000003575000,5.60000
,,,-0.000003570000,6.80000
,,,-0.000003565000,6.40000
,,,-0.000003560000,6.80000
,,,-0.000003555000,6.80000
,,,-0.000003550000,6.00000
,,,-0.000003545000,6.00000
,,,-0.000003540000,6.40000
,,,-0.000003535000,6.80000
,,,-0.000003530000,6.80000
,,,-0.000003525000,5.20000
,,,-0.000003520000,6.40000
,,,-0.000003515000,6.80000
,,,-0.000003510000,6.40000
,,,-0.000003505000,5.60000
,,,-0.000003500000,6.40000
,,,-0.000003495000,6.00000
,,,-0.000003490000,6.40000
,,,-0.000003485000,5.20000
,,,-0.000003480000,5.60000
,,,-0.000003475000,6.00000
,,,-0.000003470000,6.00000
,,,-0.000003465000,5.20000
,,,-0.000003460000,5.20000
,,,-0.000003455000,4.80000
,,,-0.000003450000,5.20000
,,,-0.000003445000,5.60000
,,,-0.000003440000,5.60000
,,,-0.000003435000,5.20000
,,,-0.000003430000,4.00000
,,,-0.000003425000,5.20000
,,,-0.000003420000,4.80000
,,,-0.000003415000,3.60000
,,,-0.000003410000,4.40000
,,,-0.000003405000,5.20000
,,,-0.000003400000,4.40000
,,,-0.000003395000,3.60000
,,,-0.000003390000,4.00000
,,,-0.000003385000,4.00000
,,,-0.000003380000,4.00000
,,,-0.000003375000,2.40000
,,,-0.000003370000,4.00000
,,,-0.000003365000,3.20000
,,,-0.000003360000,2.00000
,,,-0.000003355000,2.80000
,,,-0.000003350000,2.80000
,,,-0.000003345000,2.00000
,,,-0.000003340000,2.00000
,,,-0.000003335000,1.60000
,,,-0.000003330000,1.60000
,,,-0.000003325000,1.60000
,,,-0.000003320000,2.00000
,,,-0.000003315000,2.00000
,,,-0.000003310000,1.20000
,,,-0.000003305000,0.40000
,,,-0.000003300000,2.80000
,,,-0.000003295000,0.80000
,,,-0.000003290000,1.60000
,,,-0.000003285000,0.80000
,,,-0.000003280000,0.80000
,,,-0.000003275000,1.20000
,,,-0.000003270000,0.80000
,,,-0.000003265000,0.40000
,,,-0.000003260000,1.60000
,,,-0.000003255000,1.20000
,,,-0.000003250000,1.20000
,,,-0.000003245000,0.40000
,,,-0.000003240000,1.20000
,,,-0.000003235000,1.20000
,,,-0.000003230000,1.20000
,,,-0.000003225000,0.80000
,,,-0.000003220000,1.20000
,,,-0.000003215000,0.40000
,,,-0.000003210000,1.20000
,,,-0.000003205000,0.40000
,,,-0.000003200000,0.80000
,,,-0.000003195000,0.80000
,,,-0.000003190000,1.60000
,,,-0.000003185000,0.40000
,,,-0.000003180000,1.20000
,,,-0.000003175000,0.80000
,,,-0.000003170000,0.80000
,,,-0.000003165000,0.80000
,,,-0.000003160000,1.60000
,,,-0.000003155000,1.20000
,,,-0.000003150000,0.80000
,,,-0.000003145000,1.20000
,,,-0.000003140000,0.80000
,,,-0.000003135000,0.40000
,,,-0.000003130000,1.60000
,,,-0.000003125000,0.80000
,,,-0.000003120000,0.40000
,,,-0.000003115000,0.80000
,,,-0.000003110000,1.60000
,,,-0.000003105000,1.20000
,,,-0.000003100000,0.80000
,,,-0.000003095000,0.80000
,,,-0.000003090000,1.20000
,,,-0.000003085000,2.00000
,,,-0.000003080000,0.40000
,,,-0.000003075000,0.40000
,,,-0.000003070000,1.60000
,,,-0.000003065000,0.80000
,,,-0.000003060000,1.20000
,,,-0.000003055000,0.40000
,,,-0.000003050000,1.20000
,,,-0.000003045000,0.40000
,,,-0.000003040000,0.80000
,,,-0.000003035000,1.20000
,,,-0.000003030000,1.20000
,,,-0.000003025000,0.40000
,,,-0.000003020000,0.80000
,,,-0.000003015000,1.20000
,,,-0.000003010000,1.60000
,,,-0.000003005000,0.80000
,,,-0.000003000000,0.40000
,,,-0.000002995000,1.20000
,,,-0.000002990000,1.60000
,,,-0.000002985000,0.00
,,,-0.000002980000,0.80000
,,,-0.000002975000,1.60000
,,,-0.000002970000,1.60000
,,,-0.000002965000,0.40000
,,,-0.000002960000,0.40000
,,,-0.000002955000,1.20000
,,,-0.000002950000,1.60000
,,,-0.000002945000,1.20000
,,,-0.000002940000,0.80000
,,,-0.000002935000,0.40000
,,,-0.000002930000,1.60000
,,,-0.000002925000,0.80000
,,,-0.000002920000,1.20000
,,,-0.000002915000,1.20000
,,,-0.000002910000,1.60000
,,,-0.000002905000,1.20000
,,,-0.000002900000,0.40000
,,,-0.000002895000,1.20000
,,,-0.000002890000,2.00000
,,,-0.000002885000,0.40000
,,,-0.000002880000,1.20000
,,,-0.000002875000,1.60000
,,,-0.000002870000,1.60000
,,,-0.000002865000,1.60000
,,,-0.000002860000,0.80000
,,,-0.000002855000,0.80000
,,,-0.000002850000,1.60000
,,,-0.000002845000,2.00000
,,,-0.000002840000,2.00000
,,,-0.000002835000,0.80000
,,,-0.000002830000,1.60000
,,,-0.000002825000,1.20000
,,,-0.000002820000,0.80000
,,,-0.000002815000,1.20000
,,,-0.000002810000,2.00000
,,,-0.000002805000,1.20000
,,,-0.000002800000,1.20000
,,,-0.000002795000,1.20000
,,,-0.000002790000,2.00000
,,,-0.000002785000,0.80000
,,,-0.000002780000,0.80000
,,,-0.000002775000,2.40000
,,,-0.000002770000,1.60000
,,,-0.000002765000,2.40000
,,,-0.000002760000,1.60000
,,,-0.000002755000,1.20000
,,,-0.000002750000,1.20000
,,,-0.000002745000,1.60000
,,,-0.000002740000,2.00000
,,,-0.000002735000,0.80000
,,,-0.000002730000,1.20000
,,,-0.000002725000,2.00000
,,,-0.000002720000,1.60000
,,,-0.000002715000,1.20000
,,,-0.000002710000,1.60000
,,,-0.000002705000,2.40000
,,,-0.000002700000,1.60000
,,,-0.000002695000,0.80000
,,,-0.000002690000,2.00000
,,,-0.000002685000,1.20000
,,,-0.000002680000,1.60000
,,,-0.000002675000,2.40000
,,,-0.000002670000,2.00000
,,,-0.000002665000,1.20000
,,,-0.000002660000,1.60000
,,,-0.000002655000,1.60000
,,,-0.000002650000,1.60000
,,,-0.000002645000,2.00000
,,,-0.000002640000,1.60000
,,,-0.000002635000,1.60000
,,,-0.000002630000,2.00000
,,,-0.000002625000,1.20000
,,,-0.000002620000,2.00000
,,,-0.000002615000,1.60000
,,,-0.000002610000,1.20000
,,,-0.000002605000,1.60000
,,,-0.000002600000,2.80000
,,,-0.000002595000,2.00000
,,,-0.000002590000,2.00000
,,,-0.000002585000,1.60000
,,,-0.000002580000,1.60000
,,,-0.000002575000,2.40000
,,,-0.000002570000,2.00000
,,,-0.000002565000,1.60000
,,,-0.000002560000,2.80000
,,,-0.000002555000,1.20000
,,,-0.000002550000,1.60000
,,,-0.000002545000,2.80000
,,,-0.000002540000,1.60000
,,,-0.000002535000,1.60000
,,,-0.000002530000,2.80000
,,,-0.000002525000,0.80000
,,,-0.000002520000,1.20000
,,,-0.000002515000,2.40000
,,,-0.000002510000,1.60000
,,,-0.000002505000,0.80000
,,,-0.000002500000,2.00000
,,,-0.000002495000,1.20000
,,,-0.000002490000,1.60000
,,,-0.000002485000,0.80000
,,,-0.000002480000,2.00000
,,,-0.000002475000,1.60000
,,,-0.000002470000,1.20000
,,,-0.000002465000,1.60000
,,,-0.000002460000,2.80000
,,,-0.000002455000,1.20000
,,,-0.000002450000,1.60000
,,,-0.000002445000,1.60000
,,,-0.000002440000,2.80000
,,,-0.000002435000,0.80000
,,,-0.000002430000,1.20000
,,,-0.000002425000,1.60000
,,,-0.000002420000,1.60000
,,,-0.000002415000,1.20000
,,,-0.000002410000,1.60000
,,,-0.000002405000,1.20000
,,,-0.000002400000,1.20000
,,,-0.000002395000,2.00000
,,,-0.000002390000,2.00000
,,,-0.000002385000,2.00000
,,,-0.000002380000,1.60000
,,,-0.000002375000,0.80000
,,,-0.000002370000,2.00000
,,,-0.000002365000,2.00000
,,,-0.000002360000,1.60000
,,,-0.000002355000,1.20000
,,,-0.000002350000,1.60000
,,,-0.000002345000,0.80000
,,,-0.000002340000,1.60000
,,,-0.000002335000,1.20000
,,,-0.000002330000,1.60000
,,,-0.000002325000,2.00000
,,,-0.000002320000,1.20000
,,,-0.000002315000,1.20000
,,,-0.000002310000,2.00000
,,,-0.000002305000,2.40000
,,,-0.000002300000,1.20000
,,,-0.000002295000,2.00000
,,,-0.000002290000,1.60000
,,,-0.000002285000,0.80000
,,,-0.000002280000,2.00000
,,,-0.000002275000,2.00000
,,,-0.000002270000,1.20000
,,,-0.000002265000,2.40000
,,,-0.000002260000,2.80000
,,,-0.000002255000,0.80000
,,,-0.000002250000,1.60000
,,,-0.000002245000,1.60000
,,,-0.000002240000,1.60000
,,,-0.000002235000,2.40000
,,,-0.000002230000,2.00000
,,,-0.000002225000,1.20000
,,,-0.000002220000,1.60000
,,,-0.000002215000,1.20000
,,,-0.000002210000,1.60000
,,,-0.000002205000,1.20000
,,,-0.000002200000,2.00000
,,,-0.000002195000,1.20000
,,,-0.000002190000,2.00000
,,,-0.000002185000,2.40000
,,,-0.000002180000,1.60000
,,,-0.000002175000,1.20000
,,,-0.000002170000,1.60000
,,,-0.000002165000,2.40000
,,,-0.000002160000,1.60000
,,,-0.000002155000,2.00000
,,,-0.000002150000,2.80000
,,,-0.000002145000,2.00000
,,,-0.000002140000,1.60000
,,,-0.000002135000,1.60000
,,,-0.000002130000,2.00000
,,,-0.000002125000,1.20000
,,,-0.000002120000,2.00000
,,,-0.000002115000,2.40000
,,,-0.000002110000,1.60000
,,,-0.000002105000,2.00000
,,,-0.000002100000,1.60000
,,,-0.000002095000,2.00000
,,,-0.000002090000,2.80000
,,,-0.000002085000,2.00000
,,,-0.000002080000,2.00000
,,,-0.000002075000,2.00000
,,,-0.000002070000,1.20000
,,,-0.000002065000,2.00000
,,,-0.000002060000,2.00000
,,,-0.000002055000,1.60000
,,,-0.000002050000,1.60000
,,,-0.000002045000,2.40000
,,,-0.000002040000,1.60000
,,,-0.000002035000,1.60000
,,,-0.000002030000,2.00000
,,,-0.000002025000,1.20000
,,,-0.000002020000,2.00000
,,,-0.000002015000,2.40000
,,,-0.000002010000,1.60000
,,,-0.000002005000,2.00000
,,,-0.000002000000,1.60000
,,,-0.000001995000,2.40000
,,,-0.000001990000,2.80000
,,,-0.000001985000,1.60000
,,,-0.000001980000,2.00000
,,,-0.000001975000,2.40000
,,,-0.000001970000,1.60000
,,,-0.000001965000,2.00000
,,,-0.000001960000,1.60000
,,,-0.000001955000,2.80000
,,,-0.000001950000,2.00000
,,,-0.000001945000,2.40000
,,,-0.000001940000,2.00000
,,,-0.000001935000,1.60000
,,,-0.000001930000,2.80000
,,,-0.000001925000,2.40000
,,,-0.000001920000,2.00000
,,,-0.000001915000,2.00000
,,,-0.000001910000,1.60000
,,,-0.000001905000,2.40000
,,,-0.000001900000,2.00000
,,,-0.000001895000,1.20000
,,,-0.000001890000,2.00000
,,,-0.000001885000,2.40000
,,,-0.000001880000,1.60000
,,,-0.000001875000,2.40000
,,,-0.000001870000,1.60000
,,,-0.000001865000,2.40000
,,,-0.000001860000,2.00000
,,,-0.000001855000,2.80000
,,,-0.000001850000,2.00000
,,,-0.000001845000,2.40000
,,,-0.000001840000,2.40000
,,,-0.000001835000,1.20000
,,,-0.000001830000,1.60000
,,,-0.000001825000,2.40000
,,,-0.000001820000,2.00000
,,,-0.000001815000,2.00000
,,,-0.000001810000,2.00000
,,,-0.000001805000,2.00000
,,,-0.000001800000,2.00000
,,,-0.000001795000,2.40000
,,,-0.000001790000,2.80000
,,,-0.000001785000,2.40000
,,,-0.000001780000,2.00000
,,,-0.000001775000,2.00000
,,,-0.000001770000,2.80000
,,,-0.000001765000,1.60000
,,,-0.000001760000,2.00000
,,,-0.000001755000,2.40000
,,,-0.000001750000,1.20000
,,,-0.000001745000,2.80000
,,,-0.000001740000,2.80000
,,,-0.000001735000,2.40000
,,,-0.000001730000,1.60000
,,,-0.000001725000,2.80000
,,,-0.000001720000,2.40000
,,,-0.000001715000,1.60000
,,,-0.000001710000,2.80000
,,,-0.000001705000,2.00000
,,,-0.000001700000,2.00000
,,,-0.000001695000,2.00000
,,,-0.000001690000,2.80000
,,,-0.000001685000,1.60000
,,,-0.000001680000,2.00000
,,,-0.000001675000,2.40000
,,,-0.000001670000,1.60000
,,,-0.000001665000,2.40000
,,,-0.000001660000,2.80000
,,,-0.000001655000,1.60000
,,,-0.000001650000,2.80000
,,,-0.000001645000,2.80000
,,,-0.000001640000,1.60000
,,,-0.000001635000,1.20000
,,,-0.000001630000,2.80000
,,,-0.000001625000,2.00000
,,,-0.000001620000,1.60000
,,,-0.000001615000,2.40000
,,,-0.000001610000,2.80000
,,,-0.000001605000,2.00000
,,,-0.000001600000,2.00000
,,,-0.000001595000,2.40000
